%!PS-Adobe-3.0 EPSF-3.0
%%Title: gl2ps_renderer figure
%%Creator: GL2PS 1.4.0, (C) 1999-2017 C. Geuzaine
%%For: Octave
%%CreationDate: Fri Jun  5 16:45:13 2020
%%LanguageLevel: 3
%%DocumentData: Clean7Bit
%%Pages: 1
%%BoundingBox: 0 0 576 432
%%EndComments
%%BeginProlog
/gl2psdict 64 dict def gl2psdict begin
/tryPS3shading false def % set to false to force subdivision
/rThreshold 0.064 def % red component subdivision threshold
/gThreshold 0.034 def % green component subdivision threshold
/bThreshold 0.1 def % blue component subdivision threshold
/BD { bind def } bind def
/C  { setrgbcolor } BD
/G  { 0.082 mul exch 0.6094 mul add exch 0.3086 mul add neg 1.0 add setgray } BD
/W  { setlinewidth } BD
/LC  { setlinecap } BD
/LJ  { setlinejoin } BD
/FC { findfont exch /SH exch def SH scalefont setfont } BD
/SW { dup stringwidth pop } BD
/S  { FC moveto show } BD
/SBC{ FC moveto SW -2 div 0 rmoveto show } BD
/SBR{ FC moveto SW neg 0 rmoveto show } BD
/SCL{ FC moveto 0 SH -2 div rmoveto show } BD
/SCC{ FC moveto SW -2 div SH -2 div rmoveto show } BD
/SCR{ FC moveto SW neg SH -2 div rmoveto show } BD
/STL{ FC moveto 0 SH neg rmoveto show } BD
/STC{ FC moveto SW -2 div SH neg rmoveto show } BD
/STR{ FC moveto SW neg SH neg rmoveto show } BD
/FCT { FC translate 0 0 } BD
/SR  { gsave FCT moveto rotate show grestore } BD
/SRX  { gsave FCT moveto rotate xshow grestore } BD
/SBCR{ gsave FCT moveto rotate SW -2 div 0 rmoveto show grestore } BD
/SBRR{ gsave FCT moveto rotate SW neg 0 rmoveto show grestore } BD
/SCLR{ gsave FCT moveto rotate 0 SH -2 div rmoveto show grestore} BD
/SCCR{ gsave FCT moveto rotate SW -2 div SH -2 div rmoveto show grestore} BD
/SCRR{ gsave FCT moveto rotate SW neg SH -2 div rmoveto show grestore} BD
/STLR{ gsave FCT moveto rotate 0 SH neg rmoveto show grestore } BD
/STCR{ gsave FCT moveto rotate SW -2 div SH neg rmoveto show grestore } BD
/STRR{ gsave FCT moveto rotate SW neg SH neg rmoveto show grestore } BD
/P  { newpath 0.0 360.0 arc closepath fill } BD
/LS { newpath moveto } BD
/L  { lineto } BD
/LE { lineto stroke } BD
/T  { newpath moveto lineto lineto closepath fill } BD
/STshfill {
      /b1 exch def /g1 exch def /r1 exch def /y1 exch def /x1 exch def
      /b2 exch def /g2 exch def /r2 exch def /y2 exch def /x2 exch def
      /b3 exch def /g3 exch def /r3 exch def /y3 exch def /x3 exch def
      gsave << /ShadingType 4 /ColorSpace [/DeviceRGB]
      /DataSource [ 0 x1 y1 r1 g1 b1 0 x2 y2 r2 g2 b2 0 x3 y3 r3 g3 b3 ] >>
      shfill grestore } BD
/Tm { 3 -1 roll 8 -1 roll 13 -1 roll add add 3 div
      3 -1 roll 7 -1 roll 11 -1 roll add add 3 div
      3 -1 roll 6 -1 roll 9 -1 roll add add 3 div C T } BD
/STsplit {
      4 index 15 index add 0.5 mul
      4 index 15 index add 0.5 mul
      4 index 15 index add 0.5 mul
      4 index 15 index add 0.5 mul
      4 index 15 index add 0.5 mul
      5 copy 5 copy 25 15 roll
      9 index 30 index add 0.5 mul
      9 index 30 index add 0.5 mul
      9 index 30 index add 0.5 mul
      9 index 30 index add 0.5 mul
      9 index 30 index add 0.5 mul
      5 copy 5 copy 35 5 roll 25 5 roll 15 5 roll
      4 index 10 index add 0.5 mul
      4 index 10 index add 0.5 mul
      4 index 10 index add 0.5 mul
      4 index 10 index add 0.5 mul
      4 index 10 index add 0.5 mul
      5 copy 5 copy 40 5 roll 25 5 roll 15 5 roll 25 5 roll
      STnoshfill STnoshfill STnoshfill STnoshfill } BD
/STnoshfill {
      2 index 8 index sub abs rThreshold gt
      { STsplit }
      { 1 index 7 index sub abs gThreshold gt
        { STsplit }
        { dup 6 index sub abs bThreshold gt
          { STsplit }
          { 2 index 13 index sub abs rThreshold gt
            { STsplit }
            { 1 index 12 index sub abs gThreshold gt
              { STsplit }
              { dup 11 index sub abs bThreshold gt
                { STsplit }
                { 7 index 13 index sub abs rThreshold gt
                  { STsplit }
                  { 6 index 12 index sub abs gThreshold gt
                    { STsplit }
                    { 5 index 11 index sub abs bThreshold gt
                      { STsplit }
                      { Tm }
                      ifelse }
                    ifelse }
                  ifelse }
                ifelse }
              ifelse }
            ifelse }
          ifelse }
        ifelse }
      ifelse } BD
tryPS3shading
{ /shfill where
  { /ST { STshfill } BD }
  { /ST { STnoshfill } BD }
  ifelse }
{ /ST { STnoshfill } BD }
ifelse
end
%%EndProlog
%%BeginSetup
/DeviceRGB setcolorspace
gl2psdict begin
%%EndSetup
%%Page: 1 1
%%BeginPageSetup
%%EndPageSetup
mark
gsave
1.0 1.0 scale
1 1 1 C
newpath 0 0 moveto 576 0 lineto 576 432 lineto 0 432 lineto
closepath fill
gsave
1.0 1.0 scale
1 1 1 C
newpath 0 0 moveto 576 0 lineto 576 432 lineto 0 432 lineto
closepath fill
newpath 0 0 moveto 576 0 lineto 576 432 lineto 0 432 lineto
closepath clip
1 1 1 C
521.28 57.0168 74.88 57.0168 74.88 399.6 T
521.28 399.6 521.28 57.0168 74.88 399.6 T
0.5 W
0.15 0.15 0.15 C
81.7477 57.0168 LS
81.7477 61.4753 LE
81.7477 399.6 LS
81.7477 395.141 LE
143.557 57.0168 LS
143.557 61.4753 LE
143.557 399.6 LS
143.557 395.141 LE
205.366 57.0168 LS
205.366 61.4753 LE
205.366 399.6 LS
205.366 395.141 LE
267.175 57.0168 LS
267.175 61.4753 LE
267.175 399.6 LS
267.175 395.141 LE
328.985 57.0168 LS
328.985 61.4753 LE
328.985 399.6 LS
328.985 395.141 LE
390.794 57.0168 LS
390.794 61.4753 LE
390.794 399.6 LS
390.794 395.141 LE
452.603 57.0168 LS
452.603 61.4753 LE
452.603 399.6 LS
452.603 395.141 LE
514.412 57.0168 LS
514.412 61.4753 LE
514.412 399.6 LS
514.412 395.141 LE
gsave
0.14902 0.14902 0.14902 C
(1) [10] 0 76.2477 27.035 20 /Helvetica SRX
grestore

gsave
0.14902 0.14902 0.14902 C
(10) [11 10] 0 132.557 27.035 20 /Helvetica SRX
grestore

gsave
0.14902 0.14902 0.14902 C
(19) [11 10] 0 194.366 27.035 20 /Helvetica SRX
grestore

gsave
0.14902 0.14902 0.14902 C
(28) [11 10] 0 256.175 27.035 20 /Helvetica SRX
grestore

gsave
0.14902 0.14902 0.14902 C
(37) [11 10] 0 317.985 27.035 20 /Helvetica SRX
grestore

gsave
0.14902 0.14902 0.14902 C
(46) [11 10] 0 379.794 27.035 20 /Helvetica SRX
grestore

gsave
0.14902 0.14902 0.14902 C
(55) [11 10] 0 441.603 27.035 20 /Helvetica SRX
grestore

gsave
0.14902 0.14902 0.14902 C
(64) [11 10] 0 503.412 27.035 20 /Helvetica SRX
grestore

74.88 57.0168 LS
79.348 57.0168 LE
521.28 57.0168 LS
516.812 57.0168 LE
74.88 125.533 LS
79.348 125.533 LE
521.28 125.533 LS
516.812 125.533 LE
74.88 194.05 LS
79.348 194.05 LE
521.28 194.05 LS
516.812 194.05 LE
74.88 262.567 LS
79.348 262.567 LE
521.28 262.567 LS
516.812 262.567 LE
74.88 331.083 LS
79.348 331.083 LE
521.28 331.083 LS
516.812 331.083 LE
74.88 399.6 LS
79.348 399.6 LE
521.28 399.6 LS
516.812 399.6 LE
gsave
0.14902 0.14902 0.14902 C
(0) [10] 0 53.871 49.5167 20 /Helvetica SRX
grestore

gsave
0.14902 0.14902 0.14902 C
(0.5) [11 5 10] 0 37.871 118.033 20 /Helvetica SRX
grestore

gsave
0.14902 0.14902 0.14902 C
(1) [10] 0 53.871 186.55 20 /Helvetica SRX
grestore

gsave
0.14902 0.14902 0.14902 C
(1.5) [11 5 10] 0 37.871 255.067 20 /Helvetica SRX
grestore

gsave
0.14902 0.14902 0.14902 C
(2) [10] 0 53.871 323.583 20 /Helvetica SRX
grestore

gsave
0.14902 0.14902 0.14902 C
(2.5) [11 5 10] 0 37.871 392.1 20 /Helvetica SRX
grestore

2 LC
[16 0] 0 setdash
74.88 57.0168 LS
521.28 57.0168 LE
74.88 399.6 LS
521.28 399.6 LE
74.88 57.0168 LS
74.88 399.6 LE
521.28 57.0168 LS
521.28 399.6 LE
gsave
0.14902 0.14902 0.14902 C
(magnitude of eigenvalue) [18 12 12 12 5 6 12 12 12 6 12 6 6 12 5 12 12 12 11 12 5 12 10] 90 27.871 110.308 22 /Helvetica SRX
grestore

gsave
0.14902 0.14902 0.14902 C
(rank order of eigenvalue) [7 12 12 11 6 12 7 12 12 7 6 12 6 6 12 5 12 12 12 11 12 5 12 10] 0 181.58 5.03497 22 /Helvetica SRX
grestore

2 W
0 LC
1 LJ
[] 0 setdash
0 0 1 C
81.7477 326.328 LS
88.6154 316.01 L
95.4831 303.745 L
102.351 293.714 L
109.218 288.644 L
116.086 281.491 L
122.954 278.038 L
129.822 275.722 L
136.689 271.022 L
143.557 269.501 L
150.425 264.924 L
157.292 254.824 L
164.16 251.083 L
171.028 248.617 L
177.895 245.958 L
184.763 240.148 L
191.631 236.928 L
198.498 233.557 L
205.366 227.431 L
212.234 224.883 L
219.102 222.978 L
225.969 221.32 L
232.837 219.853 L
239.705 216.003 L
246.572 215.03 L
253.44 212.015 L
260.308 210.891 L
267.175 207.315 L
274.043 205.876 L
280.911 205.163 L
287.778 203.19 L
294.646 200.724 L
301.514 198.463 L
308.382 196.941 L
315.249 195.873 L
322.117 193.872 L
328.985 193.68 L
335.852 190.432 L
342.72 186.637 L
349.588 185.897 L
356.455 181.717 L
363.323 178.716 L
370.191 176.195 L
377.058 173.906 L
383.926 169.727 L
390.794 166.534 L
397.661 164.341 L
404.529 161.094 L
411.397 154.516 L
418.265 153.57 L
425.132 147.719 L
432 145.568 L
438.868 139.127 L
445.735 126.917 L
452.603 123.519 L
459.471 87.7396 L
466.338 80.3398 L
473.206 76.4207 L
480.074 74.187 L
486.942 68.0342 L
493.809 65.6636 L
500.677 63.3751 L
507.545 62.3199 L
514.412 61.5937 LE
1 0 0 C
81.7477 332.001 LS
88.6154 316.435 L
95.4831 301.662 L
102.351 289.096 L
109.218 288.247 L
116.086 283.944 L
122.954 280.71 L
129.822 279.737 L
136.689 273.351 L
143.557 270.665 L
150.425 261.1 L
157.292 257.414 L
164.16 252.056 L
171.028 248.576 L
177.895 247.082 L
184.763 242.039 L
191.631 238.367 L
198.498 235.79 L
205.366 233.406 L
212.234 229.336 L
219.102 227.253 L
225.969 227.02 L
232.837 222.622 L
239.705 219.333 L
246.572 217.346 L
253.44 214.016 L
260.308 213.317 L
267.175 209.781 L
274.043 207.178 L
280.911 206.739 L
287.778 205.862 L
294.646 202.19 L
301.514 201.244 L
308.382 200.381 L
315.249 198.01 L
322.117 195.571 L
328.985 194.269 L
335.852 191.94 L
342.72 188.706 L
349.588 184.376 L
356.455 182.58 L
363.323 180.415 L
370.191 178.182 L
377.058 174.125 L
383.926 170.741 L
390.794 165.67 L
397.661 163.437 L
404.529 157.215 L
411.397 155.626 L
418.265 151.652 L
425.132 147.76 L
432 136.332 L
438.868 127.233 L
445.735 116.9 L
452.603 101.909 L
459.471 85.4923 L
466.338 77.0921 L
473.206 72.7071 L
480.074 68.4179 L
486.942 65.4443 L
493.809 63.9369 L
500.677 62.9777 L
507.545 62.3062 L
514.412 61.7581 LE
0 0 0 C
81.7477 327.15 LS
88.6154 318.97 L
95.4831 301.402 L
102.351 290.96 L
109.218 288.027 L
116.086 283.574 L
122.954 278.147 L
129.822 277.805 L
136.689 275.626 L
143.557 267.02 L
150.425 261.128 L
157.292 253.975 L
164.16 248.589 L
171.028 248.302 L
177.895 246.616 L
184.763 242.519 L
191.631 238.367 L
198.498 237.037 L
205.366 235.242 L
212.234 228.034 L
219.102 226.568 L
225.969 225.033 L
232.837 223.663 L
239.705 220.127 L
246.572 217.579 L
253.44 213.947 L
260.308 211.631 L
267.175 209.398 L
274.043 208.274 L
280.911 207.301 L
287.778 205.383 L
294.646 204.451 L
301.514 201.847 L
308.382 201.285 L
315.249 197.736 L
322.117 195.763 L
328.985 193.009 L
335.852 190.309 L
342.72 188.377 L
349.588 186.705 L
356.455 181.196 L
363.323 179.881 L
370.191 176.578 L
377.058 172.166 L
383.926 170.001 L
390.794 169.754 L
397.661 162.738 L
404.529 155.64 L
411.397 152.913 L
418.265 149.281 L
425.132 141.854 L
432 135.729 L
438.868 132.782 L
445.735 123.341 L
452.603 114.954 L
459.471 97.8116 L
466.338 71.3641 L
473.206 68.8427 L
480.074 67.6231 L
486.942 65.9239 L
493.809 64.8688 L
500.677 63.7177 L
507.545 62.2377 L
514.412 61.114 LE
grestore
grestore
showpage
cleartomark
%%PageTrailer
%%Trailer
end
%%EOF
