%!PS-Adobe-3.0 EPSF-3.0
%%Title: gl2ps_renderer figure
%%Creator: GL2PS 1.4.2, (C) 1999-2020 C. Geuzaine
%%For: Octave
%%CreationDate: Tue Jan  5 10:07:00 2021
%%LanguageLevel: 3
%%DocumentData: Clean7Bit
%%Pages: 1
%%BoundingBox: 0 0 576 432
%%EndComments
%%BeginProlog
/gl2psdict 64 dict def gl2psdict begin
/tryPS3shading false def % set to false to force subdivision
/rThreshold 0.064 def % red component subdivision threshold
/gThreshold 0.034 def % green component subdivision threshold
/bThreshold 0.1 def % blue component subdivision threshold
/BD { bind def } bind def
/C  { setrgbcolor } BD
/G  { 0.082 mul exch 0.6094 mul add exch 0.3086 mul add neg 1.0 add setgray } BD
/W  { setlinewidth } BD
/LC  { setlinecap } BD
/LJ  { setlinejoin } BD
/FC { findfont exch /SH exch def SH scalefont setfont } BD
/SW { dup stringwidth pop } BD
/S  { FC moveto show } BD
/SBC{ FC moveto SW -2 div 0 rmoveto show } BD
/SBR{ FC moveto SW neg 0 rmoveto show } BD
/SCL{ FC moveto 0 SH -2 div rmoveto show } BD
/SCC{ FC moveto SW -2 div SH -2 div rmoveto show } BD
/SCR{ FC moveto SW neg SH -2 div rmoveto show } BD
/STL{ FC moveto 0 SH neg rmoveto show } BD
/STC{ FC moveto SW -2 div SH neg rmoveto show } BD
/STR{ FC moveto SW neg SH neg rmoveto show } BD
/FCT { FC translate 0 0 } BD
/SR  { gsave FCT moveto rotate show grestore } BD
/SRX  { gsave FCT moveto rotate xshow grestore } BD
/SBCR{ gsave FCT moveto rotate SW -2 div 0 rmoveto show grestore } BD
/SBRR{ gsave FCT moveto rotate SW neg 0 rmoveto show grestore } BD
/SCLR{ gsave FCT moveto rotate 0 SH -2 div rmoveto show grestore} BD
/SCCR{ gsave FCT moveto rotate SW -2 div SH -2 div rmoveto show grestore} BD
/SCRR{ gsave FCT moveto rotate SW neg SH -2 div rmoveto show grestore} BD
/STLR{ gsave FCT moveto rotate 0 SH neg rmoveto show grestore } BD
/STCR{ gsave FCT moveto rotate SW -2 div SH neg rmoveto show grestore } BD
/STRR{ gsave FCT moveto rotate SW neg SH neg rmoveto show grestore } BD
/P  { newpath 0.0 360.0 arc closepath fill } BD
/LS { newpath moveto } BD
/L  { lineto } BD
/LE { lineto stroke } BD
/T  { newpath moveto lineto lineto closepath fill } BD
/STshfill {
      /b1 exch def /g1 exch def /r1 exch def /y1 exch def /x1 exch def
      /b2 exch def /g2 exch def /r2 exch def /y2 exch def /x2 exch def
      /b3 exch def /g3 exch def /r3 exch def /y3 exch def /x3 exch def
      gsave << /ShadingType 4 /ColorSpace [/DeviceRGB]
      /DataSource [ 0 x1 y1 r1 g1 b1 0 x2 y2 r2 g2 b2 0 x3 y3 r3 g3 b3 ] >>
      shfill grestore } BD
/Tm { 3 -1 roll 8 -1 roll 13 -1 roll add add 3 div
      3 -1 roll 7 -1 roll 11 -1 roll add add 3 div
      3 -1 roll 6 -1 roll 9 -1 roll add add 3 div C T } BD
/STsplit {
      4 index 15 index add 0.5 mul
      4 index 15 index add 0.5 mul
      4 index 15 index add 0.5 mul
      4 index 15 index add 0.5 mul
      4 index 15 index add 0.5 mul
      5 copy 5 copy 25 15 roll
      9 index 30 index add 0.5 mul
      9 index 30 index add 0.5 mul
      9 index 30 index add 0.5 mul
      9 index 30 index add 0.5 mul
      9 index 30 index add 0.5 mul
      5 copy 5 copy 35 5 roll 25 5 roll 15 5 roll
      4 index 10 index add 0.5 mul
      4 index 10 index add 0.5 mul
      4 index 10 index add 0.5 mul
      4 index 10 index add 0.5 mul
      4 index 10 index add 0.5 mul
      5 copy 5 copy 40 5 roll 25 5 roll 15 5 roll 25 5 roll
      STnoshfill STnoshfill STnoshfill STnoshfill } BD
/STnoshfill {
      2 index 8 index sub abs rThreshold gt
      { STsplit }
      { 1 index 7 index sub abs gThreshold gt
        { STsplit }
        { dup 6 index sub abs bThreshold gt
          { STsplit }
          { 2 index 13 index sub abs rThreshold gt
            { STsplit }
            { 1 index 12 index sub abs gThreshold gt
              { STsplit }
              { dup 11 index sub abs bThreshold gt
                { STsplit }
                { 7 index 13 index sub abs rThreshold gt
                  { STsplit }
                  { 6 index 12 index sub abs gThreshold gt
                    { STsplit }
                    { 5 index 11 index sub abs bThreshold gt
                      { STsplit }
                      { Tm }
                      ifelse }
                    ifelse }
                  ifelse }
                ifelse }
              ifelse }
            ifelse }
          ifelse }
        ifelse }
      ifelse } BD
tryPS3shading
{ /shfill where
  { /ST { STshfill } BD }
  { /ST { STnoshfill } BD }
  ifelse }
{ /ST { STnoshfill } BD }
ifelse
end
%%EndProlog
%%BeginSetup
/DeviceRGB setcolorspace
gl2psdict begin
%%EndSetup
%%Page: 1 1
%%BeginPageSetup
%%EndPageSetup
mark
gsave
1.0 1.0 scale
1 1 1 C
newpath 0 0 moveto 576 0 lineto 576 432 lineto 0 432 lineto
closepath fill
gsave
1.0 1.0 scale
1 1 1 C
newpath 0 0 moveto 576 0 lineto 576 432 lineto 0 432 lineto
closepath fill
newpath 0 0 moveto 576 0 lineto 576 432 lineto 0 432 lineto
closepath clip
1 1 1 C
521.28 52.9827 74.88 52.9827 74.88 399.6 T
521.28 399.6 521.28 52.9827 74.88 399.6 T
0.5 W
0.15 0.15 0.15 C
74.88 52.9827 LS
74.88 57.4418 LE
74.88 399.6 LS
74.88 395.141 LE
130.68 52.9827 LS
130.68 57.4418 LE
130.68 399.6 LS
130.68 395.141 LE
186.48 52.9827 LS
186.48 57.4418 LE
186.48 399.6 LS
186.48 395.141 LE
242.28 52.9827 LS
242.28 57.4418 LE
242.28 399.6 LS
242.28 395.141 LE
298.08 52.9827 LS
298.08 57.4418 LE
298.08 399.6 LS
298.08 395.141 LE
353.88 52.9827 LS
353.88 57.4418 LE
353.88 399.6 LS
353.88 395.141 LE
409.68 52.9827 LS
409.68 57.4418 LE
409.68 399.6 LS
409.68 395.141 LE
465.48 52.9827 LS
465.48 57.4418 LE
465.48 399.6 LS
465.48 395.141 LE
521.28 52.9827 LS
521.28 57.4418 LE
521.28 399.6 LS
521.28 395.141 LE
gsave
0.14902 0.14902 0.14902 C
(0) [10] 0 69.38 22.9993 20 /Helvetica SRX
grestore

gsave
0.14902 0.14902 0.14902 C
(2) [10] 0 125.18 22.9993 20 /Helvetica SRX
grestore

gsave
0.14902 0.14902 0.14902 C
(4) [10] 0 180.98 22.9993 20 /Helvetica SRX
grestore

gsave
0.14902 0.14902 0.14902 C
(6) [10] 0 236.78 22.9993 20 /Helvetica SRX
grestore

gsave
0.14902 0.14902 0.14902 C
(8) [10] 0 292.58 22.9993 20 /Helvetica SRX
grestore

gsave
0.14902 0.14902 0.14902 C
(10) [11 10] 0 342.88 22.9993 20 /Helvetica SRX
grestore

gsave
0.14902 0.14902 0.14902 C
(12) [11 10] 0 398.68 22.9993 20 /Helvetica SRX
grestore

gsave
0.14902 0.14902 0.14902 C
(14) [11 10] 0 454.48 22.9993 20 /Helvetica SRX
grestore

gsave
0.14902 0.14902 0.14902 C
(16) [11 10] 0 510.28 22.9993 20 /Helvetica SRX
grestore

74.88 52.9827 LS
79.348 52.9827 LE
521.28 52.9827 LS
516.812 52.9827 LE
74.88 102.499 LS
79.348 102.499 LE
521.28 102.499 LS
516.812 102.499 LE
74.88 152.016 LS
79.348 152.016 LE
521.28 152.016 LS
516.812 152.016 LE
74.88 201.533 LS
79.348 201.533 LE
521.28 201.533 LS
516.812 201.533 LE
74.88 251.05 LS
79.348 251.05 LE
521.28 251.05 LS
516.812 251.05 LE
74.88 300.566 LS
79.348 300.566 LE
521.28 300.566 LS
516.812 300.566 LE
74.88 350.083 LS
79.348 350.083 LE
521.28 350.083 LS
516.812 350.083 LE
74.88 399.6 LS
79.348 399.6 LE
521.28 399.6 LS
516.812 399.6 LE
gsave
0.14902 0.14902 0.14902 C
(0) [10] 0 53.871 45.4827 20 /Helvetica SRX
grestore

gsave
0.14902 0.14902 0.14902 C
(10) [11 10] 0 42.871 94.9995 20 /Helvetica SRX
grestore

gsave
0.14902 0.14902 0.14902 C
(20) [11 10] 0 42.871 144.516 20 /Helvetica SRX
grestore

gsave
0.14902 0.14902 0.14902 C
(30) [11 10] 0 42.871 194.033 20 /Helvetica SRX
grestore

gsave
0.14902 0.14902 0.14902 C
(40) [11 10] 0 42.871 243.55 20 /Helvetica SRX
grestore

gsave
0.14902 0.14902 0.14902 C
(50) [11 10] 0 42.871 293.066 20 /Helvetica SRX
grestore

gsave
0.14902 0.14902 0.14902 C
(60) [11 10] 0 42.871 342.583 20 /Helvetica SRX
grestore

gsave
0.14902 0.14902 0.14902 C
(70) [11 10] 0 42.871 392.1 20 /Helvetica SRX
grestore

2 LC
[16 0] 0 setdash
74.88 52.9827 LS
521.28 52.9827 LE
74.88 399.6 LS
521.28 399.6 LE
74.88 52.9827 LS
74.88 399.6 LE
521.28 52.9827 LS
521.28 399.6 LE
gsave
0.14902 0.14902 0.14902 C
(repulsive force) [7 12 12 12 5 11 5 11 12 6 6 12 7 11 10] 90 32.871 155.791 22 /Helvetica SRX
grestore

gsave
0.14902 0.14902 0.14902 C
(distance between items) [12 5 11 6 12 12 11 12 6 12 12 6 16 12 12 12 6 5 6 12 18 10] 0 184.58 0.999262 22 /Helvetica SRX
grestore

2 W
0 LC
1 LJ
[] 0 setdash
0.8 0 0 C
74.88 52.9827 LS
77.67 116.227 L
80.46 175.823 L
83.25 228.791 L
86.04 273.251 L
88.83 308.496 L
91.62 334.8 L
94.41 353.086 L
97.2 364.591 L
99.99 370.619 L
102.78 372.386 L
105.57 370.942 L
108.36 367.153 L
111.15 361.704 L
113.94 355.127 L
116.73 347.823 L
119.52 340.094 L
122.31 332.161 L
125.1 324.182 L
127.89 316.274 L
130.68 308.514 L
133.47 300.958 L
136.26 293.638 L
139.05 286.578 L
141.84 279.787 L
144.63 273.27 L
147.42 267.025 L
150.21 261.047 L
153 255.329 L
155.79 249.861 L
158.58 244.634 L
161.37 239.637 L
164.16 234.858 L
166.95 230.288 L
169.74 225.917 L
172.53 221.732 L
175.32 217.726 L
178.11 213.888 L
180.9 210.21 L
183.69 206.683 L
186.48 203.298 L
189.27 200.048 L
192.06 196.927 L
194.85 193.928 L
197.64 191.043 L
200.43 188.267 L
203.22 185.594 L
206.01 183.02 L
208.8 180.538 L
211.59 178.146 L
214.38 175.837 L
217.17 173.608 L
219.96 171.456 L
222.75 169.375 L
225.54 167.364 L
228.33 165.419 L
231.12 163.536 L
233.91 161.714 L
236.7 159.948 L
239.49 158.238 L
242.28 156.579 L
245.07 154.97 L
247.86 153.409 L
250.65 151.894 L
253.44 150.423 L
256.23 148.994 L
259.02 147.605 L
261.81 146.254 L
264.6 144.941 L
267.39 143.664 L
270.18 142.421 L
272.97 141.21 L
275.76 140.032 L
278.55 138.883 L
281.34 137.765 L
284.13 136.674 L
286.92 135.61 L
289.71 134.573 L
292.5 133.561 L
295.29 132.573 L
298.08 131.609 L
300.87 130.668 L
303.66 129.749 L
306.45 128.85 L
309.24 127.973 L
312.03 127.115 L
314.82 126.276 L
317.61 125.455 L
320.4 124.653 L
323.19 123.868 L
325.98 123.1 L
328.77 122.348 L
331.56 121.611 L
334.35 120.89 L
337.14 120.184 L
339.93 119.493 L
342.72 118.815 L
345.51 118.15 L
348.3 117.499 L
351.09 116.861 L
353.88 116.234 L
356.67 115.62 L
359.46 115.018 L
362.25 114.427 L
365.04 113.847 L
367.83 113.278 L
370.62 112.719 L
373.41 112.171 L
376.2 111.632 L
378.99 111.103 L
381.78 110.584 L
384.57 110.073 L
387.36 109.571 L
390.15 109.078 L
392.94 108.594 L
395.73 108.118 L
398.52 107.649 L
401.31 107.189 L
404.1 106.736 L
406.89 106.29 L
409.68 105.853 L
412.47 105.421 L
415.26 104.998 L
418.05 104.58 L
420.84 104.17 L
423.63 103.765 L
426.42 103.368 L
429.21 102.975 L
432 102.59 L
434.79 102.21 L
437.58 101.835 L
440.37 101.467 L
443.16 101.104 L
445.95 100.746 L
448.74 100.394 L
451.53 100.046 L
454.32 99.7038 L
457.11 99.3665 L
459.9 99.0338 L
462.69 98.706 L
465.48 98.3827 L
468.27 98.0643 L
471.06 97.7498 L
473.85 97.4399 L
476.64 97.1339 L
479.43 96.8323 L
482.22 96.5347 L
485.01 96.2415 L
487.8 95.9519 L
490.59 95.6662 L
493.38 95.3839 L
496.17 95.1056 L
498.96 94.8308 L
501.75 94.5595 L
504.54 94.2921 L
507.33 94.0277 L
510.12 93.7667 L
512.91 93.5092 L
515.7 93.2547 L
518.49 93.0032 L
521.28 92.7551 LE
[8 8 8 8] 0 setdash
0.5 0 0.3 C
74.88 52.9827 LS
77.67 69.2827 L
80.46 85.3404 L
83.25 100.926 L
86.04 115.832 L
88.83 129.882 L
91.62 142.934 L
94.41 154.889 L
97.2 165.683 L
99.99 175.292 L
102.78 183.719 L
105.57 190.999 L
108.36 197.182 L
111.15 202.338 L
113.94 206.542 L
116.73 209.879 L
119.52 212.433 L
122.31 214.286 L
125.1 215.52 L
127.89 216.211 L
130.68 216.427 L
133.47 216.235 L
136.26 215.691 L
139.05 214.85 L
141.84 213.755 L
144.63 212.449 L
147.42 210.968 L
150.21 209.345 L
153 207.605 L
155.79 205.772 L
158.58 203.869 L
161.37 201.911 L
164.16 199.915 L
166.95 197.893 L
169.74 195.856 L
172.53 193.814 L
175.32 191.774 L
178.11 189.744 L
180.9 187.728 L
183.69 185.731 L
186.48 183.757 L
189.27 181.809 L
192.06 179.891 L
194.85 178.002 L
197.64 176.145 L
200.43 174.322 L
203.22 172.533 L
206.01 170.778 L
208.8 169.058 L
211.59 167.373 L
214.38 165.723 L
217.17 164.108 L
219.96 162.527 L
222.75 160.981 L
225.54 159.468 L
228.33 157.988 L
231.12 156.542 L
233.91 155.127 L
236.7 153.743 L
239.49 152.391 L
242.28 151.068 L
245.07 149.775 L
247.86 148.511 L
250.65 147.275 L
253.44 146.066 L
256.23 144.883 L
259.02 143.727 L
261.81 142.596 L
264.6 141.49 L
267.39 140.408 L
270.18 139.348 L
272.97 138.312 L
275.76 137.298 L
278.55 136.306 L
281.34 135.334 L
284.13 134.383 L
286.92 133.451 L
289.71 132.539 L
292.5 131.647 L
295.29 130.772 L
298.08 129.914 L
300.87 129.074 L
303.66 128.251 L
306.45 127.445 L
309.24 126.654 L
312.03 125.879 L
314.82 125.119 L
317.61 124.373 L
320.4 123.642 L
323.19 122.925 L
325.98 122.222 L
328.77 121.531 L
331.56 120.854 L
334.35 120.189 L
337.14 119.536 L
339.93 118.895 L
342.72 118.266 L
345.51 117.648 L
348.3 117.042 L
351.09 116.445 L
353.88 115.86 L
356.67 115.285 L
359.46 114.719 L
362.25 114.164 L
365.04 113.617 L
367.83 113.081 L
370.62 112.553 L
373.41 112.034 L
376.2 111.524 L
378.99 111.022 L
381.78 110.528 L
384.57 110.042 L
387.36 109.565 L
390.15 109.095 L
392.94 108.632 L
395.73 108.177 L
398.52 107.728 L
401.31 107.287 L
404.1 106.853 L
406.89 106.425 L
409.68 106.004 L
412.47 105.589 L
415.26 105.18 L
418.05 104.778 L
420.84 104.382 L
423.63 103.991 L
426.42 103.606 L
429.21 103.227 L
432 102.854 L
434.79 102.485 L
437.58 102.122 L
440.37 101.764 L
443.16 101.411 L
445.95 101.063 L
448.74 100.72 L
451.53 100.382 L
454.32 100.048 L
457.11 99.7186 L
459.9 99.3943 L
462.69 99.0739 L
465.48 98.758 L
468.27 98.446 L
471.06 98.1385 L
473.85 97.8345 L
476.64 97.5349 L
479.43 97.2393 L
482.22 96.9477 L
485.01 96.6595 L
487.8 96.3747 L
490.59 96.094 L
493.38 95.8167 L
496.17 95.5429 L
498.96 95.2725 L
501.75 95.0051 L
504.54 94.7412 L
507.33 94.4807 L
510.12 94.2233 L
512.91 93.9692 L
515.7 93.7182 L
518.49 93.4696 L
521.28 93.2245 LE
[8 2 4 2 8 2 4 2] 0 setdash
0 0 0.7 C
74.88 52.9827 LS
77.67 57.4363 L
80.46 61.8735 L
83.25 66.2775 L
86.04 70.6325 L
88.83 74.9231 L
91.62 79.1345 L
94.41 83.2528 L
97.2 87.2657 L
99.99 91.1621 L
102.78 94.9308 L
105.57 98.5634 L
108.36 102.052 L
111.15 105.391 L
113.94 108.576 L
116.73 111.602 L
119.52 114.467 L
122.31 117.17 L
125.1 119.711 L
127.89 122.091 L
130.68 124.312 L
133.47 126.376 L
136.26 128.287 L
139.05 130.048 L
141.84 131.664 L
144.63 133.139 L
147.42 134.48 L
150.21 135.691 L
153 136.777 L
155.79 137.746 L
158.58 138.602 L
161.37 139.351 L
164.16 139.999 L
166.95 140.551 L
169.74 141.014 L
172.53 141.391 L
175.32 141.691 L
178.11 141.915 L
180.9 142.07 L
183.69 142.161 L
186.48 142.192 L
189.27 142.166 L
192.06 142.089 L
194.85 141.964 L
197.64 141.795 L
200.43 141.586 L
203.22 141.338 L
206.01 141.056 L
208.8 140.743 L
211.59 140.401 L
214.38 140.032 L
217.17 139.64 L
219.96 139.226 L
222.75 138.793 L
225.54 138.342 L
228.33 137.875 L
231.12 137.393 L
233.91 136.9 L
236.7 136.395 L
239.49 135.88 L
242.28 135.357 L
245.07 134.826 L
247.86 134.29 L
250.65 133.748 L
253.44 133.201 L
256.23 132.651 L
259.02 132.099 L
261.81 131.544 L
264.6 130.988 L
267.39 130.431 L
270.18 129.874 L
272.97 129.317 L
275.76 128.761 L
278.55 128.207 L
281.34 127.653 L
284.13 127.102 L
286.92 126.554 L
289.71 126.008 L
292.5 125.464 L
295.29 124.924 L
298.08 124.387 L
300.87 123.854 L
303.66 123.325 L
306.45 122.799 L
309.24 122.277 L
312.03 121.76 L
314.82 121.247 L
317.61 120.738 L
320.4 120.234 L
323.19 119.734 L
325.98 119.239 L
328.77 118.748 L
331.56 118.262 L
334.35 117.781 L
337.14 117.304 L
339.93 116.833 L
342.72 116.366 L
345.51 115.903 L
348.3 115.446 L
351.09 114.993 L
353.88 114.545 L
356.67 114.102 L
359.46 113.664 L
362.25 113.23 L
365.04 112.801 L
367.83 112.377 L
370.62 111.957 L
373.41 111.542 L
376.2 111.131 L
378.99 110.725 L
381.78 110.324 L
384.57 109.926 L
387.36 109.533 L
390.15 109.145 L
392.94 108.761 L
395.73 108.382 L
398.52 108.006 L
401.31 107.635 L
404.1 107.267 L
406.89 106.904 L
409.68 106.545 L
412.47 106.191 L
415.26 105.84 L
418.05 105.493 L
420.84 105.15 L
423.63 104.81 L
426.42 104.475 L
429.21 104.143 L
432 103.815 L
434.79 103.49 L
437.58 103.169 L
440.37 102.852 L
443.16 102.538 L
445.95 102.227 L
448.74 101.92 L
451.53 101.617 L
454.32 101.316 L
457.11 101.019 L
459.9 100.725 L
462.69 100.435 L
465.48 100.147 L
468.27 99.8627 L
471.06 99.5815 L
473.85 99.3032 L
476.64 99.0279 L
479.43 98.7555 L
482.22 98.4857 L
485.01 98.2193 L
487.8 97.9553 L
490.59 97.6944 L
493.38 97.4359 L
496.17 97.1804 L
498.96 96.9274 L
501.75 96.6773 L
504.54 96.4292 L
507.33 96.1841 L
510.12 95.942 L
512.91 95.7018 L
515.7 95.4641 L
518.49 95.2289 L
521.28 94.9957 LE
3 W
[12 12 12 12] 0 setdash
0 0.2 0.5 C
74.88 52.9827 LS
77.67 54.4682 L
80.46 55.9518 L
83.25 57.4328 L
86.04 58.9099 L
88.83 60.3815 L
91.62 61.8462 L
94.41 63.3025 L
97.2 64.7499 L
99.99 66.1859 L
102.78 67.6105 L
105.57 69.0217 L
108.36 70.4186 L
111.15 71.8001 L
113.94 73.1648 L
116.73 74.5121 L
119.52 75.8411 L
122.31 77.1509 L
125.1 78.4398 L
127.89 79.7079 L
130.68 80.9538 L
133.47 82.1773 L
136.26 83.3771 L
139.05 84.5536 L
141.84 85.7054 L
144.63 86.8319 L
147.42 87.9336 L
150.21 89.0091 L
153 90.0589 L
155.79 91.0819 L
158.58 92.0787 L
161.37 93.0487 L
164.16 93.992 L
166.95 94.9081 L
169.74 95.7974 L
172.53 96.6595 L
175.32 97.4948 L
178.11 98.3029 L
180.9 99.0848 L
183.69 99.8399 L
186.48 100.569 L
189.27 101.271 L
192.06 101.949 L
194.85 102.6 L
197.64 103.226 L
200.43 103.828 L
203.22 104.404 L
206.01 104.956 L
208.8 105.485 L
211.59 105.991 L
214.38 106.473 L
217.17 106.933 L
219.96 107.371 L
222.75 107.787 L
225.54 108.182 L
228.33 108.556 L
231.12 108.91 L
233.91 109.245 L
236.7 109.56 L
239.49 109.856 L
242.28 110.134 L
245.07 110.394 L
247.86 110.638 L
250.65 110.863 L
253.44 111.073 L
256.23 111.266 L
259.02 111.445 L
261.81 111.608 L
264.6 111.757 L
267.39 111.891 L
270.18 112.012 L
272.97 112.119 L
275.76 112.214 L
278.55 112.296 L
281.34 112.367 L
284.13 112.426 L
286.92 112.473 L
289.71 112.51 L
292.5 112.537 L
295.29 112.553 L
298.08 112.56 L
300.87 112.557 L
303.66 112.545 L
306.45 112.525 L
309.24 112.496 L
312.03 112.46 L
314.82 112.416 L
317.61 112.364 L
320.4 112.305 L
323.19 112.239 L
325.98 112.167 L
328.77 112.088 L
331.56 112.004 L
334.35 111.914 L
337.14 111.818 L
339.93 111.717 L
342.72 111.611 L
345.51 111.5 L
348.3 111.384 L
351.09 111.264 L
353.88 111.14 L
356.67 111.012 L
359.46 110.88 L
362.25 110.745 L
365.04 110.605 L
367.83 110.463 L
370.62 110.318 L
373.41 110.169 L
376.2 110.018 L
378.99 109.864 L
381.78 109.708 L
384.57 109.549 L
387.36 109.387 L
390.15 109.224 L
392.94 109.059 L
395.73 108.892 L
398.52 108.723 L
401.31 108.553 L
404.1 108.381 L
406.89 108.207 L
409.68 108.032 L
412.47 107.857 L
415.26 107.679 L
418.05 107.501 L
420.84 107.322 L
423.63 107.142 L
426.42 106.961 L
429.21 106.779 L
432 106.597 L
434.79 106.414 L
437.58 106.231 L
440.37 106.046 L
443.16 105.862 L
445.95 105.677 L
448.74 105.493 L
451.53 105.307 L
454.32 105.122 L
457.11 104.936 L
459.9 104.751 L
462.69 104.565 L
465.48 104.379 L
468.27 104.194 L
471.06 104.008 L
473.85 103.823 L
476.64 103.637 L
479.43 103.452 L
482.22 103.267 L
485.01 103.083 L
487.8 102.899 L
490.59 102.715 L
493.38 102.531 L
496.17 102.348 L
498.96 102.165 L
501.75 101.983 L
504.54 101.801 L
507.33 101.62 L
510.12 101.438 L
512.91 101.258 L
515.7 101.078 L
518.49 100.899 L
521.28 100.72 LE
[3 3 3 3 3 3 3 3 3 3] 0 setdash
0 0.5 0 C
74.88 52.9827 LS
77.67 53.9731 L
80.46 54.9629 L
83.25 55.9518 L
86.04 56.9391 L
88.83 57.925 L
91.62 58.9084 L
94.41 59.8888 L
97.2 60.8663 L
99.99 61.8403 L
102.78 62.8098 L
105.57 63.7754 L
108.36 64.7355 L
111.15 65.6907 L
113.94 66.6399 L
116.73 67.5832 L
119.52 68.5196 L
122.31 69.4495 L
125.1 70.372 L
127.89 71.2871 L
130.68 72.1937 L
133.47 73.0925 L
136.26 73.9823 L
139.05 74.8632 L
141.84 75.7352 L
144.63 76.5973 L
147.42 77.4494 L
150.21 78.2917 L
153 79.1236 L
155.79 79.9451 L
158.58 80.7552 L
161.37 81.5549 L
164.16 82.3432 L
166.95 83.1201 L
169.74 83.8851 L
172.53 84.6388 L
175.32 85.3805 L
178.11 86.1099 L
180.9 86.8274 L
183.69 87.5325 L
186.48 88.2253 L
189.27 88.9056 L
192.06 89.5736 L
194.85 90.2292 L
197.64 90.872 L
200.43 91.5018 L
203.22 92.1193 L
206.01 92.7239 L
208.8 93.3161 L
211.59 93.8954 L
214.38 94.4619 L
217.17 95.016 L
219.96 95.5572 L
222.75 96.0861 L
225.54 96.602 L
228.33 97.1056 L
231.12 97.5968 L
233.91 98.0762 L
236.7 98.5426 L
239.49 98.9972 L
242.28 99.4398 L
245.07 99.8701 L
247.86 100.289 L
250.65 100.696 L
253.44 101.091 L
256.23 101.474 L
259.02 101.847 L
261.81 102.208 L
264.6 102.557 L
267.39 102.897 L
270.18 103.224 L
272.97 103.542 L
275.76 103.848 L
278.55 104.145 L
281.34 104.431 L
284.13 104.706 L
286.92 104.972 L
289.71 105.229 L
292.5 105.475 L
295.29 105.712 L
298.08 105.939 L
300.87 106.158 L
303.66 106.367 L
306.45 106.568 L
309.24 106.76 L
312.03 106.943 L
314.82 107.118 L
317.61 107.284 L
320.4 107.443 L
323.19 107.594 L
325.98 107.737 L
328.77 107.872 L
331.56 108 L
334.35 108.121 L
337.14 108.234 L
339.93 108.34 L
342.72 108.44 L
345.51 108.533 L
348.3 108.619 L
351.09 108.699 L
353.88 108.773 L
356.67 108.841 L
359.46 108.902 L
362.25 108.958 L
365.04 109.008 L
367.83 109.053 L
370.62 109.092 L
373.41 109.126 L
376.2 109.155 L
378.99 109.179 L
381.78 109.198 L
384.57 109.211 L
387.36 109.221 L
390.15 109.226 L
392.94 109.226 L
395.73 109.222 L
398.52 109.214 L
401.31 109.202 L
404.1 109.186 L
406.89 109.165 L
409.68 109.142 L
412.47 109.114 L
415.26 109.083 L
418.05 109.049 L
420.84 109.01 L
423.63 108.969 L
426.42 108.925 L
429.21 108.878 L
432 108.827 L
434.79 108.774 L
437.58 108.718 L
440.37 108.659 L
443.16 108.597 L
445.95 108.534 L
448.74 108.467 L
451.53 108.398 L
454.32 108.327 L
457.11 108.253 L
459.9 108.177 L
462.69 108.099 L
465.48 108.019 L
468.27 107.937 L
471.06 107.853 L
473.85 107.767 L
476.64 107.679 L
479.43 107.59 L
482.22 107.499 L
485.01 107.407 L
487.8 107.313 L
490.59 107.217 L
493.38 107.12 L
496.17 107.021 L
498.96 106.921 L
501.75 106.82 L
504.54 106.718 L
507.33 106.614 L
510.12 106.509 L
512.91 106.403 L
515.7 106.296 L
518.49 106.188 L
521.28 106.08 LE
grestore
gsave
1.0 1.0 scale
newpath 0 0 moveto 576 0 lineto 576 432 lineto 0 432 lineto
closepath clip
1 1 1 C
508.651 267.971 301.123 267.971 301.123 386.971 T
508.651 386.971 508.651 267.971 301.123 386.971 T
0.5 W
2 LC
[16 0] 0 setdash
0.15 0.15 0.15 C
301.123 267.971 LS
508.651 267.971 LE
301.123 386.971 LS
508.651 386.971 LE
301.123 267.971 LS
301.123 386.971 LE
508.651 267.971 LS
508.651 386.971 LE
gsave
0 0 0 C
( ) [10] 0 332.168 370.071 18 /Helvetica SRX
(m) [10] 0 337.168 370.071 18 /Symbol SRX
( = 64.5, N =     1.00) [5 11 5 10 10 5 10 5 5 13 5 11 5 5 5 5 5 10 5 10 10] 0 347.168 370.071 18 /Helvetica SRX
grestore

gsave
0 0 0 C
( ) [10] 0 332.168 346.271 18 /Helvetica SRX
(m) [10] 0 337.168 346.271 18 /Symbol SRX
( = 16.5, N =     4.00) [5 11 5 10 10 5 10 5 5 13 5 11 5 5 5 5 5 10 5 10 10] 0 347.168 346.271 18 /Helvetica SRX
grestore

gsave
0 0 0 C
( ) [10] 0 332.168 322.471 18 /Helvetica SRX
(m) [10] 0 337.168 322.471 18 /Symbol SRX
( =   4.5, N =   16.03) [5 11 5 5 5 10 5 10 5 5 13 5 11 5 5 5 10 10 5 10 10] 0 347.168 322.471 18 /Helvetica SRX
grestore

gsave
0 0 0 C
( ) [10] 0 332.168 298.671 18 /Helvetica SRX
(m) [10] 0 337.168 298.671 18 /Symbol SRX
( =   1.5, N =   64.34) [5 11 5 5 5 10 5 10 5 5 13 5 11 5 5 5 10 10 5 10 10] 0 347.168 298.671 18 /Helvetica SRX
grestore

gsave
0 0 0 C
( ) [10] 0 332.168 274.871 18 /Helvetica SRX
(m) [10] 0 337.168 274.871 18 /Symbol SRX
( =   1.0, N = 129.02 ) [5 11 5 5 5 10 5 10 5 5 13 5 11 5 10 10 10 5 10 10 10] 0 347.168 274.871 18 /Helvetica SRX
grestore

2 W
0 LC
1 LJ
[] 0 setdash
0.8 0 0 C
304.806 375.071 LS
328.485 375.071 LE
[8 8 8 8] 0 setdash
0.5 0 0.3 C
304.806 351.271 LS
328.485 351.271 LE
[8 2 4 2 8 2 4 2] 0 setdash
0 0 0.7 C
304.806 327.471 LS
328.485 327.471 LE
3 W
[12 12 12 12] 0 setdash
0 0.2 0.5 C
304.806 303.671 LS
328.485 303.671 LE
[3 3 3 3 3 3 3 3 3 3] 0 setdash
0 0.5 0 C
304.806 279.871 LS
328.485 279.871 LE
grestore
grestore
showpage
cleartomark
%%PageTrailer
%%Trailer
end
%%EOF
