%!PS-Adobe-3.0 EPSF-3.0
%%BoundingBox: 10 -1 337 241
%%HiResBoundingBox: 10.590 -0.011 336.858 240.036
%%Title: gl2ps_renderer figure
%%Creator: GL2PS 1.4.2, (C) 1999-2020 C. Geuzaine
%%For: Octave
%%CreationDate: Sun Feb 13 17:25:23 2022
%%LanguageLevel: 3
%%DocumentData: Clean7Bit
%%Pages: 1
%%EndComments
%%BeginProlog
/gl2psdict 64 dict def gl2psdict begin
/tryPS3shading false def % set to false to force subdivision
/rThreshold 0.064 def % red component subdivision threshold
/gThreshold 0.034 def % green component subdivision threshold
/bThreshold 0.1 def % blue component subdivision threshold
/BD { bind def } bind def
/C  { setrgbcolor } BD
/G  { 0.082 mul exch 0.6094 mul add exch 0.3086 mul add neg 1.0 add setgray } BD
/W  { setlinewidth } BD
/LC  { setlinecap } BD
/LJ  { setlinejoin } BD
/FC { findfont exch /SH exch def SH scalefont setfont } BD
/SW { dup stringwidth pop } BD
/S  { FC moveto show } BD
/SBC{ FC moveto SW -2 div 0 rmoveto show } BD
/SBR{ FC moveto SW neg 0 rmoveto show } BD
/SCL{ FC moveto 0 SH -2 div rmoveto show } BD
/SCC{ FC moveto SW -2 div SH -2 div rmoveto show } BD
/SCR{ FC moveto SW neg SH -2 div rmoveto show } BD
/STL{ FC moveto 0 SH neg rmoveto show } BD
/STC{ FC moveto SW -2 div SH neg rmoveto show } BD
/STR{ FC moveto SW neg SH neg rmoveto show } BD
/FCT { FC translate 0 0 } BD
/SR  { gsave FCT moveto rotate show grestore } BD
/SRX  { gsave FCT moveto rotate xshow grestore } BD
/SBCR{ gsave FCT moveto rotate SW -2 div 0 rmoveto show grestore } BD
/SBRR{ gsave FCT moveto rotate SW neg 0 rmoveto show grestore } BD
/SCLR{ gsave FCT moveto rotate 0 SH -2 div rmoveto show grestore} BD
/SCCR{ gsave FCT moveto rotate SW -2 div SH -2 div rmoveto show grestore} BD
/SCRR{ gsave FCT moveto rotate SW neg SH -2 div rmoveto show grestore} BD
/STLR{ gsave FCT moveto rotate 0 SH neg rmoveto show grestore } BD
/STCR{ gsave FCT moveto rotate SW -2 div SH neg rmoveto show grestore } BD
/STRR{ gsave FCT moveto rotate SW neg SH neg rmoveto show grestore } BD
/P  { newpath 0.0 360.0 arc closepath fill } BD
/LS { newpath moveto } BD
/L  { lineto } BD
/LE { lineto stroke } BD
/T  { newpath moveto lineto lineto closepath fill } BD
/STshfill {
      /b1 exch def /g1 exch def /r1 exch def /y1 exch def /x1 exch def
      /b2 exch def /g2 exch def /r2 exch def /y2 exch def /x2 exch def
      /b3 exch def /g3 exch def /r3 exch def /y3 exch def /x3 exch def
      gsave << /ShadingType 4 /ColorSpace [/DeviceRGB]
      /DataSource [ 0 x1 y1 r1 g1 b1 0 x2 y2 r2 g2 b2 0 x3 y3 r3 g3 b3 ] >>
      shfill grestore } BD
/Tm { 3 -1 roll 8 -1 roll 13 -1 roll add add 3 div
      3 -1 roll 7 -1 roll 11 -1 roll add add 3 div
      3 -1 roll 6 -1 roll 9 -1 roll add add 3 div C T } BD
/STsplit {
      4 index 15 index add 0.5 mul
      4 index 15 index add 0.5 mul
      4 index 15 index add 0.5 mul
      4 index 15 index add 0.5 mul
      4 index 15 index add 0.5 mul
      5 copy 5 copy 25 15 roll
      9 index 30 index add 0.5 mul
      9 index 30 index add 0.5 mul
      9 index 30 index add 0.5 mul
      9 index 30 index add 0.5 mul
      9 index 30 index add 0.5 mul
      5 copy 5 copy 35 5 roll 25 5 roll 15 5 roll
      4 index 10 index add 0.5 mul
      4 index 10 index add 0.5 mul
      4 index 10 index add 0.5 mul
      4 index 10 index add 0.5 mul
      4 index 10 index add 0.5 mul
      5 copy 5 copy 40 5 roll 25 5 roll 15 5 roll 25 5 roll
      STnoshfill STnoshfill STnoshfill STnoshfill } BD
/STnoshfill {
      2 index 8 index sub abs rThreshold gt
      { STsplit }
      { 1 index 7 index sub abs gThreshold gt
        { STsplit }
        { dup 6 index sub abs bThreshold gt
          { STsplit }
          { 2 index 13 index sub abs rThreshold gt
            { STsplit }
            { 1 index 12 index sub abs gThreshold gt
              { STsplit }
              { dup 11 index sub abs bThreshold gt
                { STsplit }
                { 7 index 13 index sub abs rThreshold gt
                  { STsplit }
                  { 6 index 12 index sub abs gThreshold gt
                    { STsplit }
                    { 5 index 11 index sub abs bThreshold gt
                      { STsplit }
                      { Tm }
                      ifelse }
                    ifelse }
                  ifelse }
                ifelse }
              ifelse }
            ifelse }
          ifelse }
        ifelse }
      ifelse } BD
tryPS3shading
{ /shfill where
  { /ST { STshfill } BD }
  { /ST { STnoshfill } BD }
  ifelse }
{ /ST { STnoshfill } BD }
ifelse
end
%%EndProlog
%%BeginSetup
/DeviceRGB setcolorspace
gl2psdict begin
%%EndSetup
%%Page: 1 1
%%BeginPageSetup
%%EndPageSetup
mark
gsave
1.0 1.0 scale
1 1 1 C
newpath 0 0 moveto 364 0 lineto 364 256 lineto 0 256 lineto
closepath fill
gsave
1.0 1.0 scale
1 1 1 C
newpath 0 0 moveto 364 0 lineto 364 256 lineto 0 256 lineto
closepath fill
newpath 0 0 moveto 364 0 lineto 364 256 lineto 0 256 lineto
closepath clip
1 1 1 C
330.223 31.4169 47.4353 31.4169 47.4353 236.795 T
330.223 236.795 330.223 31.4169 47.4353 236.795 T
0.5 W
0.15 0.15 0.15 C
47.4353 31.4169 LS
47.4353 34.2499 LE
47.4353 236.795 LS
47.4353 233.962 LE
118.132 31.4169 LS
118.132 34.2499 LE
118.132 236.795 LS
118.132 233.962 LE
188.829 31.4169 LS
188.829 34.2499 LE
188.829 236.795 LS
188.829 233.962 LE
259.526 31.4169 LS
259.526 34.2499 LE
259.526 236.795 LS
259.526 233.962 LE
330.223 31.4169 LS
330.223 34.2499 LE
330.223 236.795 LS
330.223 233.962 LE
gsave
0.14902 0.14902 0.14902 C
(0) [10] 0 44.4353 15.903 10 /Helvetica SRX
grestore

gsave
0.14902 0.14902 0.14902 C
(0.2) [6 3 10] 0 110.632 15.903 10 /Helvetica SRX
grestore

gsave
0.14902 0.14902 0.14902 C
(0.4) [6 3 10] 0 181.329 15.903 10 /Helvetica SRX
grestore

gsave
0.14902 0.14902 0.14902 C
(0.6) [6 3 10] 0 252.026 15.903 10 /Helvetica SRX
grestore

gsave
0.14902 0.14902 0.14902 C
(0.8) [6 3 10] 0 322.723 15.903 10 /Helvetica SRX
grestore

47.4353 31.4169 LS
50.261 31.4169 LE
330.223 31.4169 LS
327.397 31.4169 LE
47.4353 60.7565 LS
50.261 60.7565 LE
330.223 60.7565 LS
327.397 60.7565 LE
47.4353 90.0963 LS
50.261 90.0963 LE
330.223 90.0963 LS
327.397 90.0963 LE
47.4353 119.436 LS
50.261 119.436 LE
330.223 119.436 LS
327.397 119.436 LE
47.4353 148.776 LS
50.261 148.776 LE
330.223 148.776 LS
327.397 148.776 LE
47.4353 178.115 LS
50.261 178.115 LE
330.223 178.115 LS
327.397 178.115 LE
47.4353 207.455 LS
50.261 207.455 LE
330.223 207.455 LS
327.397 207.455 LE
47.4353 236.795 LS
50.261 236.795 LE
330.223 236.795 LS
327.397 236.795 LE
gsave
0.14902 0.14902 0.14902 C
(46) [6 10] 0 30.4391 27.4168 10 /Helvetica SRX
grestore

gsave
0.14902 0.14902 0.14902 C
(48) [6 10] 0 30.4391 56.7565 10 /Helvetica SRX
grestore

gsave
0.14902 0.14902 0.14902 C
(50) [6 10] 0 30.4391 86.0962 10 /Helvetica SRX
grestore

gsave
0.14902 0.14902 0.14902 C
(52) [6 10] 0 30.4391 115.436 10 /Helvetica SRX
grestore

gsave
0.14902 0.14902 0.14902 C
(54) [6 10] 0 30.4391 144.776 10 /Helvetica SRX
grestore

gsave
0.14902 0.14902 0.14902 C
(56) [6 10] 0 30.4391 174.115 10 /Helvetica SRX
grestore

gsave
0.14902 0.14902 0.14902 C
(58) [6 10] 0 30.4391 203.455 10 /Helvetica SRX
grestore

gsave
0.14902 0.14902 0.14902 C
(60) [6 10] 0 30.4391 232.795 10 /Helvetica SRX
grestore

2 LC
[16 0] 0 setdash
47.4353 31.4169 LS
330.223 31.4169 LE
47.4353 236.795 LS
330.223 236.795 LE
47.4353 31.4169 LS
47.4353 236.795 LE
330.223 31.4169 LS
330.223 236.795 LE
gsave
0.14902 0.14902 0.14902 C
(Frechet Inception Score) [7 4 6 6 6 6 3 3 3 6 6 6 6 3 2 6 6 3 7 6 6 4 10] 90 22.4391 75.6057 11 /Helvetica SRX
grestore

gsave
0.14902 0.14902 0.14902 C
(eccentricity) [6 6 6 6 6 3 4 2 6 2 3 10] 0 161.329 1.90298 11 /Helvetica SRX
grestore

2 W
0 LC
1 LJ
[8 8 8 8] 0 setdash
0 0.5 0 C
136.513 90.0963 LS
190.95 144.375 L
246.8 203.054 L
299.116 204.521 LE
[] 0 setdash
0 0 0 C
290.385 174.609 LS
304.524 174.609 LE
[8 2 4 2 8 2 4 2] 0 setdash
0.8 0 0 C
115.658 141.441 LS
151.006 78.3604 L
207.21 81.2944 L
256.698 90.0963 L
293.107 107.7 L
314.669 151.71 LE
[] 0 setdash
0 0 0.7 C
89.1464 144.375 LS
149.946 93.0302 L
220.996 71.0255 L
238.317 82.7613 L
299.116 94.4972 L
311.488 163.445 LE
1 W
0 0 0 C
297.455 174.609 LS
297.455 177.074 LE
2 W
290.385 177.074 LS
304.524 177.074 LE
1 W
0 0.5 0 C
136.513 79.8273 LS
136.513 100.365 LE
2 W
129.444 79.8273 LS
143.583 79.8273 LE
129.444 100.365 LS
143.583 100.365 LE
1 W
190.95 116.502 LS
190.95 172.247 LE
2 W
183.88 116.502 LS
198.02 116.502 LE
183.88 172.247 LS
198.02 172.247 LE
1 W
246.8 188.384 LS
246.8 217.724 LE
2 W
239.731 188.384 LS
253.87 188.384 LE
239.731 217.724 LS
253.87 217.724 LE
1 W
299.116 201.587 LS
299.116 207.455 LE
2 W
292.046 201.587 LS
306.186 201.587 LE
292.046 207.455 LS
306.186 207.455 LE
1 W
0.8 0 0 C
115.658 129.705 LS
115.658 153.177 LE
2 W
108.588 129.705 LS
122.727 129.705 LE
108.588 153.177 LS
122.727 153.177 LE
1 W
151.006 57.8226 LS
151.006 98.8981 LE
2 W
143.936 57.8226 LS
158.076 57.8226 LE
143.936 98.8981 LS
158.076 98.8981 LE
1 W
207.21 72.4924 LS
207.21 90.0963 LE
2 W
200.14 72.4924 LS
214.28 72.4924 LE
200.14 90.0963 LS
214.28 90.0963 LE
1 W
256.698 75.4264 LS
256.698 104.766 LE
2 W
249.628 75.4264 LS
263.768 75.4264 LE
249.628 104.766 LS
263.768 104.766 LE
1 W
293.107 98.8981 LS
293.107 116.502 LE
2 W
286.037 98.8981 LS
300.176 98.8981 LE
286.037 116.502 LS
300.176 116.502 LE
1 W
314.669 145.842 LS
314.669 157.577 LE
2 W
307.6 145.842 LS
321.739 145.842 LE
307.6 157.577 LS
321.739 157.577 LE
1 W
0 0 0.7 C
89.1464 126.771 LS
89.1464 161.978 LE
2 W
82.0767 126.771 LS
96.2161 126.771 LE
82.0767 161.978 LS
96.2161 161.978 LE
1 W
149.946 85.6953 LS
149.946 100.365 LE
2 W
142.876 85.6953 LS
157.015 85.6953 LE
142.876 100.365 LS
157.015 100.365 LE
1 W
220.996 56.3556 LS
220.996 85.6953 LE
2 W
213.926 56.3556 LS
228.066 56.3556 LE
213.926 85.6953 LS
228.066 85.6953 LE
1 W
238.317 69.5584 LS
238.317 95.9642 LE
2 W
231.247 69.5584 LS
245.386 69.5584 LE
231.247 95.9642 LS
245.386 95.9642 LE
1 W
299.116 82.7613 LS
299.116 106.233 LE
2 W
292.046 82.7613 LS
306.186 82.7613 LE
292.046 106.233 LS
306.186 106.233 LE
1 W
311.488 138.507 LS
311.488 188.384 LE
2 W
304.418 138.507 LS
318.558 138.507 LE
304.418 188.384 LS
318.558 188.384 LE
grestore
gsave
1.0 1.0 scale
newpath 0 0 moveto 364 0 lineto 364 256 lineto 0 256 lineto
closepath clip
1 1 1 C
113.477 40.6251 56.6436 40.6251 56.6436 102.321 T
113.477 102.321 113.477 40.6251 56.6436 102.321 T
0.5 W
2 LC
[16 0] 0 setdash
0.15 0.15 0.15 C
56.6436 40.6251 LS
113.477 40.6251 LE
56.6436 102.321 LS
113.477 102.321 LE
56.6436 40.6251 LS
56.6436 102.321 LE
113.477 40.6251 LS
113.477 102.321 LE
2 W
0 LC
1 LJ
[8 8 8 8] 0 setdash
0 0.5 0 C
61.2478 92.8824 LS
84.2686 92.8824 LE
gsave
0 0 0 C
(VAE) [6 6 10] 0 88.8728 88.8824 9 /Helvetica SRX
grestore

[] 0 setdash
0 0 0 C
61.2478 78.6095 LS
84.2686 78.6095 LE
gsave
0 0 0 C
(AE) [6 10] 0 88.8728 74.6095 9 /Helvetica SRX
grestore

[8 2 4 2 8 2 4 2] 0 setdash
0.8 0 0 C
61.2478 64.3366 LS
84.2686 64.3366 LE
gsave
0 0 0 C
(WAE) [8 6 10] 0 88.8728 60.3366 9 /Helvetica SRX
grestore

[] 0 setdash
0 0 0.7 C
61.2478 50.0637 LS
84.2686 50.0637 LE
gsave
0 0 0 C
(EAE) [6 6 10] 0 88.8728 46.0637 9 /Helvetica SRX
grestore

grestore
grestore
showpage
cleartomark
%%PageTrailer
%%Trailer
end
%%EOF
