%!PS-Adobe-3.0 EPSF-3.0
%%Title: gl2ps_renderer figure
%%Creator: GL2PS 1.4.0, (C) 1999-2017 C. Geuzaine
%%For: Octave
%%CreationDate: Fri Jun  5 17:13:23 2020
%%LanguageLevel: 3
%%DocumentData: Clean7Bit
%%Pages: 1
%%BoundingBox: 0 0 576 432
%%EndComments
%%BeginProlog
/gl2psdict 64 dict def gl2psdict begin
/tryPS3shading false def % set to false to force subdivision
/rThreshold 0.064 def % red component subdivision threshold
/gThreshold 0.034 def % green component subdivision threshold
/bThreshold 0.1 def % blue component subdivision threshold
/BD { bind def } bind def
/C  { setrgbcolor } BD
/G  { 0.082 mul exch 0.6094 mul add exch 0.3086 mul add neg 1.0 add setgray } BD
/W  { setlinewidth } BD
/LC  { setlinecap } BD
/LJ  { setlinejoin } BD
/FC { findfont exch /SH exch def SH scalefont setfont } BD
/SW { dup stringwidth pop } BD
/S  { FC moveto show } BD
/SBC{ FC moveto SW -2 div 0 rmoveto show } BD
/SBR{ FC moveto SW neg 0 rmoveto show } BD
/SCL{ FC moveto 0 SH -2 div rmoveto show } BD
/SCC{ FC moveto SW -2 div SH -2 div rmoveto show } BD
/SCR{ FC moveto SW neg SH -2 div rmoveto show } BD
/STL{ FC moveto 0 SH neg rmoveto show } BD
/STC{ FC moveto SW -2 div SH neg rmoveto show } BD
/STR{ FC moveto SW neg SH neg rmoveto show } BD
/FCT { FC translate 0 0 } BD
/SR  { gsave FCT moveto rotate show grestore } BD
/SRX  { gsave FCT moveto rotate xshow grestore } BD
/SBCR{ gsave FCT moveto rotate SW -2 div 0 rmoveto show grestore } BD
/SBRR{ gsave FCT moveto rotate SW neg 0 rmoveto show grestore } BD
/SCLR{ gsave FCT moveto rotate 0 SH -2 div rmoveto show grestore} BD
/SCCR{ gsave FCT moveto rotate SW -2 div SH -2 div rmoveto show grestore} BD
/SCRR{ gsave FCT moveto rotate SW neg SH -2 div rmoveto show grestore} BD
/STLR{ gsave FCT moveto rotate 0 SH neg rmoveto show grestore } BD
/STCR{ gsave FCT moveto rotate SW -2 div SH neg rmoveto show grestore } BD
/STRR{ gsave FCT moveto rotate SW neg SH neg rmoveto show grestore } BD
/P  { newpath 0.0 360.0 arc closepath fill } BD
/LS { newpath moveto } BD
/L  { lineto } BD
/LE { lineto stroke } BD
/T  { newpath moveto lineto lineto closepath fill } BD
/STshfill {
      /b1 exch def /g1 exch def /r1 exch def /y1 exch def /x1 exch def
      /b2 exch def /g2 exch def /r2 exch def /y2 exch def /x2 exch def
      /b3 exch def /g3 exch def /r3 exch def /y3 exch def /x3 exch def
      gsave << /ShadingType 4 /ColorSpace [/DeviceRGB]
      /DataSource [ 0 x1 y1 r1 g1 b1 0 x2 y2 r2 g2 b2 0 x3 y3 r3 g3 b3 ] >>
      shfill grestore } BD
/Tm { 3 -1 roll 8 -1 roll 13 -1 roll add add 3 div
      3 -1 roll 7 -1 roll 11 -1 roll add add 3 div
      3 -1 roll 6 -1 roll 9 -1 roll add add 3 div C T } BD
/STsplit {
      4 index 15 index add 0.5 mul
      4 index 15 index add 0.5 mul
      4 index 15 index add 0.5 mul
      4 index 15 index add 0.5 mul
      4 index 15 index add 0.5 mul
      5 copy 5 copy 25 15 roll
      9 index 30 index add 0.5 mul
      9 index 30 index add 0.5 mul
      9 index 30 index add 0.5 mul
      9 index 30 index add 0.5 mul
      9 index 30 index add 0.5 mul
      5 copy 5 copy 35 5 roll 25 5 roll 15 5 roll
      4 index 10 index add 0.5 mul
      4 index 10 index add 0.5 mul
      4 index 10 index add 0.5 mul
      4 index 10 index add 0.5 mul
      4 index 10 index add 0.5 mul
      5 copy 5 copy 40 5 roll 25 5 roll 15 5 roll 25 5 roll
      STnoshfill STnoshfill STnoshfill STnoshfill } BD
/STnoshfill {
      2 index 8 index sub abs rThreshold gt
      { STsplit }
      { 1 index 7 index sub abs gThreshold gt
        { STsplit }
        { dup 6 index sub abs bThreshold gt
          { STsplit }
          { 2 index 13 index sub abs rThreshold gt
            { STsplit }
            { 1 index 12 index sub abs gThreshold gt
              { STsplit }
              { dup 11 index sub abs bThreshold gt
                { STsplit }
                { 7 index 13 index sub abs rThreshold gt
                  { STsplit }
                  { 6 index 12 index sub abs gThreshold gt
                    { STsplit }
                    { 5 index 11 index sub abs bThreshold gt
                      { STsplit }
                      { Tm }
                      ifelse }
                    ifelse }
                  ifelse }
                ifelse }
              ifelse }
            ifelse }
          ifelse }
        ifelse }
      ifelse } BD
tryPS3shading
{ /shfill where
  { /ST { STshfill } BD }
  { /ST { STnoshfill } BD }
  ifelse }
{ /ST { STnoshfill } BD }
ifelse
end
%%EndProlog
%%BeginSetup
/DeviceRGB setcolorspace
gl2psdict begin
%%EndSetup
%%Page: 1 1
%%BeginPageSetup
%%EndPageSetup
mark
gsave
1.0 1.0 scale
1 1 1 C
newpath 0 0 moveto 576 0 lineto 576 432 lineto 0 432 lineto
closepath fill
gsave
1.0 1.0 scale
1 1 1 C
newpath 0 0 moveto 576 0 lineto 576 432 lineto 0 432 lineto
closepath fill
newpath 0 0 moveto 576 0 lineto 576 432 lineto 0 432 lineto
closepath clip
1 1 1 C
521.28 65.9928 74.88 65.9928 74.88 399.6 T
521.28 399.6 521.28 65.9928 74.88 399.6 T
0.5 W
0.15 0.15 0.15 C
74.88 65.9928 LS
74.88 70.4516 LE
74.88 399.6 LS
74.88 395.141 LE
298.08 65.9928 LS
298.08 70.4516 LE
298.08 399.6 LS
298.08 395.141 LE
521.28 65.9928 LS
521.28 70.4516 LE
521.28 399.6 LS
521.28 395.141 LE
gsave
0.14902 0.14902 0.14902 C
(0) [10] 0 68.38 30.014 24 /Helvetica SRX
grestore

gsave
0.14902 0.14902 0.14902 C
(5) [10] 0 291.58 30.014 24 /Helvetica SRX
grestore

gsave
0.14902 0.14902 0.14902 C
(10) [13 10] 0 508.28 30.014 24 /Helvetica SRX
grestore

74.88 65.9928 LS
79.348 65.9928 LE
521.28 65.9928 LS
516.812 65.9928 LE
74.88 399.6 LS
79.348 399.6 LE
521.28 399.6 LS
516.812 399.6 LE
gsave
0.14902 0.14902 0.14902 C
(0) [10] 0 49.8692 56.9928 24 /Helvetica SRX
grestore

gsave
0.14902 0.14902 0.14902 C
(1) [10] 0 49.8692 390.6 24 /Helvetica SRX
grestore

2 LC
[16 0] 0 setdash
74.88 65.9928 LS
521.28 65.9928 LE
74.88 399.6 LS
521.28 399.6 LE
74.88 65.9928 LS
74.88 399.6 LE
521.28 65.9928 LS
521.28 399.6 LE
gsave
0.14902 0.14902 0.14902 C
(distance from origin) [15 6 13 7 14 14 13 14 7 7 9 14 21 7 14 9 6 15 6 10] 0 185.58 5.01401 26.4 /Helvetica SRX
grestore

gsave
0.14902 0.14902 0.14902 C
(aggregate force) [14 15 15 9 14 15 14 7 14 7 7 14 9 13 10] 90 39.8692 142.296 26.4 /Helvetica SRX
grestore

2 W
0 LC
1 LJ
[] 0 setdash
0 0 1 C
74.88 65.9928 LS
79.344 70.5989 L
83.808 75.2049 L
88.272 79.839 L
92.736 84.445 L
97.2 89.023 L
101.664 93.545 L
106.128 98.0763 L
110.592 102.608 L
115.056 107.064 L
119.52 111.521 L
123.984 115.93 L
128.448 120.256 L
132.912 124.591 L
137.376 128.852 L
141.84 133.065 L
146.304 137.232 L
150.768 141.324 L
155.232 145.361 L
159.696 149.322 L
164.16 153.227 L
168.624 157.067 L
173.088 160.86 L
177.552 164.513 L
182.016 168.176 L
186.48 171.735 L
190.944 175.211 L
195.408 178.602 L
199.872 181.91 L
204.336 185.152 L
208.8 188.319 L
213.264 191.393 L
217.728 194.392 L
222.192 197.326 L
226.656 200.147 L
231.12 202.894 L
235.584 205.538 L
240.048 208.145 L
244.512 210.63 L
248.976 213.05 L
253.44 215.385 L
257.904 217.665 L
262.368 219.833 L
266.832 221.925 L
271.296 223.943 L
275.76 225.877 L
280.224 227.727 L
284.688 229.521 L
289.152 231.24 L
293.616 232.885 L
298.08 234.454 L
302.544 235.949 L
307.008 237.36 L
311.472 238.724 L
315.936 240.013 L
320.4 241.237 L
324.864 242.405 L
329.328 243.498 L
333.792 244.544 L
338.256 245.507 L
342.72 246.432 L
347.184 247.282 L
351.648 248.085 L
356.112 248.842 L
360.576 249.524 L
365.04 250.188 L
369.504 250.767 L
373.968 251.318 L
378.432 251.822 L
382.896 252.28 L
387.36 252.691 L
391.824 253.046 L
396.288 253.383 L
400.752 253.672 L
405.216 253.906 L
409.68 254.112 L
414.144 254.298 L
418.608 254.439 L
423.072 254.532 L
427.536 254.607 L
432 254.644 L
436.464 254.653 L
440.928 254.644 L
445.392 254.588 L
449.856 254.523 L
454.32 254.41 L
458.784 254.28 L
463.248 254.13 L
467.712 253.953 L
472.176 253.766 L
476.64 253.542 L
481.104 253.308 L
485.568 253.046 L
490.032 252.766 L
494.496 252.477 L
498.96 252.159 L
503.424 251.832 L
507.888 251.477 L
512.352 251.112 L
516.816 250.739 L
521.28 250.356 LE
[8 8 8 8] 0 setdash
0 0 0 C
74.88 65.9928 LS
79.344 70.6643 L
83.808 75.3357 L
88.272 80.0071 L
92.736 84.6786 L
97.2 89.35 L
101.664 94.0214 L
106.128 98.6929 L
110.592 103.364 L
115.056 108.036 L
119.52 112.707 L
123.984 117.379 L
128.448 122.05 L
132.912 126.721 L
137.376 131.393 L
141.84 136.064 L
146.304 140.736 L
150.768 145.407 L
155.232 150.079 L
159.696 154.75 L
164.16 159.422 L
168.624 164.093 L
173.088 168.764 L
177.552 173.436 L
182.016 178.107 L
186.48 182.779 L
190.944 187.45 L
195.408 192.122 L
199.872 196.793 L
204.336 201.464 L
208.8 206.136 L
213.264 210.807 L
217.728 215.479 L
222.192 220.15 L
226.656 224.822 L
231.12 229.493 L
235.584 234.164 L
240.048 238.836 L
244.512 243.507 L
248.976 248.179 L
253.44 252.85 L
257.904 257.522 L
262.368 262.193 L
266.832 266.865 L
271.296 271.536 L
275.76 276.207 L
280.224 280.879 L
284.688 285.55 L
289.152 290.222 L
293.616 294.893 L
298.08 299.565 L
302.544 304.236 L
307.008 308.907 L
311.472 313.579 L
315.936 318.25 L
320.4 322.922 L
324.864 327.593 L
329.328 332.265 L
333.792 336.936 L
338.256 341.607 L
342.72 346.279 L
347.184 350.95 L
351.648 355.622 L
356.112 360.293 L
360.576 364.965 L
365.04 369.636 L
369.504 374.308 L
373.968 378.979 L
378.432 383.65 L
382.896 388.322 L
387.36 392.993 L
391.824 397.665 L
393.992 399.934 LE
grestore
grestore
showpage
cleartomark
%%PageTrailer
%%Trailer
end
%%EOF
