%!PS-Adobe-3.0 EPSF-3.0
%%Title: gl2ps_renderer figure
%%Creator: GL2PS 1.4.0, (C) 1999-2017 C. Geuzaine
%%For: Octave
%%CreationDate: Fri Jun  5 17:02:30 2020
%%LanguageLevel: 3
%%DocumentData: Clean7Bit
%%Pages: 1
%%BoundingBox: 0 0 576 432
%%EndComments
%%BeginProlog
/gl2psdict 64 dict def gl2psdict begin
/tryPS3shading false def % set to false to force subdivision
/rThreshold 0.064 def % red component subdivision threshold
/gThreshold 0.034 def % green component subdivision threshold
/bThreshold 0.1 def % blue component subdivision threshold
/BD { bind def } bind def
/C  { setrgbcolor } BD
/G  { 0.082 mul exch 0.6094 mul add exch 0.3086 mul add neg 1.0 add setgray } BD
/W  { setlinewidth } BD
/LC  { setlinecap } BD
/LJ  { setlinejoin } BD
/FC { findfont exch /SH exch def SH scalefont setfont } BD
/SW { dup stringwidth pop } BD
/S  { FC moveto show } BD
/SBC{ FC moveto SW -2 div 0 rmoveto show } BD
/SBR{ FC moveto SW neg 0 rmoveto show } BD
/SCL{ FC moveto 0 SH -2 div rmoveto show } BD
/SCC{ FC moveto SW -2 div SH -2 div rmoveto show } BD
/SCR{ FC moveto SW neg SH -2 div rmoveto show } BD
/STL{ FC moveto 0 SH neg rmoveto show } BD
/STC{ FC moveto SW -2 div SH neg rmoveto show } BD
/STR{ FC moveto SW neg SH neg rmoveto show } BD
/FCT { FC translate 0 0 } BD
/SR  { gsave FCT moveto rotate show grestore } BD
/SRX  { gsave FCT moveto rotate xshow grestore } BD
/SBCR{ gsave FCT moveto rotate SW -2 div 0 rmoveto show grestore } BD
/SBRR{ gsave FCT moveto rotate SW neg 0 rmoveto show grestore } BD
/SCLR{ gsave FCT moveto rotate 0 SH -2 div rmoveto show grestore} BD
/SCCR{ gsave FCT moveto rotate SW -2 div SH -2 div rmoveto show grestore} BD
/SCRR{ gsave FCT moveto rotate SW neg SH -2 div rmoveto show grestore} BD
/STLR{ gsave FCT moveto rotate 0 SH neg rmoveto show grestore } BD
/STCR{ gsave FCT moveto rotate SW -2 div SH neg rmoveto show grestore } BD
/STRR{ gsave FCT moveto rotate SW neg SH neg rmoveto show grestore } BD
/P  { newpath 0.0 360.0 arc closepath fill } BD
/LS { newpath moveto } BD
/L  { lineto } BD
/LE { lineto stroke } BD
/T  { newpath moveto lineto lineto closepath fill } BD
/STshfill {
      /b1 exch def /g1 exch def /r1 exch def /y1 exch def /x1 exch def
      /b2 exch def /g2 exch def /r2 exch def /y2 exch def /x2 exch def
      /b3 exch def /g3 exch def /r3 exch def /y3 exch def /x3 exch def
      gsave << /ShadingType 4 /ColorSpace [/DeviceRGB]
      /DataSource [ 0 x1 y1 r1 g1 b1 0 x2 y2 r2 g2 b2 0 x3 y3 r3 g3 b3 ] >>
      shfill grestore } BD
/Tm { 3 -1 roll 8 -1 roll 13 -1 roll add add 3 div
      3 -1 roll 7 -1 roll 11 -1 roll add add 3 div
      3 -1 roll 6 -1 roll 9 -1 roll add add 3 div C T } BD
/STsplit {
      4 index 15 index add 0.5 mul
      4 index 15 index add 0.5 mul
      4 index 15 index add 0.5 mul
      4 index 15 index add 0.5 mul
      4 index 15 index add 0.5 mul
      5 copy 5 copy 25 15 roll
      9 index 30 index add 0.5 mul
      9 index 30 index add 0.5 mul
      9 index 30 index add 0.5 mul
      9 index 30 index add 0.5 mul
      9 index 30 index add 0.5 mul
      5 copy 5 copy 35 5 roll 25 5 roll 15 5 roll
      4 index 10 index add 0.5 mul
      4 index 10 index add 0.5 mul
      4 index 10 index add 0.5 mul
      4 index 10 index add 0.5 mul
      4 index 10 index add 0.5 mul
      5 copy 5 copy 40 5 roll 25 5 roll 15 5 roll 25 5 roll
      STnoshfill STnoshfill STnoshfill STnoshfill } BD
/STnoshfill {
      2 index 8 index sub abs rThreshold gt
      { STsplit }
      { 1 index 7 index sub abs gThreshold gt
        { STsplit }
        { dup 6 index sub abs bThreshold gt
          { STsplit }
          { 2 index 13 index sub abs rThreshold gt
            { STsplit }
            { 1 index 12 index sub abs gThreshold gt
              { STsplit }
              { dup 11 index sub abs bThreshold gt
                { STsplit }
                { 7 index 13 index sub abs rThreshold gt
                  { STsplit }
                  { 6 index 12 index sub abs gThreshold gt
                    { STsplit }
                    { 5 index 11 index sub abs bThreshold gt
                      { STsplit }
                      { Tm }
                      ifelse }
                    ifelse }
                  ifelse }
                ifelse }
              ifelse }
            ifelse }
          ifelse }
        ifelse }
      ifelse } BD
tryPS3shading
{ /shfill where
  { /ST { STshfill } BD }
  { /ST { STnoshfill } BD }
  ifelse }
{ /ST { STnoshfill } BD }
ifelse
end
%%EndProlog
%%BeginSetup
/DeviceRGB setcolorspace
gl2psdict begin
%%EndSetup
%%Page: 1 1
%%BeginPageSetup
%%EndPageSetup
mark
gsave
1.0 1.0 scale
1 1 1 C
newpath 0 0 moveto 576 0 lineto 576 432 lineto 0 432 lineto
closepath fill
gsave
1.0 1.0 scale
1 1 1 C
newpath 0 0 moveto 576 0 lineto 576 432 lineto 0 432 lineto
closepath fill
newpath 0 0 moveto 576 0 lineto 576 432 lineto 0 432 lineto
closepath clip
1 1 1 C
521.28 47.52 74.88 47.52 74.88 399.6 T
521.28 399.6 521.28 47.52 74.88 399.6 T
0.5 W
0.15 0.15 0.15 C
74.88 47.52 LS
74.88 51.985 LE
74.88 399.6 LS
74.88 395.135 LE
186.48 47.52 LS
186.48 51.985 LE
186.48 399.6 LS
186.48 395.135 LE
298.08 47.52 LS
298.08 51.985 LE
298.08 399.6 LS
298.08 395.135 LE
409.68 47.52 LS
409.68 51.985 LE
409.68 399.6 LS
409.68 395.135 LE
521.28 47.52 LS
521.28 51.985 LE
521.28 399.6 LS
521.28 395.135 LE
gsave
0.14902 0.14902 0.14902 C
(0) [10] 0 68.38 11.5159 24 /Helvetica SRX
grestore

gsave
0.14902 0.14902 0.14902 C
(1) [10] 0 179.98 11.5159 24 /Helvetica SRX
grestore

gsave
0.14902 0.14902 0.14902 C
(2) [10] 0 291.58 11.5159 24 /Helvetica SRX
grestore

gsave
0.14902 0.14902 0.14902 C
(3) [10] 0 403.18 11.5159 24 /Helvetica SRX
grestore

gsave
0.14902 0.14902 0.14902 C
(4) [10] 0 514.78 11.5159 24 /Helvetica SRX
grestore

74.88 47.52 LS
79.348 47.52 LE
521.28 47.52 LS
516.812 47.52 LE
74.88 399.6 LS
79.348 399.6 LE
521.28 399.6 LS
516.812 399.6 LE
gsave
0.14902 0.14902 0.14902 C
(0) [10] 0 49.8692 38.52 24 /Helvetica SRX
grestore

gsave
0.14902 0.14902 0.14902 C
(1.2) [13 6 10] 0 30.8692 390.6 24 /Helvetica SRX
grestore

2 LC
[16 0] 0 setdash
74.88 47.52 LS
521.28 47.52 LE
74.88 399.6 LS
521.28 399.6 LE
74.88 47.52 LS
74.88 399.6 LE
521.28 47.52 LS
521.28 399.6 LE
2 W
0 LC
1 LJ
[8 8 8 8] 0 setdash
0 0 0 C
74.88 49.4858 LS
76.4583 53.4173 L
78.0365 59.3147 L
79.6148 65.1533 L
81.1931 70.9333 L
82.7713 76.684 L
84.3496 82.552 L
85.9278 88.3026 L
87.5061 94.0239 L
89.0844 99.9212 L
90.6626 105.584 L
92.2409 111.129 L
93.8191 116.762 L
95.3974 122.22 L
96.9757 128.058 L
98.5539 133.574 L
100.132 139.061 L
101.71 144.371 L
103.289 149.799 L
104.867 155.08 L
106.445 160.215 L
108.023 165.555 L
109.602 170.572 L
111.18 175.354 L
112.758 180.518 L
114.337 185.506 L
115.915 190.171 L
117.493 194.543 L
119.071 199.413 L
120.65 204.078 L
122.228 208.626 L
123.806 212.646 L
125.384 216.636 L
126.963 221.154 L
128.541 225.408 L
130.119 229.516 L
131.697 233.037 L
133.276 236.616 L
134.854 240.401 L
136.432 244.157 L
138.01 247.472 L
139.589 250.817 L
141.167 254.103 L
142.745 257.301 L
144.324 260.118 L
145.902 262.876 L
147.48 265.458 L
149.058 268.274 L
150.637 271.149 L
152.215 273.379 L
153.793 275.756 L
155.371 278.543 L
156.95 280.714 L
158.528 282.24 L
160.106 284.059 L
161.684 286.377 L
163.263 287.668 L
164.841 289.164 L
166.419 290.749 L
167.997 291.922 L
169.576 293.595 L
171.154 294.269 L
172.732 295.443 L
174.311 296.499 L
175.889 297.145 L
177.467 297.585 L
179.045 298.465 L
180.624 298.524 L
182.202 298.582 L
183.78 299.052 L
185.358 298.758 L
186.937 299.257 L
188.515 299.052 L
190.093 298.846 L
191.671 298.582 L
193.25 298.201 L
194.828 297.262 L
196.406 297.174 L
197.984 296.851 L
199.563 295.883 L
201.141 295.179 L
202.719 294.24 L
204.298 293.36 L
205.876 292.421 L
207.454 290.866 L
209.032 288.959 L
210.611 288.255 L
212.189 286.758 L
213.767 285.174 L
215.345 283.619 L
216.924 282.123 L
218.502 280.48 L
220.08 278.983 L
221.658 277.663 L
223.237 275.668 L
224.815 273.673 L
226.393 271.619 L
227.971 269.448 L
229.55 267.511 L
231.128 265.487 L
232.706 263.257 L
234.284 261.35 L
235.863 259.208 L
237.441 256.802 L
239.019 254.484 L
240.598 252.196 L
242.176 249.761 L
243.754 247.237 L
245.332 244.861 L
246.911 242.543 L
248.489 239.844 L
250.067 237.467 L
251.645 234.768 L
253.224 232.538 L
254.802 229.897 L
256.38 227.58 L
257.958 225.144 L
259.537 221.829 L
261.115 219.218 L
262.693 216.812 L
264.271 214.465 L
265.85 212 L
267.428 209.154 L
269.006 206.601 L
270.585 203.844 L
272.163 201.056 L
273.741 198.65 L
275.319 196.156 L
276.898 193.34 L
278.476 190.846 L
280.054 188.411 L
281.632 185.594 L
283.211 183.1 L
284.789 180.753 L
286.367 178.288 L
287.945 175.677 L
289.524 173.183 L
291.102 170.484 L
292.68 168.078 L
294.258 165.672 L
295.837 163.384 L
297.415 160.596 L
298.993 158.22 L
300.571 156.225 L
302.15 154.112 L
303.728 151.648 L
305.306 149.3 L
306.885 146.865 L
308.463 144.665 L
310.041 142.611 L
311.619 140.469 L
313.198 138.357 L
314.776 136.097 L
316.354 133.926 L
317.932 131.961 L
319.511 129.76 L
321.089 127.882 L
322.667 125.77 L
324.245 123.863 L
325.824 122.014 L
327.402 120.166 L
328.98 118.112 L
330.558 116.352 L
332.137 114.855 L
333.715 112.919 L
335.293 111.041 L
336.872 109.398 L
338.45 107.814 L
340.028 106.288 L
341.606 104.557 L
343.185 102.943 L
344.763 101.359 L
346.341 99.9506 L
347.919 98.5716 L
349.498 97.0166 L
351.076 95.5496 L
352.654 94.0239 L
354.232 92.6743 L
355.811 91.354 L
357.389 90.2684 L
358.967 88.9774 L
360.545 87.6864 L
362.124 86.3662 L
363.702 85.0459 L
365.28 84.1363 L
366.859 83.0214 L
368.437 81.8478 L
370.015 80.8502 L
371.593 79.8527 L
373.172 78.6497 L
374.75 77.6228 L
376.328 76.6546 L
377.906 75.6571 L
379.485 74.7182 L
381.063 73.926 L
382.641 73.0751 L
384.219 72.1656 L
385.798 71.3441 L
387.376 70.6106 L
388.954 69.8184 L
390.532 69.1729 L
392.111 68.3221 L
393.689 67.4419 L
395.267 66.8844 L
396.846 66.1216 L
398.424 65.5641 L
400.002 64.8893 L
401.58 64.2144 L
403.159 63.6277 L
404.737 63.0115 L
406.315 62.366 L
407.893 61.9553 L
409.472 61.4858 L
411.05 60.9577 L
412.628 60.4883 L
414.206 60.0188 L
415.785 59.4907 L
417.363 59.0213 L
418.941 58.6105 L
420.519 58.0824 L
422.098 57.701 L
423.676 57.3489 L
425.254 56.9381 L
426.832 56.5274 L
428.411 56.2633 L
429.989 55.9699 L
431.567 55.5005 L
433.146 55.2071 L
434.724 54.943 L
436.302 54.6496 L
437.88 54.2975 L
439.459 54.0041 L
441.037 53.8574 L
442.615 53.5054 L
444.193 53.2706 L
445.772 53.0652 L
447.35 52.8012 L
448.928 52.6252 L
450.506 52.3317 L
452.085 52.1264 L
453.663 51.921 L
455.241 51.833 L
456.819 51.6276 L
458.398 51.4222 L
459.976 51.2168 L
461.554 51.0701 L
463.133 50.8941 L
464.711 50.7474 L
466.289 50.63 L
467.867 50.4833 L
469.446 50.366 L
471.024 50.2486 L
472.602 50.1313 L
474.18 49.9552 L
475.759 49.8965 L
477.337 49.7498 L
478.915 49.6325 L
480.493 49.5738 L
482.072 49.4858 L
483.65 49.3978 L
485.228 49.3097 L
486.806 49.2217 L
488.385 49.1337 L
489.963 49.0457 L
491.541 48.987 L
493.119 48.9283 L
494.698 48.8403 L
496.276 48.7816 L
497.854 48.7229 L
499.433 48.6349 L
501.011 48.5762 L
502.589 48.5469 L
504.167 48.5176 L
505.746 48.4295 L
507.324 48.4002 L
508.902 48.3708 L
510.48 48.3122 L
512.059 48.2828 L
513.637 48.2535 L
515.215 48.2242 L
516.793 48.1655 L
518.372 48.1361 L
519.95 48.0775 L
521.528 48.0481 L
521.726 48.0481 LE
[] 0 setdash
0 0 1 C
74.88 49.163 LS
76.4583 52.3904 L
78.0365 57.2315 L
79.6148 61.8966 L
81.1931 66.767 L
82.7713 71.168 L
84.3496 76.0091 L
85.9278 80.9382 L
87.5061 85.4566 L
89.0844 90.9139 L
90.6626 95.2855 L
92.2409 100.127 L
93.8191 104.88 L
95.3974 109.603 L
96.9757 114.18 L
98.5539 118.728 L
100.132 123.628 L
101.71 127.706 L
103.289 131.961 L
104.867 136.86 L
106.445 141.731 L
108.023 146.132 L
109.602 150.767 L
111.18 155.11 L
112.758 159.305 L
114.337 163.97 L
115.915 168.342 L
117.493 172.244 L
119.071 176.997 L
120.65 181.398 L
122.228 185.095 L
123.806 189.555 L
125.384 192.46 L
126.963 197.33 L
128.541 201.496 L
130.119 206.161 L
131.697 209.917 L
133.276 213.32 L
134.854 217.428 L
136.432 221.301 L
138.01 224.939 L
139.589 227.756 L
141.167 231.981 L
142.745 235.003 L
144.324 238.67 L
145.902 242.015 L
147.48 245.33 L
149.058 249.262 L
150.637 251.873 L
152.215 255.189 L
153.793 258.269 L
155.371 261.262 L
156.95 263.844 L
158.528 267.277 L
160.106 270.064 L
161.684 271.795 L
163.263 274.905 L
164.841 277.458 L
166.419 278.778 L
167.997 281.36 L
169.576 284.969 L
171.154 287.345 L
172.732 288.167 L
174.311 289.956 L
175.889 292.304 L
177.467 293.976 L
179.045 296.675 L
180.624 297.379 L
182.202 298.406 L
183.78 299.903 L
185.358 301.956 L
186.937 302.778 L
188.515 303.365 L
190.093 304.949 L
191.671 305.448 L
193.25 305.947 L
194.828 306.622 L
196.406 308.206 L
197.984 308.969 L
199.563 308.265 L
201.141 308.646 L
202.719 309.526 L
204.298 309.291 L
205.876 308.851 L
207.454 308.558 L
209.032 308.734 L
210.611 308.265 L
212.189 307.619 L
213.767 306.886 L
215.345 306.475 L
216.924 304.92 L
218.502 304.392 L
220.08 304.186 L
221.658 302.397 L
223.237 301.575 L
224.815 300.842 L
226.393 299.111 L
227.971 297.996 L
229.55 296.03 L
231.128 294.211 L
232.706 293.272 L
234.284 291.922 L
235.863 288.988 L
237.441 286.348 L
239.019 284.822 L
240.598 282.827 L
242.176 279.863 L
243.754 278.367 L
245.332 275.727 L
246.911 272.558 L
248.489 270.328 L
250.067 268.802 L
251.645 265.458 L
253.224 263.492 L
254.802 260.704 L
256.38 256.391 L
257.958 254.22 L
259.537 251.902 L
261.115 248.675 L
262.693 244.597 L
264.271 241.986 L
265.85 239.492 L
267.428 235.971 L
269.006 232.069 L
270.585 230.514 L
272.163 226.993 L
273.741 223.325 L
275.319 220.333 L
276.898 217.457 L
278.476 213.819 L
280.054 210.65 L
281.632 207.54 L
283.211 204.196 L
284.789 200.851 L
286.367 197.477 L
287.945 193.486 L
289.524 189.966 L
291.102 187.736 L
292.68 184.303 L
294.258 180.489 L
295.837 177.408 L
297.415 174.562 L
298.993 171.012 L
300.571 168.254 L
302.15 164.675 L
303.728 161.359 L
305.306 158.484 L
306.885 155.609 L
308.463 151.765 L
310.041 149.3 L
311.619 146.631 L
313.198 143.697 L
314.776 140.322 L
316.354 137.917 L
317.932 135.276 L
319.511 131.99 L
321.089 129.555 L
322.667 126.709 L
324.245 124.479 L
325.824 121.985 L
327.402 119.315 L
328.98 116.909 L
330.558 114.268 L
332.137 112.039 L
333.715 109.633 L
335.293 107.696 L
336.872 105.261 L
338.45 102.797 L
340.028 100.86 L
341.606 98.6596 L
343.185 96.6645 L
344.763 94.7867 L
346.341 92.8796 L
347.919 91.0019 L
349.498 89.3588 L
351.076 87.7451 L
352.654 86.1608 L
354.232 84.283 L
355.811 82.6987 L
357.389 80.9676 L
358.967 79.618 L
360.545 78.1803 L
362.124 76.4786 L
363.702 75.6277 L
365.28 73.9847 L
366.859 72.9578 L
368.437 71.8722 L
370.015 70.4932 L
371.593 69.6424 L
373.172 68.3807 L
374.75 67.2071 L
376.328 66.1802 L
377.906 65.388 L
379.485 64.5959 L
381.063 63.7744 L
382.641 62.6594 L
384.219 61.9553 L
385.798 61.2511 L
387.376 60.5176 L
388.954 59.6081 L
390.532 58.9626 L
392.111 58.4638 L
393.689 57.965 L
395.267 57.1729 L
396.846 56.6447 L
398.424 56.1753 L
400.002 55.5885 L
401.58 55.1484 L
403.159 54.679 L
404.737 54.2095 L
406.315 53.9748 L
407.893 53.564 L
409.472 53.1239 L
411.05 52.7132 L
412.628 52.4198 L
414.206 52.2731 L
415.785 51.8917 L
417.363 51.5983 L
418.941 51.2755 L
420.519 51.0701 L
422.098 50.8647 L
423.676 50.6887 L
425.254 50.454 L
426.832 50.2486 L
428.411 50.0726 L
429.989 49.8965 L
431.567 49.6911 L
433.146 49.5444 L
434.724 49.3978 L
436.302 49.3391 L
437.88 49.1337 L
439.459 49.075 L
441.037 48.9576 L
442.615 48.8403 L
444.193 48.7229 L
445.772 48.6349 L
447.35 48.5469 L
448.928 48.4002 L
450.506 48.4295 L
452.085 48.3415 L
453.663 48.2535 L
455.241 48.2242 L
456.819 48.1948 L
458.398 48.1068 L
459.976 48.0775 L
461.554 48.0188 L
463.133 48.0188 L
464.711 47.9601 L
466.289 47.9014 L
467.867 47.8721 L
469.446 47.8427 L
471.024 47.8134 L
472.602 47.8134 L
474.18 47.8134 L
475.759 47.7841 L
477.337 47.7254 L
478.915 47.696 L
480.493 47.696 L
482.072 47.696 L
483.65 47.6667 L
485.228 47.6667 L
486.806 47.6374 L
488.385 47.6374 L
489.963 47.6374 L
491.541 47.608 L
493.119 47.608 L
494.698 47.5787 L
496.276 47.608 L
497.854 47.5787 L
499.433 47.5787 L
501.011 47.5787 L
502.589 47.5493 L
504.167 47.5787 L
505.746 47.5787 L
507.324 47.5493 L
508.902 47.5493 L
510.48 47.5493 L
512.059 47.5493 L
513.637 47.5493 L
515.215 47.5493 L
516.793 47.52 L
518.372 47.52 L
519.95 47.52 L
521.528 47.5493 L
521.726 47.5457 LE
grestore
grestore
showpage
cleartomark
%%PageTrailer
%%Trailer
end
%%EOF
