%!PS-Adobe-3.0 EPSF-3.0
%%Title: gl2ps_renderer figure
%%Creator: GL2PS 1.4.0, (C) 1999-2017 C. Geuzaine
%%For: Octave
%%CreationDate: Sat Feb  1 20:33:52 2020
%%LanguageLevel: 3
%%DocumentData: Clean7Bit
%%Pages: 1
%%BoundingBox: 0 0 576 432
%%EndComments
%%BeginProlog
/gl2psdict 64 dict def gl2psdict begin
/tryPS3shading false def % set to false to force subdivision
/rThreshold 0.064 def % red component subdivision threshold
/gThreshold 0.034 def % green component subdivision threshold
/bThreshold 0.1 def % blue component subdivision threshold
/BD { bind def } bind def
/C  { setrgbcolor } BD
/G  { 0.082 mul exch 0.6094 mul add exch 0.3086 mul add neg 1.0 add setgray } BD
/W  { setlinewidth } BD
/LC  { setlinecap } BD
/LJ  { setlinejoin } BD
/FC { findfont exch /SH exch def SH scalefont setfont } BD
/SW { dup stringwidth pop } BD
/S  { FC moveto show } BD
/SBC{ FC moveto SW -2 div 0 rmoveto show } BD
/SBR{ FC moveto SW neg 0 rmoveto show } BD
/SCL{ FC moveto 0 SH -2 div rmoveto show } BD
/SCC{ FC moveto SW -2 div SH -2 div rmoveto show } BD
/SCR{ FC moveto SW neg SH -2 div rmoveto show } BD
/STL{ FC moveto 0 SH neg rmoveto show } BD
/STC{ FC moveto SW -2 div SH neg rmoveto show } BD
/STR{ FC moveto SW neg SH neg rmoveto show } BD
/FCT { FC translate 0 0 } BD
/SR  { gsave FCT moveto rotate show grestore } BD
/SRX  { gsave FCT moveto rotate xshow grestore } BD
/SBCR{ gsave FCT moveto rotate SW -2 div 0 rmoveto show grestore } BD
/SBRR{ gsave FCT moveto rotate SW neg 0 rmoveto show grestore } BD
/SCLR{ gsave FCT moveto rotate 0 SH -2 div rmoveto show grestore} BD
/SCCR{ gsave FCT moveto rotate SW -2 div SH -2 div rmoveto show grestore} BD
/SCRR{ gsave FCT moveto rotate SW neg SH -2 div rmoveto show grestore} BD
/STLR{ gsave FCT moveto rotate 0 SH neg rmoveto show grestore } BD
/STCR{ gsave FCT moveto rotate SW -2 div SH neg rmoveto show grestore } BD
/STRR{ gsave FCT moveto rotate SW neg SH neg rmoveto show grestore } BD
/P  { newpath 0.0 360.0 arc closepath fill } BD
/LS { newpath moveto } BD
/L  { lineto } BD
/LE { lineto stroke } BD
/T  { newpath moveto lineto lineto closepath fill } BD
/STshfill {
      /b1 exch def /g1 exch def /r1 exch def /y1 exch def /x1 exch def
      /b2 exch def /g2 exch def /r2 exch def /y2 exch def /x2 exch def
      /b3 exch def /g3 exch def /r3 exch def /y3 exch def /x3 exch def
      gsave << /ShadingType 4 /ColorSpace [/DeviceRGB]
      /DataSource [ 0 x1 y1 r1 g1 b1 0 x2 y2 r2 g2 b2 0 x3 y3 r3 g3 b3 ] >>
      shfill grestore } BD
/Tm { 3 -1 roll 8 -1 roll 13 -1 roll add add 3 div
      3 -1 roll 7 -1 roll 11 -1 roll add add 3 div
      3 -1 roll 6 -1 roll 9 -1 roll add add 3 div C T } BD
/STsplit {
      4 index 15 index add 0.5 mul
      4 index 15 index add 0.5 mul
      4 index 15 index add 0.5 mul
      4 index 15 index add 0.5 mul
      4 index 15 index add 0.5 mul
      5 copy 5 copy 25 15 roll
      9 index 30 index add 0.5 mul
      9 index 30 index add 0.5 mul
      9 index 30 index add 0.5 mul
      9 index 30 index add 0.5 mul
      9 index 30 index add 0.5 mul
      5 copy 5 copy 35 5 roll 25 5 roll 15 5 roll
      4 index 10 index add 0.5 mul
      4 index 10 index add 0.5 mul
      4 index 10 index add 0.5 mul
      4 index 10 index add 0.5 mul
      4 index 10 index add 0.5 mul
      5 copy 5 copy 40 5 roll 25 5 roll 15 5 roll 25 5 roll
      STnoshfill STnoshfill STnoshfill STnoshfill } BD
/STnoshfill {
      2 index 8 index sub abs rThreshold gt
      { STsplit }
      { 1 index 7 index sub abs gThreshold gt
        { STsplit }
        { dup 6 index sub abs bThreshold gt
          { STsplit }
          { 2 index 13 index sub abs rThreshold gt
            { STsplit }
            { 1 index 12 index sub abs gThreshold gt
              { STsplit }
              { dup 11 index sub abs bThreshold gt
                { STsplit }
                { 7 index 13 index sub abs rThreshold gt
                  { STsplit }
                  { 6 index 12 index sub abs gThreshold gt
                    { STsplit }
                    { 5 index 11 index sub abs bThreshold gt
                      { STsplit }
                      { Tm }
                      ifelse }
                    ifelse }
                  ifelse }
                ifelse }
              ifelse }
            ifelse }
          ifelse }
        ifelse }
      ifelse } BD
tryPS3shading
{ /shfill where
  { /ST { STshfill } BD }
  { /ST { STnoshfill } BD }
  ifelse }
{ /ST { STnoshfill } BD }
ifelse
end
%%EndProlog
%%BeginSetup
/DeviceRGB setcolorspace
gl2psdict begin
%%EndSetup
%%Page: 1 1
%%BeginPageSetup
%%EndPageSetup
mark
gsave
1.0 1.0 scale
1 1 1 C
newpath 0 0 moveto 576 0 lineto 576 432 lineto 0 432 lineto
closepath fill
gsave
1.0 1.0 scale
1 1 1 C
newpath 0 0 moveto 576 0 lineto 576 432 lineto 0 432 lineto
closepath fill
newpath 0 0 moveto 576 0 lineto 576 432 lineto 0 432 lineto
closepath clip
1 1 1 C
521.28 47.52 74.88 47.52 74.88 399.6 T
521.28 399.6 521.28 47.52 74.88 399.6 T
0.5 W
0.15 0.15 0.15 C
74.88 47.52 LS
74.88 51.985 LE
74.88 399.6 LS
74.88 395.135 LE
298.08 47.52 LS
298.08 51.985 LE
298.08 399.6 LS
298.08 395.135 LE
521.28 47.52 LS
521.28 51.985 LE
521.28 399.6 LS
521.28 395.135 LE
gsave
0.14902 0.14902 0.14902 C
(0) [10] 0 71.88 32.0183 10 /Helvetica SRX
grestore

gsave
0.14902 0.14902 0.14902 C
(5) [10] 0 295.08 32.0183 10 /Helvetica SRX
grestore

gsave
0.14902 0.14902 0.14902 C
(10) [6 10] 0 515.28 32.0183 10 /Helvetica SRX
grestore

74.88 47.52 LS
79.348 47.52 LE
521.28 47.52 LS
516.812 47.52 LE
74.88 135.54 LS
79.348 135.54 LE
521.28 135.54 LS
516.812 135.54 LE
74.88 223.56 LS
79.348 223.56 LE
521.28 223.56 LS
516.812 223.56 LE
74.88 311.58 LS
79.348 311.58 LE
521.28 311.58 LS
516.812 311.58 LE
74.88 399.6 LS
79.348 399.6 LE
521.28 399.6 LS
516.812 399.6 LE
gsave
0.14902 0.14902 0.14902 C
(0) [10] 0 63.8755 43.52 10 /Helvetica SRX
grestore

gsave
0.14902 0.14902 0.14902 C
(0.01) [6 3 6 10] 0 48.8755 131.54 10 /Helvetica SRX
grestore

gsave
0.14902 0.14902 0.14902 C
(0.02) [6 3 6 10] 0 48.8755 219.56 10 /Helvetica SRX
grestore

gsave
0.14902 0.14902 0.14902 C
(0.03) [6 3 6 10] 0 48.8755 307.58 10 /Helvetica SRX
grestore

gsave
0.14902 0.14902 0.14902 C
(0.04) [6 3 6 10] 0 48.8755 395.6 10 /Helvetica SRX
grestore

2 LC
[16 0] 0 setdash
74.88 47.52 LS
521.28 47.52 LE
74.88 399.6 LS
521.28 399.6 LE
74.88 47.52 LS
74.88 399.6 LE
521.28 47.52 LS
521.28 399.6 LE
2 W
0 LC
1 LJ
[8 8 8 8] 0 setdash
0 0 0 C
74.88 47.52 LS
77.112 47.52 L
79.344 47.52 L
81.576 47.52 L
83.808 47.52 L
86.04 47.52 L
88.272 47.52 L
90.504 47.52 L
92.736 47.52 L
94.968 47.52 L
97.2 47.52 L
99.432 47.52 L
101.664 47.52 L
103.896 47.52 L
106.128 47.52 L
108.36 47.52 L
110.592 47.52 L
112.824 47.52 L
115.056 47.52 L
117.288 47.52 L
119.52 47.52 L
121.752 47.52 L
123.984 47.52 L
126.216 47.52 L
128.448 47.52 L
130.68 47.52 L
132.912 47.52 L
135.144 47.52 L
137.376 47.52 L
139.608 47.52 L
141.84 47.52 L
144.072 47.52 L
146.304 47.52 L
148.536 47.52 L
150.768 47.52 L
153 47.52 L
155.232 47.52 L
157.464 47.52 L
159.696 47.52 L
161.928 47.52 L
164.16 47.52 L
166.392 47.5288 L
168.624 47.5288 L
170.856 47.5288 L
173.088 47.5376 L
175.32 47.5552 L
177.552 47.564 L
179.784 47.5904 L
182.016 47.6168 L
184.248 47.6608 L
186.48 47.7136 L
188.712 47.8017 L
190.944 47.9073 L
193.176 48.0657 L
195.408 48.2506 L
197.64 48.5058 L
199.872 48.8579 L
202.104 49.254 L
204.336 49.7909 L
206.568 50.4423 L
208.8 51.2432 L
211.032 52.2731 L
213.264 53.523 L
215.496 54.9841 L
217.728 56.8061 L
219.96 58.945 L
222.192 61.436 L
224.424 64.323 L
226.656 67.7206 L
228.888 71.5759 L
231.12 76.0121 L
233.352 80.994 L
235.584 86.4953 L
237.816 92.6919 L
240.048 99.5398 L
242.28 106.854 L
244.512 114.891 L
246.744 123.569 L
248.976 132.715 L
251.208 142.467 L
253.44 152.651 L
255.672 163.169 L
257.904 173.829 L
260.136 184.664 L
262.368 195.948 L
264.6 207.047 L
266.832 217.997 L
269.064 228.639 L
271.296 238.911 L
273.528 248.672 L
275.76 258.055 L
277.992 266.197 L
280.224 273.767 L
282.456 279.805 L
284.688 285.35 L
286.92 289.566 L
289.152 292.805 L
291.384 294.698 L
293.616 295.596 L
295.848 295.041 L
298.08 293.289 L
300.312 290.42 L
302.544 286.415 L
304.776 280.923 L
307.008 275.043 L
309.24 268.213 L
311.472 260.352 L
313.704 251.902 L
315.936 243.048 L
318.168 233.717 L
320.4 223.85 L
322.632 213.719 L
324.864 203.623 L
327.096 193.36 L
329.328 183.15 L
331.56 173.362 L
333.792 163.742 L
336.024 154.147 L
338.256 145.143 L
340.488 136.499 L
342.72 128.129 L
344.952 120.357 L
347.184 113.104 L
349.416 106.159 L
351.648 99.7071 L
353.88 93.9857 L
356.112 88.5725 L
358.344 83.8018 L
360.576 79.348 L
362.808 75.2991 L
365.04 71.7519 L
367.272 68.6008 L
369.504 65.7049 L
371.736 63.2052 L
373.968 60.9783 L
376.2 58.9802 L
378.432 57.2814 L
380.664 55.8115 L
382.896 54.4912 L
385.128 53.3821 L
387.36 52.4491 L
389.592 51.6393 L
391.824 50.9352 L
394.056 50.3454 L
396.288 49.8613 L
398.52 49.4564 L
400.752 49.0956 L
402.984 48.8227 L
405.216 48.5762 L
407.448 48.3826 L
409.68 48.2153 L
411.912 48.0745 L
414.144 47.9689 L
416.376 47.8721 L
418.608 47.8017 L
420.84 47.7401 L
423.072 47.7048 L
425.304 47.6608 L
427.536 47.6344 L
429.768 47.608 L
432 47.5904 L
434.232 47.5728 L
436.464 47.5552 L
438.696 47.5552 L
440.928 47.5464 L
443.16 47.5376 L
445.392 47.5376 L
447.624 47.5288 L
449.856 47.5288 L
452.088 47.5288 L
454.32 47.5288 L
456.552 47.52 L
458.784 47.52 L
461.016 47.52 L
463.248 47.52 L
465.48 47.52 L
467.712 47.52 L
469.944 47.52 L
472.176 47.52 L
474.408 47.52 L
476.64 47.52 L
478.872 47.52 L
481.104 47.52 L
483.336 47.52 L
485.568 47.52 L
487.8 47.52 L
490.032 47.52 L
492.264 47.52 L
494.496 47.52 L
496.728 47.52 L
498.96 47.52 L
501.192 47.52 L
503.424 47.52 L
505.656 47.52 L
507.888 47.52 L
510.12 47.52 L
512.352 47.52 L
514.584 47.52 L
516.816 47.52 L
519.048 47.52 L
521.28 47.52 LE
[] 0 setdash
0 0 1 C
74.88 47.52 LS
77.112 47.52 L
79.344 47.52 L
81.576 47.52 L
83.808 47.52 L
86.04 47.52 L
88.272 47.52 L
90.504 47.52 L
92.736 47.52 L
94.968 47.52 L
97.2 47.52 L
99.432 47.52 L
101.664 47.52 L
103.896 47.52 L
106.128 47.52 L
108.36 47.52 L
110.592 47.52 L
112.824 47.52 L
115.056 47.52 L
117.288 47.52 L
119.52 47.52 L
121.752 47.52 L
123.984 47.52 L
126.216 47.52 L
128.448 47.52 L
130.68 47.52 L
132.912 47.52 L
135.144 47.52 L
137.376 47.52 L
139.608 47.52 L
141.84 47.52 L
144.072 47.52 L
146.304 47.52 L
148.536 47.52 L
150.768 47.52 L
153 47.52 L
155.232 47.52 L
157.464 47.52 L
159.696 47.52 L
161.928 47.52 L
164.16 47.52 L
166.392 47.52 L
168.624 47.52 L
170.856 47.52 L
173.088 47.5288 L
175.32 47.5376 L
177.552 47.564 L
179.784 47.564 L
182.016 47.5552 L
184.248 47.564 L
186.48 47.6256 L
188.712 47.6872 L
190.944 47.7401 L
193.176 47.8457 L
195.408 47.8809 L
197.64 48.0129 L
199.872 48.3034 L
202.104 48.585 L
204.336 49.0691 L
206.568 49.4564 L
208.8 50.0638 L
211.032 50.9352 L
213.264 52.2291 L
215.496 53.5406 L
217.728 55.1865 L
219.96 56.9469 L
222.192 59.4467 L
224.424 61.9113 L
226.656 65.9602 L
228.888 69.6306 L
231.12 73.5915 L
233.352 78.9255 L
235.584 84.4092 L
237.816 90.4121 L
240.048 97.6562 L
242.28 105.983 L
244.512 114.318 L
246.744 123.851 L
248.976 133.419 L
251.208 143.312 L
253.44 154.596 L
255.672 165.168 L
257.904 175.281 L
260.136 186.407 L
262.368 198.008 L
264.6 209.688 L
266.832 221.949 L
269.064 232.74 L
271.296 242.907 L
273.528 253.839 L
275.76 261.69 L
277.992 269.234 L
280.224 278.493 L
282.456 286.177 L
284.688 290.649 L
286.92 295.182 L
289.152 298.183 L
291.384 297.294 L
293.616 297.682 L
295.848 296.889 L
298.08 293.58 L
300.312 289.258 L
302.544 287.066 L
304.776 281.424 L
307.008 274.339 L
309.24 267.033 L
311.472 258.187 L
313.704 251.163 L
315.936 241.991 L
318.168 231.693 L
320.4 222.248 L
322.632 212.883 L
324.864 202.576 L
327.096 191.512 L
329.328 181.495 L
331.56 171.355 L
333.792 161.788 L
336.024 152.035 L
338.256 143.083 L
340.488 135.021 L
342.72 126.712 L
344.952 120.092 L
347.184 112.039 L
349.416 105.508 L
351.648 98.9765 L
353.88 93.2376 L
356.112 87.7979 L
358.344 82.7104 L
360.576 78.8727 L
362.808 75.3607 L
365.04 71.5318 L
367.272 68.4335 L
369.504 65.7401 L
371.736 62.6242 L
373.968 60.2917 L
376.2 58.6017 L
378.432 56.9733 L
380.664 55.5034 L
382.896 53.9454 L
385.128 53.0388 L
387.36 51.9298 L
389.592 51.3577 L
391.824 50.6799 L
394.056 50.0814 L
396.288 49.7117 L
398.52 49.3156 L
400.752 49.0515 L
402.984 48.7435 L
405.216 48.3386 L
407.448 48.2506 L
409.68 48.1449 L
411.912 47.9425 L
414.144 47.8897 L
416.376 47.7576 L
418.608 47.7576 L
420.84 47.696 L
423.072 47.6608 L
425.304 47.6256 L
427.536 47.5816 L
429.768 47.5816 L
432 47.564 L
434.232 47.5552 L
436.464 47.5552 L
438.696 47.5464 L
440.928 47.5288 L
443.16 47.5288 L
445.392 47.5288 L
447.624 47.5376 L
449.856 47.5288 L
452.088 47.5288 L
454.32 47.52 L
456.552 47.52 L
458.784 47.52 L
461.016 47.52 L
463.248 47.52 L
465.48 47.52 L
467.712 47.52 L
469.944 47.52 L
472.176 47.52 L
474.408 47.52 L
476.64 47.52 L
478.872 47.52 L
481.104 47.52 L
483.336 47.52 L
485.568 47.52 L
487.8 47.52 L
490.032 47.52 L
492.264 47.52 L
494.496 47.52 L
496.728 47.52 L
498.96 47.52 L
501.192 47.52 L
503.424 47.52 L
505.656 47.52 L
507.888 47.52 L
510.12 47.52 L
512.352 47.52 L
514.584 47.52 L
516.816 47.52 L
519.048 47.52 L
521.28 47.52 LE
grestore
grestore
showpage
cleartomark
%%PageTrailer
%%Trailer
end
%%EOF
