%!PS-Adobe-3.0 EPSF-3.0
%%Title: gl2ps_renderer figure
%%Creator: GL2PS 1.4.0, (C) 1999-2017 C. Geuzaine
%%For: Octave
%%CreationDate: Sat Feb  1 20:23:47 2020
%%LanguageLevel: 3
%%DocumentData: Clean7Bit
%%Pages: 1
%%BoundingBox: 0 0 576 432
%%EndComments
%%BeginProlog
/gl2psdict 64 dict def gl2psdict begin
/tryPS3shading false def % set to false to force subdivision
/rThreshold 0.064 def % red component subdivision threshold
/gThreshold 0.034 def % green component subdivision threshold
/bThreshold 0.1 def % blue component subdivision threshold
/BD { bind def } bind def
/C  { setrgbcolor } BD
/G  { 0.082 mul exch 0.6094 mul add exch 0.3086 mul add neg 1.0 add setgray } BD
/W  { setlinewidth } BD
/LC  { setlinecap } BD
/LJ  { setlinejoin } BD
/FC { findfont exch /SH exch def SH scalefont setfont } BD
/SW { dup stringwidth pop } BD
/S  { FC moveto show } BD
/SBC{ FC moveto SW -2 div 0 rmoveto show } BD
/SBR{ FC moveto SW neg 0 rmoveto show } BD
/SCL{ FC moveto 0 SH -2 div rmoveto show } BD
/SCC{ FC moveto SW -2 div SH -2 div rmoveto show } BD
/SCR{ FC moveto SW neg SH -2 div rmoveto show } BD
/STL{ FC moveto 0 SH neg rmoveto show } BD
/STC{ FC moveto SW -2 div SH neg rmoveto show } BD
/STR{ FC moveto SW neg SH neg rmoveto show } BD
/FCT { FC translate 0 0 } BD
/SR  { gsave FCT moveto rotate show grestore } BD
/SRX  { gsave FCT moveto rotate xshow grestore } BD
/SBCR{ gsave FCT moveto rotate SW -2 div 0 rmoveto show grestore } BD
/SBRR{ gsave FCT moveto rotate SW neg 0 rmoveto show grestore } BD
/SCLR{ gsave FCT moveto rotate 0 SH -2 div rmoveto show grestore} BD
/SCCR{ gsave FCT moveto rotate SW -2 div SH -2 div rmoveto show grestore} BD
/SCRR{ gsave FCT moveto rotate SW neg SH -2 div rmoveto show grestore} BD
/STLR{ gsave FCT moveto rotate 0 SH neg rmoveto show grestore } BD
/STCR{ gsave FCT moveto rotate SW -2 div SH neg rmoveto show grestore } BD
/STRR{ gsave FCT moveto rotate SW neg SH neg rmoveto show grestore } BD
/P  { newpath 0.0 360.0 arc closepath fill } BD
/LS { newpath moveto } BD
/L  { lineto } BD
/LE { lineto stroke } BD
/T  { newpath moveto lineto lineto closepath fill } BD
/STshfill {
      /b1 exch def /g1 exch def /r1 exch def /y1 exch def /x1 exch def
      /b2 exch def /g2 exch def /r2 exch def /y2 exch def /x2 exch def
      /b3 exch def /g3 exch def /r3 exch def /y3 exch def /x3 exch def
      gsave << /ShadingType 4 /ColorSpace [/DeviceRGB]
      /DataSource [ 0 x1 y1 r1 g1 b1 0 x2 y2 r2 g2 b2 0 x3 y3 r3 g3 b3 ] >>
      shfill grestore } BD
/Tm { 3 -1 roll 8 -1 roll 13 -1 roll add add 3 div
      3 -1 roll 7 -1 roll 11 -1 roll add add 3 div
      3 -1 roll 6 -1 roll 9 -1 roll add add 3 div C T } BD
/STsplit {
      4 index 15 index add 0.5 mul
      4 index 15 index add 0.5 mul
      4 index 15 index add 0.5 mul
      4 index 15 index add 0.5 mul
      4 index 15 index add 0.5 mul
      5 copy 5 copy 25 15 roll
      9 index 30 index add 0.5 mul
      9 index 30 index add 0.5 mul
      9 index 30 index add 0.5 mul
      9 index 30 index add 0.5 mul
      9 index 30 index add 0.5 mul
      5 copy 5 copy 35 5 roll 25 5 roll 15 5 roll
      4 index 10 index add 0.5 mul
      4 index 10 index add 0.5 mul
      4 index 10 index add 0.5 mul
      4 index 10 index add 0.5 mul
      4 index 10 index add 0.5 mul
      5 copy 5 copy 40 5 roll 25 5 roll 15 5 roll 25 5 roll
      STnoshfill STnoshfill STnoshfill STnoshfill } BD
/STnoshfill {
      2 index 8 index sub abs rThreshold gt
      { STsplit }
      { 1 index 7 index sub abs gThreshold gt
        { STsplit }
        { dup 6 index sub abs bThreshold gt
          { STsplit }
          { 2 index 13 index sub abs rThreshold gt
            { STsplit }
            { 1 index 12 index sub abs gThreshold gt
              { STsplit }
              { dup 11 index sub abs bThreshold gt
                { STsplit }
                { 7 index 13 index sub abs rThreshold gt
                  { STsplit }
                  { 6 index 12 index sub abs gThreshold gt
                    { STsplit }
                    { 5 index 11 index sub abs bThreshold gt
                      { STsplit }
                      { Tm }
                      ifelse }
                    ifelse }
                  ifelse }
                ifelse }
              ifelse }
            ifelse }
          ifelse }
        ifelse }
      ifelse } BD
tryPS3shading
{ /shfill where
  { /ST { STshfill } BD }
  { /ST { STnoshfill } BD }
  ifelse }
{ /ST { STnoshfill } BD }
ifelse
end
%%EndProlog
%%BeginSetup
/DeviceRGB setcolorspace
gl2psdict begin
%%EndSetup
%%Page: 1 1
%%BeginPageSetup
%%EndPageSetup
mark
gsave
1.0 1.0 scale
1 1 1 C
newpath 0 0 moveto 576 0 lineto 576 432 lineto 0 432 lineto
closepath fill
gsave
1.0 1.0 scale
1 1 1 C
newpath 0 0 moveto 576 0 lineto 576 432 lineto 0 432 lineto
closepath fill
newpath 0 0 moveto 576 0 lineto 576 432 lineto 0 432 lineto
closepath clip
1 1 1 C
521.28 47.52 74.88 47.52 74.88 399.6 T
521.28 399.6 521.28 47.52 74.88 399.6 T
0.5 W
0.15 0.15 0.15 C
74.88 47.52 LS
74.88 51.985 LE
74.88 399.6 LS
74.88 395.135 LE
186.48 47.52 LS
186.48 51.985 LE
186.48 399.6 LS
186.48 395.135 LE
298.08 47.52 LS
298.08 51.985 LE
298.08 399.6 LS
298.08 395.135 LE
409.68 47.52 LS
409.68 51.985 LE
409.68 399.6 LS
409.68 395.135 LE
521.28 47.52 LS
521.28 51.985 LE
521.28 399.6 LS
521.28 395.135 LE
gsave
0.14902 0.14902 0.14902 C
(0) [10] 0 71.88 32.0183 10 /Helvetica SRX
grestore

gsave
0.14902 0.14902 0.14902 C
(1) [10] 0 183.48 32.0183 10 /Helvetica SRX
grestore

gsave
0.14902 0.14902 0.14902 C
(2) [10] 0 295.08 32.0183 10 /Helvetica SRX
grestore

gsave
0.14902 0.14902 0.14902 C
(3) [10] 0 406.68 32.0183 10 /Helvetica SRX
grestore

gsave
0.14902 0.14902 0.14902 C
(4) [10] 0 518.28 32.0183 10 /Helvetica SRX
grestore

74.88 47.52 LS
79.348 47.52 LE
521.28 47.52 LS
516.812 47.52 LE
74.88 223.56 LS
79.348 223.56 LE
521.28 223.56 LS
516.812 223.56 LE
74.88 399.6 LS
79.348 399.6 LE
521.28 399.6 LS
516.812 399.6 LE
gsave
0.14902 0.14902 0.14902 C
(0) [10] 0 63.8755 43.52 10 /Helvetica SRX
grestore

gsave
0.14902 0.14902 0.14902 C
(0.005) [6 3 6 6 10] 0 42.8755 219.56 10 /Helvetica SRX
grestore

gsave
0.14902 0.14902 0.14902 C
(0.01) [6 3 6 10] 0 48.8755 395.6 10 /Helvetica SRX
grestore

2 LC
[16 0] 0 setdash
74.88 47.52 LS
521.28 47.52 LE
74.88 399.6 LS
521.28 399.6 LE
74.88 47.52 LS
74.88 399.6 LE
521.28 47.52 LS
521.28 399.6 LE
2 W
0 LC
1 LJ
[8 8 8 8] 0 setdash
0 0 0 C
74.88 49.8789 LS
76.4583 54.5968 L
78.0365 61.6736 L
79.6148 68.68 L
81.1931 75.616 L
82.7713 82.5167 L
84.3496 89.5583 L
85.9278 96.4591 L
87.5061 103.325 L
89.0844 110.401 L
90.6626 117.197 L
92.2409 123.851 L
93.8191 130.611 L
95.3974 137.16 L
96.9757 144.166 L
98.5539 150.785 L
100.132 157.369 L
101.71 163.742 L
103.289 170.255 L
104.867 176.593 L
106.445 182.754 L
108.023 189.162 L
109.602 195.182 L
111.18 200.921 L
112.758 207.118 L
114.337 213.103 L
115.915 218.701 L
117.493 223.947 L
119.071 229.792 L
120.65 235.39 L
122.228 240.847 L
123.806 245.671 L
125.384 250.459 L
126.963 255.881 L
128.541 260.986 L
130.119 265.915 L
131.697 270.14 L
133.276 274.436 L
134.854 278.977 L
136.432 283.484 L
138.01 287.463 L
139.589 291.476 L
141.167 295.42 L
142.745 299.257 L
144.324 302.637 L
145.902 305.947 L
147.48 309.045 L
149.058 312.425 L
150.637 315.875 L
152.215 318.551 L
153.793 321.403 L
155.371 324.748 L
156.95 327.353 L
158.528 329.184 L
160.106 331.367 L
161.684 334.148 L
163.263 335.698 L
164.841 337.493 L
166.419 339.394 L
167.997 340.803 L
169.576 342.81 L
171.154 343.619 L
172.732 345.028 L
174.311 346.295 L
175.889 347.07 L
177.467 347.598 L
179.045 348.654 L
180.624 348.724 L
182.202 348.795 L
183.78 349.358 L
185.358 349.006 L
186.937 349.605 L
188.515 349.358 L
190.093 349.112 L
191.671 348.795 L
193.25 348.337 L
194.828 347.21 L
196.406 347.105 L
197.984 346.718 L
199.563 345.556 L
201.141 344.711 L
202.719 343.584 L
204.298 342.528 L
205.876 341.401 L
207.454 339.535 L
209.032 337.247 L
210.611 336.402 L
212.189 334.606 L
213.767 332.705 L
215.345 330.839 L
216.924 329.043 L
218.502 327.072 L
220.08 325.276 L
221.658 323.692 L
223.237 321.297 L
224.815 318.903 L
226.393 316.439 L
227.971 313.833 L
229.55 311.51 L
231.128 309.08 L
232.706 306.404 L
234.284 304.116 L
235.863 301.546 L
237.441 298.659 L
239.019 295.877 L
240.598 293.131 L
242.176 290.209 L
243.754 287.181 L
245.332 284.329 L
246.911 281.548 L
248.489 278.308 L
250.067 275.457 L
251.645 272.217 L
253.224 269.542 L
254.802 266.373 L
256.38 263.591 L
257.958 260.669 L
259.537 256.691 L
261.115 253.557 L
262.693 250.67 L
264.271 247.854 L
265.85 244.896 L
267.428 241.481 L
269.006 238.418 L
270.585 235.108 L
272.163 231.763 L
273.741 228.876 L
275.319 225.884 L
276.898 222.504 L
278.476 219.511 L
280.054 216.589 L
281.632 213.209 L
283.211 210.216 L
284.789 207.4 L
286.367 204.442 L
287.945 201.309 L
289.524 198.316 L
291.102 195.077 L
292.68 192.19 L
294.258 189.303 L
295.837 186.556 L
297.415 183.212 L
298.993 180.36 L
300.571 177.966 L
302.15 175.431 L
303.728 172.473 L
305.306 169.657 L
306.885 166.734 L
308.463 164.094 L
310.041 161.629 L
311.619 159.059 L
313.198 156.524 L
314.776 153.813 L
316.354 151.208 L
317.932 148.849 L
319.511 146.208 L
321.089 143.955 L
322.667 141.42 L
324.245 139.131 L
325.824 136.913 L
327.402 134.695 L
328.98 132.23 L
330.558 130.118 L
332.137 128.322 L
333.715 125.999 L
335.293 123.745 L
336.872 121.774 L
338.45 119.872 L
340.028 118.042 L
341.606 115.964 L
343.185 114.028 L
344.763 112.127 L
346.341 110.437 L
347.919 108.782 L
349.498 106.916 L
351.076 105.155 L
352.654 103.325 L
354.232 101.705 L
355.811 100.121 L
357.389 98.8181 L
358.967 97.2689 L
360.545 95.7197 L
362.124 94.1354 L
363.702 92.551 L
365.28 91.4596 L
366.859 90.1217 L
368.437 88.7134 L
370.015 87.5163 L
371.593 86.3192 L
373.172 84.8757 L
374.75 83.6434 L
376.328 82.4815 L
377.906 81.2845 L
379.485 80.1578 L
381.063 79.2072 L
382.641 78.1862 L
384.219 77.0947 L
385.798 76.1089 L
387.376 75.2287 L
388.954 74.2781 L
390.532 73.5035 L
392.111 72.4825 L
393.689 71.4262 L
395.267 70.7573 L
396.846 69.8419 L
398.424 69.1729 L
400.002 68.3631 L
401.58 67.5533 L
403.159 66.8492 L
404.737 66.1098 L
406.315 65.3352 L
407.893 64.8423 L
409.472 64.279 L
411.05 63.6452 L
412.628 63.0819 L
414.206 62.5186 L
415.785 61.8849 L
417.363 61.3215 L
418.941 60.8286 L
420.519 60.1949 L
422.098 59.7372 L
423.676 59.3147 L
425.254 58.8218 L
426.832 58.3289 L
428.411 58.012 L
429.989 57.6599 L
431.567 57.0966 L
433.146 56.7445 L
434.724 56.4276 L
436.302 56.0755 L
437.88 55.653 L
439.459 55.301 L
441.037 55.1249 L
442.615 54.7024 L
444.193 54.4208 L
445.772 54.1743 L
447.35 53.8574 L
448.928 53.6462 L
450.506 53.2941 L
452.085 53.0477 L
453.663 52.8012 L
455.241 52.6956 L
456.819 52.4491 L
458.398 52.2027 L
459.976 51.9562 L
461.554 51.7802 L
463.133 51.5689 L
464.711 51.3929 L
466.289 51.252 L
467.867 51.076 L
469.446 50.9352 L
471.024 50.7943 L
472.602 50.6535 L
474.18 50.4423 L
475.759 50.3718 L
477.337 50.1958 L
478.915 50.055 L
480.493 49.9846 L
482.072 49.8789 L
483.65 49.7733 L
485.228 49.6677 L
486.806 49.5621 L
488.385 49.4564 L
489.963 49.3508 L
491.541 49.2804 L
493.119 49.21 L
494.698 49.1044 L
496.276 49.034 L
497.854 48.9635 L
499.433 48.8579 L
501.011 48.7875 L
502.589 48.7523 L
504.167 48.7171 L
505.746 48.6114 L
507.324 48.5762 L
508.902 48.541 L
510.48 48.4706 L
512.059 48.4354 L
513.637 48.4002 L
515.215 48.365 L
516.793 48.2946 L
518.372 48.2594 L
519.95 48.1889 L
521.528 48.1537 L
521.726 48.1537 LE
[] 0 setdash
0 0 1 C
74.88 49.6325 LS
76.4583 53.6638 L
78.0365 59.8252 L
79.6148 65.969 L
81.1931 72.0776 L
82.7713 78.415 L
84.3496 84.6116 L
85.9278 90.9491 L
87.5061 96.8288 L
89.0844 102.814 L
90.6626 109.011 L
92.2409 114.961 L
93.8191 121.087 L
95.3974 127.829 L
96.9757 133.287 L
98.5539 139.571 L
100.132 146.419 L
101.71 152.669 L
103.289 159.235 L
104.867 165.256 L
106.445 171.135 L
108.023 177.42 L
109.602 183.335 L
111.18 189.127 L
112.758 196.538 L
114.337 201.361 L
115.915 207.294 L
117.493 213.895 L
119.071 219.793 L
120.65 225.496 L
122.228 231.147 L
123.806 237.784 L
125.384 242.924 L
126.963 249.051 L
128.541 253.945 L
130.119 259.543 L
131.697 265.387 L
133.276 270.457 L
134.854 274.453 L
136.432 280.439 L
138.01 284.699 L
139.589 290.05 L
141.167 295.12 L
142.745 300.208 L
144.324 303.799 L
145.902 308.27 L
147.48 312.46 L
149.058 316.104 L
150.637 320.153 L
152.215 324.695 L
153.793 328.603 L
155.371 330.135 L
156.95 333.039 L
158.528 336.771 L
160.106 339.922 L
161.684 342.369 L
163.263 343.637 L
164.841 344.869 L
166.419 347.703 L
167.997 350.855 L
169.576 352.474 L
171.154 354.111 L
172.732 356.259 L
174.311 356.646 L
175.889 357.826 L
177.467 358.759 L
179.045 359.04 L
180.624 360.836 L
182.202 359.428 L
183.78 359.058 L
185.358 359.938 L
186.937 359.34 L
188.515 359.833 L
190.093 359.058 L
191.671 358.97 L
193.25 357.368 L
194.828 356.646 L
196.406 356.048 L
197.984 355.167 L
199.563 354.006 L
201.141 352.316 L
202.719 350.59 L
204.298 348.39 L
205.876 347.58 L
207.454 345.432 L
209.032 342.968 L
210.611 341.965 L
212.189 340.539 L
213.767 337.352 L
215.345 334.571 L
216.924 333.409 L
218.502 331.208 L
220.08 327.318 L
221.658 324.695 L
223.237 323.093 L
224.815 320.875 L
226.393 317.847 L
227.971 314.819 L
229.55 310.981 L
231.128 308.499 L
232.706 306.686 L
234.284 303.465 L
235.863 301.51 L
237.441 297.585 L
239.019 294.68 L
240.598 291.459 L
242.176 288.642 L
243.754 286.353 L
245.332 282.833 L
246.911 279.805 L
248.489 276.618 L
250.067 272.834 L
251.645 269.366 L
253.224 267.165 L
254.802 263.856 L
256.38 261.321 L
257.958 258.134 L
259.537 254.297 L
261.115 250.705 L
262.693 248.434 L
264.271 245.899 L
265.85 241.833 L
267.428 238.259 L
269.006 235.495 L
270.585 232.08 L
272.163 229.792 L
273.741 226.834 L
275.319 223.173 L
276.898 220.55 L
278.476 217.082 L
280.054 214.688 L
281.632 212.786 L
283.211 209.336 L
284.789 205.639 L
286.367 202.506 L
287.945 200.446 L
289.524 197.418 L
291.102 194.197 L
292.68 191.309 L
294.258 188.546 L
295.837 185.588 L
297.415 183.159 L
298.993 180.906 L
300.571 178.142 L
302.15 175.29 L
303.728 173.389 L
305.306 170.906 L
306.885 168.195 L
308.463 165.115 L
310.041 162.087 L
311.619 160.027 L
313.198 157.598 L
314.776 154.975 L
316.354 153.003 L
317.932 150.873 L
319.511 147.528 L
321.089 145.715 L
322.667 143.638 L
324.245 141.772 L
325.824 139.202 L
327.402 137.248 L
328.98 134.572 L
330.558 132.354 L
332.137 130.417 L
333.715 128.164 L
335.293 125.911 L
336.872 124.133 L
338.45 121.985 L
340.028 120.277 L
341.606 118.535 L
343.185 116.492 L
344.763 114.274 L
346.341 112.127 L
347.919 110.683 L
349.498 108.94 L
351.076 107.426 L
352.654 105.367 L
354.232 103.923 L
355.811 102.145 L
357.389 100.684 L
358.967 98.9941 L
360.545 97.1809 L
362.124 95.8782 L
363.702 94.329 L
365.28 92.7799 L
366.859 91.4596 L
368.437 89.8048 L
370.015 88.3789 L
371.593 87.3402 L
373.172 85.9671 L
374.75 84.7172 L
376.328 83.5202 L
377.906 82.1999 L
379.485 80.9676 L
381.063 79.8409 L
382.641 78.6263 L
384.219 77.4116 L
385.798 76.5138 L
387.376 75.1935 L
388.954 74.4189 L
390.532 73.3275 L
392.111 72.4296 L
393.689 71.4966 L
395.267 70.8629 L
396.846 70.1059 L
398.424 69.1729 L
400.002 68.0815 L
401.58 67.4301 L
403.159 66.5675 L
404.737 65.7225 L
406.315 64.9128 L
407.893 64.367 L
409.472 63.7685 L
411.05 62.8883 L
412.628 62.2897 L
414.206 61.6208 L
415.785 60.987 L
417.363 60.6526 L
418.941 59.878 L
420.519 59.2795 L
422.098 58.857 L
423.676 58.4345 L
425.254 57.8712 L
426.832 57.3078 L
428.411 57.079 L
429.989 56.4804 L
431.567 56.0227 L
433.146 55.5298 L
434.724 55.1249 L
436.302 54.72 L
437.88 54.4736 L
439.459 54.1919 L
441.037 54.0159 L
442.615 53.5406 L
444.193 53.2237 L
445.772 53.1005 L
447.35 52.7132 L
448.928 52.4315 L
450.506 52.3083 L
452.085 51.9562 L
453.663 51.6217 L
455.241 51.5513 L
456.819 51.3753 L
458.398 51.164 L
459.976 50.9 L
461.554 50.7415 L
463.133 50.6711 L
464.711 50.5127 L
466.289 50.1782 L
467.867 50.0022 L
469.446 49.9493 L
471.024 49.8261 L
472.602 49.6325 L
474.18 49.5973 L
475.759 49.4036 L
477.337 49.2628 L
478.915 49.1748 L
480.493 49.1396 L
482.072 49.0163 L
483.65 48.9811 L
485.228 48.8403 L
486.806 48.7875 L
488.385 48.6467 L
489.963 48.6114 L
491.541 48.5762 L
493.119 48.4882 L
494.698 48.4706 L
496.276 48.3474 L
497.854 48.277 L
499.433 48.2418 L
501.011 48.2065 L
502.589 48.1713 L
504.167 48.1361 L
505.746 48.1185 L
507.324 48.0657 L
508.902 47.9777 L
510.48 47.9601 L
512.059 47.9425 L
513.637 47.9073 L
515.215 47.9073 L
516.793 47.8545 L
518.372 47.8545 L
519.95 47.8193 L
521.528 47.7841 L
521.726 47.7841 LE
grestore
grestore
showpage
cleartomark
%%PageTrailer
%%Trailer
end
%%EOF
