%!PS-Adobe-3.0 EPSF-3.0
%%Title: gl2ps_renderer figure
%%Creator: GL2PS 1.4.0, (C) 1999-2017 C. Geuzaine
%%For: Octave
%%CreationDate: Fri Jun  5 17:02:40 2020
%%LanguageLevel: 3
%%DocumentData: Clean7Bit
%%Pages: 1
%%BoundingBox: 0 0 576 432
%%EndComments
%%BeginProlog
/gl2psdict 64 dict def gl2psdict begin
/tryPS3shading false def % set to false to force subdivision
/rThreshold 0.064 def % red component subdivision threshold
/gThreshold 0.034 def % green component subdivision threshold
/bThreshold 0.1 def % blue component subdivision threshold
/BD { bind def } bind def
/C  { setrgbcolor } BD
/G  { 0.082 mul exch 0.6094 mul add exch 0.3086 mul add neg 1.0 add setgray } BD
/W  { setlinewidth } BD
/LC  { setlinecap } BD
/LJ  { setlinejoin } BD
/FC { findfont exch /SH exch def SH scalefont setfont } BD
/SW { dup stringwidth pop } BD
/S  { FC moveto show } BD
/SBC{ FC moveto SW -2 div 0 rmoveto show } BD
/SBR{ FC moveto SW neg 0 rmoveto show } BD
/SCL{ FC moveto 0 SH -2 div rmoveto show } BD
/SCC{ FC moveto SW -2 div SH -2 div rmoveto show } BD
/SCR{ FC moveto SW neg SH -2 div rmoveto show } BD
/STL{ FC moveto 0 SH neg rmoveto show } BD
/STC{ FC moveto SW -2 div SH neg rmoveto show } BD
/STR{ FC moveto SW neg SH neg rmoveto show } BD
/FCT { FC translate 0 0 } BD
/SR  { gsave FCT moveto rotate show grestore } BD
/SRX  { gsave FCT moveto rotate xshow grestore } BD
/SBCR{ gsave FCT moveto rotate SW -2 div 0 rmoveto show grestore } BD
/SBRR{ gsave FCT moveto rotate SW neg 0 rmoveto show grestore } BD
/SCLR{ gsave FCT moveto rotate 0 SH -2 div rmoveto show grestore} BD
/SCCR{ gsave FCT moveto rotate SW -2 div SH -2 div rmoveto show grestore} BD
/SCRR{ gsave FCT moveto rotate SW neg SH -2 div rmoveto show grestore} BD
/STLR{ gsave FCT moveto rotate 0 SH neg rmoveto show grestore } BD
/STCR{ gsave FCT moveto rotate SW -2 div SH neg rmoveto show grestore } BD
/STRR{ gsave FCT moveto rotate SW neg SH neg rmoveto show grestore } BD
/P  { newpath 0.0 360.0 arc closepath fill } BD
/LS { newpath moveto } BD
/L  { lineto } BD
/LE { lineto stroke } BD
/T  { newpath moveto lineto lineto closepath fill } BD
/STshfill {
      /b1 exch def /g1 exch def /r1 exch def /y1 exch def /x1 exch def
      /b2 exch def /g2 exch def /r2 exch def /y2 exch def /x2 exch def
      /b3 exch def /g3 exch def /r3 exch def /y3 exch def /x3 exch def
      gsave << /ShadingType 4 /ColorSpace [/DeviceRGB]
      /DataSource [ 0 x1 y1 r1 g1 b1 0 x2 y2 r2 g2 b2 0 x3 y3 r3 g3 b3 ] >>
      shfill grestore } BD
/Tm { 3 -1 roll 8 -1 roll 13 -1 roll add add 3 div
      3 -1 roll 7 -1 roll 11 -1 roll add add 3 div
      3 -1 roll 6 -1 roll 9 -1 roll add add 3 div C T } BD
/STsplit {
      4 index 15 index add 0.5 mul
      4 index 15 index add 0.5 mul
      4 index 15 index add 0.5 mul
      4 index 15 index add 0.5 mul
      4 index 15 index add 0.5 mul
      5 copy 5 copy 25 15 roll
      9 index 30 index add 0.5 mul
      9 index 30 index add 0.5 mul
      9 index 30 index add 0.5 mul
      9 index 30 index add 0.5 mul
      9 index 30 index add 0.5 mul
      5 copy 5 copy 35 5 roll 25 5 roll 15 5 roll
      4 index 10 index add 0.5 mul
      4 index 10 index add 0.5 mul
      4 index 10 index add 0.5 mul
      4 index 10 index add 0.5 mul
      4 index 10 index add 0.5 mul
      5 copy 5 copy 40 5 roll 25 5 roll 15 5 roll 25 5 roll
      STnoshfill STnoshfill STnoshfill STnoshfill } BD
/STnoshfill {
      2 index 8 index sub abs rThreshold gt
      { STsplit }
      { 1 index 7 index sub abs gThreshold gt
        { STsplit }
        { dup 6 index sub abs bThreshold gt
          { STsplit }
          { 2 index 13 index sub abs rThreshold gt
            { STsplit }
            { 1 index 12 index sub abs gThreshold gt
              { STsplit }
              { dup 11 index sub abs bThreshold gt
                { STsplit }
                { 7 index 13 index sub abs rThreshold gt
                  { STsplit }
                  { 6 index 12 index sub abs gThreshold gt
                    { STsplit }
                    { 5 index 11 index sub abs bThreshold gt
                      { STsplit }
                      { Tm }
                      ifelse }
                    ifelse }
                  ifelse }
                ifelse }
              ifelse }
            ifelse }
          ifelse }
        ifelse }
      ifelse } BD
tryPS3shading
{ /shfill where
  { /ST { STshfill } BD }
  { /ST { STnoshfill } BD }
  ifelse }
{ /ST { STnoshfill } BD }
ifelse
end
%%EndProlog
%%BeginSetup
/DeviceRGB setcolorspace
gl2psdict begin
%%EndSetup
%%Page: 1 1
%%BeginPageSetup
%%EndPageSetup
mark
gsave
1.0 1.0 scale
1 1 1 C
newpath 0 0 moveto 576 0 lineto 576 432 lineto 0 432 lineto
closepath fill
gsave
1.0 1.0 scale
1 1 1 C
newpath 0 0 moveto 576 0 lineto 576 432 lineto 0 432 lineto
closepath fill
newpath 0 0 moveto 576 0 lineto 576 432 lineto 0 432 lineto
closepath clip
1 1 1 C
521.28 47.52 74.88 47.52 74.88 399.6 T
521.28 399.6 521.28 47.52 74.88 399.6 T
0.5 W
0.15 0.15 0.15 C
74.88 47.52 LS
74.88 51.985 LE
74.88 399.6 LS
74.88 395.135 LE
298.08 47.52 LS
298.08 51.985 LE
298.08 399.6 LS
298.08 395.135 LE
521.28 47.52 LS
521.28 51.985 LE
521.28 399.6 LS
521.28 395.135 LE
gsave
0.14902 0.14902 0.14902 C
(0) [10] 0 68.38 11.5159 24 /Helvetica SRX
grestore

gsave
0.14902 0.14902 0.14902 C
(5) [10] 0 291.58 11.5159 24 /Helvetica SRX
grestore

gsave
0.14902 0.14902 0.14902 C
(10) [13 10] 0 508.28 11.5159 24 /Helvetica SRX
grestore

74.88 47.52 LS
79.348 47.52 LE
521.28 47.52 LS
516.812 47.52 LE
74.88 399.6 LS
79.348 399.6 LE
521.28 399.6 LS
516.812 399.6 LE
gsave
0.14902 0.14902 0.14902 C
(0) [10] 0 49.8692 38.52 24 /Helvetica SRX
grestore

gsave
0.14902 0.14902 0.14902 C
(0.4) [13 6 10] 0 30.8692 390.6 24 /Helvetica SRX
grestore

2 LC
[16 0] 0 setdash
74.88 47.52 LS
521.28 47.52 LE
74.88 399.6 LS
521.28 399.6 LE
74.88 47.52 LS
74.88 399.6 LE
521.28 47.52 LS
521.28 399.6 LE
2 W
0 LC
1 LJ
[8 8 8 8] 0 setdash
0 0 0 C
74.88 47.52 LS
77.112 47.52 L
79.344 47.52 L
81.576 47.52 L
83.808 47.52 L
86.04 47.52 L
88.272 47.52 L
90.504 47.52 L
92.736 47.52 L
94.968 47.52 L
97.2 47.52 L
99.432 47.52 L
101.664 47.52 L
103.896 47.52 L
106.128 47.52 L
108.36 47.52 L
110.592 47.52 L
112.824 47.52 L
115.056 47.52 L
117.288 47.52 L
119.52 47.52 L
121.752 47.52 L
123.984 47.52 L
126.216 47.52 L
128.448 47.52 L
130.68 47.52 L
132.912 47.52 L
135.144 47.52 L
137.376 47.52 L
139.608 47.52 L
141.84 47.52 L
144.072 47.52 L
146.304 47.52 L
148.536 47.52 L
150.768 47.52 L
153 47.52 L
155.232 47.52 L
157.464 47.52 L
159.696 47.52 L
161.928 47.52 L
164.16 47.52 L
166.392 47.527 L
168.624 47.527 L
170.856 47.527 L
173.088 47.5341 L
175.32 47.5482 L
177.552 47.5552 L
179.784 47.5763 L
182.016 47.5974 L
184.248 47.6327 L
186.48 47.6749 L
188.712 47.7453 L
190.944 47.8298 L
193.176 47.9566 L
195.408 48.1044 L
197.64 48.3087 L
199.872 48.5903 L
202.104 48.9072 L
204.336 49.3367 L
206.568 49.8578 L
208.8 50.4986 L
211.032 51.3224 L
213.264 52.3224 L
215.496 53.4913 L
217.728 54.9489 L
219.96 56.66 L
222.192 58.6528 L
224.424 60.9624 L
226.656 63.6805 L
228.888 66.7647 L
231.12 70.3137 L
233.352 74.2992 L
235.584 78.7002 L
237.816 83.6575 L
240.048 89.1358 L
242.28 94.9874 L
244.512 101.416 L
246.744 108.359 L
248.976 115.676 L
251.208 123.478 L
253.44 131.625 L
255.672 140.04 L
257.904 148.567 L
260.136 157.235 L
262.368 166.262 L
264.6 175.142 L
266.832 183.902 L
269.064 192.415 L
271.296 200.633 L
273.528 208.442 L
275.76 215.948 L
277.992 222.461 L
280.224 228.517 L
282.456 233.348 L
284.688 237.784 L
286.92 241.157 L
289.152 243.748 L
291.384 245.262 L
293.616 245.98 L
295.848 245.537 L
298.08 244.136 L
300.312 241.84 L
302.544 238.636 L
304.776 234.242 L
307.008 229.538 L
309.24 224.074 L
311.472 217.786 L
313.704 211.026 L
315.936 203.942 L
318.168 196.478 L
320.4 188.584 L
322.632 180.479 L
324.864 172.403 L
327.096 164.192 L
329.328 156.024 L
331.56 148.194 L
333.792 140.497 L
336.024 132.822 L
338.256 125.618 L
340.488 118.704 L
342.72 112.007 L
344.952 105.789 L
347.184 99.987 L
349.416 94.4311 L
351.648 89.2696 L
353.88 84.6926 L
356.112 80.362 L
358.344 76.5455 L
360.576 72.9824 L
362.808 69.7433 L
365.04 66.9055 L
367.272 64.3846 L
369.504 62.0679 L
371.736 60.0681 L
373.968 58.2866 L
376.2 56.6882 L
378.432 55.3291 L
380.664 54.1532 L
382.896 53.0969 L
385.128 52.2097 L
387.36 51.4633 L
389.592 50.8155 L
391.824 50.2521 L
394.056 49.7803 L
396.288 49.3931 L
398.52 49.0691 L
400.752 48.7804 L
402.984 48.5621 L
405.216 48.365 L
407.448 48.2101 L
409.68 48.0763 L
411.912 47.9636 L
414.144 47.8791 L
416.376 47.8017 L
418.608 47.7453 L
420.84 47.696 L
423.072 47.6679 L
425.304 47.6327 L
427.536 47.6115 L
429.768 47.5904 L
432 47.5763 L
434.232 47.5622 L
436.464 47.5482 L
438.696 47.5482 L
440.928 47.5411 L
443.16 47.5341 L
445.392 47.5341 L
447.624 47.527 L
449.856 47.527 L
452.088 47.527 L
454.32 47.527 L
456.552 47.52 L
458.784 47.52 L
461.016 47.52 L
463.248 47.52 L
465.48 47.52 L
467.712 47.52 L
469.944 47.52 L
472.176 47.52 L
474.408 47.52 L
476.64 47.52 L
478.872 47.52 L
481.104 47.52 L
483.336 47.52 L
485.568 47.52 L
487.8 47.52 L
490.032 47.52 L
492.264 47.52 L
494.496 47.52 L
496.728 47.52 L
498.96 47.52 L
501.192 47.52 L
503.424 47.52 L
505.656 47.52 L
507.888 47.52 L
510.12 47.52 L
512.352 47.52 L
514.584 47.52 L
516.816 47.52 L
519.048 47.52 L
521.28 47.52 LE
[] 0 setdash
0 0 1 C
74.88 47.52 LS
77.112 47.52 L
79.344 47.52 L
81.576 47.52 L
83.808 47.52 L
86.04 47.52 L
88.272 47.52 L
90.504 47.52 L
92.736 47.52 L
94.968 47.52 L
97.2 47.52 L
99.432 47.52 L
101.664 47.52 L
103.896 47.52 L
106.128 47.52 L
108.36 47.52 L
110.592 47.52 L
112.824 47.52 L
115.056 47.52 L
117.288 47.52 L
119.52 47.52 L
121.752 47.52 L
123.984 47.52 L
126.216 47.52 L
128.448 47.52 L
130.68 47.52 L
132.912 47.52 L
135.144 47.52 L
137.376 47.52 L
139.608 47.52 L
141.84 47.52 L
144.072 47.52 L
146.304 47.52 L
148.536 47.52 L
150.768 47.52 L
153 47.52 L
155.232 47.52 L
157.464 47.52 L
159.696 47.52 L
161.928 47.52 L
164.16 47.52 L
166.392 47.52 L
168.624 47.52 L
170.856 47.52 L
173.088 47.52 L
175.32 47.52 L
177.552 47.527 L
179.784 47.52 L
182.016 47.5341 L
184.248 47.527 L
186.48 47.5341 L
188.712 47.5341 L
190.944 47.5482 L
193.176 47.5693 L
195.408 47.5763 L
197.64 47.6186 L
199.872 47.6397 L
202.104 47.689 L
204.336 47.7453 L
206.568 47.865 L
208.8 47.9777 L
211.032 48.1819 L
213.264 48.4565 L
215.496 48.7804 L
217.728 49.0973 L
219.96 49.7874 L
222.192 50.3718 L
224.424 51.1253 L
226.656 52.3435 L
228.888 53.787 L
231.12 55.4277 L
233.352 57.7092 L
235.584 60.0963 L
237.816 63.4551 L
240.048 66.8492 L
242.28 70.9122 L
244.512 75.8484 L
246.744 81.4042 L
248.976 88.0444 L
251.208 95.8042 L
253.44 103.564 L
255.672 112.859 L
257.904 122.647 L
260.136 133.223 L
262.368 145.321 L
264.6 156.665 L
266.832 169.262 L
269.064 181.867 L
271.296 195.034 L
273.528 209.097 L
275.76 221.919 L
277.992 235.15 L
280.224 247.206 L
282.456 257.972 L
284.688 267.626 L
286.92 276.407 L
289.152 284.463 L
291.384 290.723 L
293.616 294.99 L
295.848 297.039 L
298.08 295.307 L
300.312 294.596 L
302.544 290.582 L
304.776 285.378 L
307.008 277.449 L
309.24 268.267 L
311.472 258.205 L
313.704 246.776 L
315.936 234.721 L
318.168 223.44 L
320.4 210.315 L
322.632 197.126 L
324.864 182.522 L
327.096 168.945 L
329.328 156.841 L
331.56 144.018 L
333.792 132.695 L
336.024 122.337 L
338.256 112.613 L
340.488 103.691 L
342.72 95.4451 L
344.952 87.805 L
347.184 81.6718 L
349.416 75.8202 L
351.648 71.1164 L
353.88 66.7717 L
356.112 63.4481 L
358.344 60.1456 L
360.576 57.6951 L
362.808 55.7587 L
365.04 53.8504 L
367.272 52.4562 L
369.504 51.4422 L
371.736 50.5338 L
373.968 49.7451 L
376.2 49.1536 L
378.432 48.8297 L
380.664 48.6114 L
382.896 48.2171 L
385.128 47.9847 L
387.36 47.865 L
389.592 47.7735 L
391.824 47.696 L
394.056 47.6749 L
396.288 47.6186 L
398.52 47.5834 L
400.752 47.5693 L
402.984 47.5411 L
405.216 47.5411 L
407.448 47.5341 L
409.68 47.527 L
411.912 47.527 L
414.144 47.527 L
416.376 47.52 L
418.608 47.52 L
420.84 47.52 L
423.072 47.52 L
425.304 47.52 L
427.536 47.52 L
429.768 47.52 L
432 47.52 L
434.232 47.52 L
436.464 47.52 L
438.696 47.52 L
440.928 47.52 L
443.16 47.52 L
445.392 47.52 L
447.624 47.52 L
449.856 47.52 L
452.088 47.52 L
454.32 47.52 L
456.552 47.52 L
458.784 47.52 L
461.016 47.52 L
463.248 47.52 L
465.48 47.52 L
467.712 47.52 L
469.944 47.52 L
472.176 47.52 L
474.408 47.52 L
476.64 47.52 L
478.872 47.52 L
481.104 47.52 L
483.336 47.52 L
485.568 47.52 L
487.8 47.52 L
490.032 47.52 L
492.264 47.52 L
494.496 47.52 L
496.728 47.52 L
498.96 47.52 L
501.192 47.52 L
503.424 47.52 L
505.656 47.52 L
507.888 47.52 L
510.12 47.52 L
512.352 47.52 L
514.584 47.52 L
516.816 47.52 L
519.048 47.52 L
521.28 47.52 LE
grestore
grestore
showpage
cleartomark
%%PageTrailer
%%Trailer
end
%%EOF
