%!PS-Adobe-3.0 EPSF-3.0
%%Title: gl2ps_renderer figure
%%Creator: GL2PS 1.4.0, (C) 1999-2017 C. Geuzaine
%%For: Octave
%%CreationDate: Sat Feb  1 20:25:25 2020
%%LanguageLevel: 3
%%DocumentData: Clean7Bit
%%Pages: 1
%%BoundingBox: 0 0 576 432
%%EndComments
%%BeginProlog
/gl2psdict 64 dict def gl2psdict begin
/tryPS3shading false def % set to false to force subdivision
/rThreshold 0.064 def % red component subdivision threshold
/gThreshold 0.034 def % green component subdivision threshold
/bThreshold 0.1 def % blue component subdivision threshold
/BD { bind def } bind def
/C  { setrgbcolor } BD
/G  { 0.082 mul exch 0.6094 mul add exch 0.3086 mul add neg 1.0 add setgray } BD
/W  { setlinewidth } BD
/LC  { setlinecap } BD
/LJ  { setlinejoin } BD
/FC { findfont exch /SH exch def SH scalefont setfont } BD
/SW { dup stringwidth pop } BD
/S  { FC moveto show } BD
/SBC{ FC moveto SW -2 div 0 rmoveto show } BD
/SBR{ FC moveto SW neg 0 rmoveto show } BD
/SCL{ FC moveto 0 SH -2 div rmoveto show } BD
/SCC{ FC moveto SW -2 div SH -2 div rmoveto show } BD
/SCR{ FC moveto SW neg SH -2 div rmoveto show } BD
/STL{ FC moveto 0 SH neg rmoveto show } BD
/STC{ FC moveto SW -2 div SH neg rmoveto show } BD
/STR{ FC moveto SW neg SH neg rmoveto show } BD
/FCT { FC translate 0 0 } BD
/SR  { gsave FCT moveto rotate show grestore } BD
/SRX  { gsave FCT moveto rotate xshow grestore } BD
/SBCR{ gsave FCT moveto rotate SW -2 div 0 rmoveto show grestore } BD
/SBRR{ gsave FCT moveto rotate SW neg 0 rmoveto show grestore } BD
/SCLR{ gsave FCT moveto rotate 0 SH -2 div rmoveto show grestore} BD
/SCCR{ gsave FCT moveto rotate SW -2 div SH -2 div rmoveto show grestore} BD
/SCRR{ gsave FCT moveto rotate SW neg SH -2 div rmoveto show grestore} BD
/STLR{ gsave FCT moveto rotate 0 SH neg rmoveto show grestore } BD
/STCR{ gsave FCT moveto rotate SW -2 div SH neg rmoveto show grestore } BD
/STRR{ gsave FCT moveto rotate SW neg SH neg rmoveto show grestore } BD
/P  { newpath 0.0 360.0 arc closepath fill } BD
/LS { newpath moveto } BD
/L  { lineto } BD
/LE { lineto stroke } BD
/T  { newpath moveto lineto lineto closepath fill } BD
/STshfill {
      /b1 exch def /g1 exch def /r1 exch def /y1 exch def /x1 exch def
      /b2 exch def /g2 exch def /r2 exch def /y2 exch def /x2 exch def
      /b3 exch def /g3 exch def /r3 exch def /y3 exch def /x3 exch def
      gsave << /ShadingType 4 /ColorSpace [/DeviceRGB]
      /DataSource [ 0 x1 y1 r1 g1 b1 0 x2 y2 r2 g2 b2 0 x3 y3 r3 g3 b3 ] >>
      shfill grestore } BD
/Tm { 3 -1 roll 8 -1 roll 13 -1 roll add add 3 div
      3 -1 roll 7 -1 roll 11 -1 roll add add 3 div
      3 -1 roll 6 -1 roll 9 -1 roll add add 3 div C T } BD
/STsplit {
      4 index 15 index add 0.5 mul
      4 index 15 index add 0.5 mul
      4 index 15 index add 0.5 mul
      4 index 15 index add 0.5 mul
      4 index 15 index add 0.5 mul
      5 copy 5 copy 25 15 roll
      9 index 30 index add 0.5 mul
      9 index 30 index add 0.5 mul
      9 index 30 index add 0.5 mul
      9 index 30 index add 0.5 mul
      9 index 30 index add 0.5 mul
      5 copy 5 copy 35 5 roll 25 5 roll 15 5 roll
      4 index 10 index add 0.5 mul
      4 index 10 index add 0.5 mul
      4 index 10 index add 0.5 mul
      4 index 10 index add 0.5 mul
      4 index 10 index add 0.5 mul
      5 copy 5 copy 40 5 roll 25 5 roll 15 5 roll 25 5 roll
      STnoshfill STnoshfill STnoshfill STnoshfill } BD
/STnoshfill {
      2 index 8 index sub abs rThreshold gt
      { STsplit }
      { 1 index 7 index sub abs gThreshold gt
        { STsplit }
        { dup 6 index sub abs bThreshold gt
          { STsplit }
          { 2 index 13 index sub abs rThreshold gt
            { STsplit }
            { 1 index 12 index sub abs gThreshold gt
              { STsplit }
              { dup 11 index sub abs bThreshold gt
                { STsplit }
                { 7 index 13 index sub abs rThreshold gt
                  { STsplit }
                  { 6 index 12 index sub abs gThreshold gt
                    { STsplit }
                    { 5 index 11 index sub abs bThreshold gt
                      { STsplit }
                      { Tm }
                      ifelse }
                    ifelse }
                  ifelse }
                ifelse }
              ifelse }
            ifelse }
          ifelse }
        ifelse }
      ifelse } BD
tryPS3shading
{ /shfill where
  { /ST { STshfill } BD }
  { /ST { STnoshfill } BD }
  ifelse }
{ /ST { STnoshfill } BD }
ifelse
end
%%EndProlog
%%BeginSetup
/DeviceRGB setcolorspace
gl2psdict begin
%%EndSetup
%%Page: 1 1
%%BeginPageSetup
%%EndPageSetup
mark
gsave
1.0 1.0 scale
1 1 1 C
newpath 0 0 moveto 576 0 lineto 576 432 lineto 0 432 lineto
closepath fill
gsave
1.0 1.0 scale
1 1 1 C
newpath 0 0 moveto 576 0 lineto 576 432 lineto 0 432 lineto
closepath fill
newpath 0 0 moveto 576 0 lineto 576 432 lineto 0 432 lineto
closepath clip
1 1 1 C
521.28 47.52 74.88 47.52 74.88 399.6 T
521.28 399.6 521.28 47.52 74.88 399.6 T
0.5 W
0.15 0.15 0.15 C
74.88 47.52 LS
74.88 51.985 LE
74.88 399.6 LS
74.88 395.135 LE
186.48 47.52 LS
186.48 51.985 LE
186.48 399.6 LS
186.48 395.135 LE
298.08 47.52 LS
298.08 51.985 LE
298.08 399.6 LS
298.08 395.135 LE
409.68 47.52 LS
409.68 51.985 LE
409.68 399.6 LS
409.68 395.135 LE
521.28 47.52 LS
521.28 51.985 LE
521.28 399.6 LS
521.28 395.135 LE
gsave
0.14902 0.14902 0.14902 C
(0) [10] 0 71.88 32.0183 10 /Helvetica SRX
grestore

gsave
0.14902 0.14902 0.14902 C
(1) [10] 0 183.48 32.0183 10 /Helvetica SRX
grestore

gsave
0.14902 0.14902 0.14902 C
(2) [10] 0 295.08 32.0183 10 /Helvetica SRX
grestore

gsave
0.14902 0.14902 0.14902 C
(3) [10] 0 406.68 32.0183 10 /Helvetica SRX
grestore

gsave
0.14902 0.14902 0.14902 C
(4) [10] 0 518.28 32.0183 10 /Helvetica SRX
grestore

74.88 47.52 LS
79.348 47.52 LE
521.28 47.52 LS
516.812 47.52 LE
74.88 164.88 LS
79.348 164.88 LE
521.28 164.88 LS
516.812 164.88 LE
74.88 282.24 LS
79.348 282.24 LE
521.28 282.24 LS
516.812 282.24 LE
74.88 399.6 LS
79.348 399.6 LE
521.28 399.6 LS
516.812 399.6 LE
gsave
0.14902 0.14902 0.14902 C
(0) [10] 0 63.8755 43.52 10 /Helvetica SRX
grestore

gsave
0.14902 0.14902 0.14902 C
(0.005) [6 3 6 6 10] 0 42.8755 160.88 10 /Helvetica SRX
grestore

gsave
0.14902 0.14902 0.14902 C
(0.01) [6 3 6 10] 0 48.8755 278.24 10 /Helvetica SRX
grestore

gsave
0.14902 0.14902 0.14902 C
(0.015) [6 3 6 6 10] 0 42.8755 395.6 10 /Helvetica SRX
grestore

2 LC
[16 0] 0 setdash
74.88 47.52 LS
521.28 47.52 LE
74.88 399.6 LS
521.28 399.6 LE
74.88 47.52 LS
74.88 399.6 LE
521.28 47.52 LS
521.28 399.6 LE
2 W
0 LC
1 LJ
[8 8 8 8] 0 setdash
0 0 0 C
74.88 47.52 LS
77.112 47.52 L
79.344 47.5435 L
81.576 47.5904 L
83.808 47.6608 L
86.04 47.7547 L
88.272 47.9425 L
90.504 48.1772 L
92.736 48.5058 L
94.968 48.9048 L
97.2 49.3978 L
99.432 49.9846 L
101.664 50.6653 L
103.896 51.5572 L
106.128 52.4726 L
108.36 53.6227 L
110.592 54.8902 L
112.824 56.2985 L
115.056 57.8242 L
117.288 59.5142 L
119.52 61.3215 L
121.752 63.4575 L
123.984 65.6638 L
126.216 68.1519 L
128.448 70.6164 L
130.68 73.4331 L
132.912 76.4844 L
135.144 79.6297 L
137.376 82.8688 L
139.608 86.2957 L
141.84 89.887 L
144.072 93.6659 L
146.304 97.7735 L
148.536 101.881 L
150.768 106.247 L
153 110.425 L
155.232 115.19 L
157.464 119.72 L
159.696 124.813 L
161.928 129.719 L
164.16 134.742 L
166.392 139.812 L
168.624 145.14 L
170.856 150.75 L
173.088 156.195 L
175.32 161.477 L
177.552 167.274 L
179.784 172.954 L
182.016 178.423 L
184.248 184.01 L
186.48 189.854 L
188.712 195.652 L
190.944 201.309 L
193.176 207.106 L
195.408 212.763 L
197.64 217.622 L
199.872 223.419 L
202.104 229.029 L
204.336 234.428 L
206.568 239.756 L
208.8 245.013 L
211.032 249.755 L
213.264 254.613 L
215.496 259.942 L
217.728 264.19 L
219.96 268.579 L
222.192 273.274 L
224.424 277.452 L
226.656 281.677 L
228.888 285.667 L
231.12 289.516 L
233.352 292.967 L
235.584 295.783 L
237.816 299.069 L
240.048 302.027 L
242.28 304.609 L
244.512 306.933 L
246.744 309.397 L
248.976 311.134 L
251.208 313.059 L
253.44 314.936 L
255.672 316.392 L
257.904 317.495 L
260.136 318.316 L
262.368 318.786 L
264.6 319.208 L
266.832 319.443 L
269.064 319.514 L
271.296 319.443 L
273.528 319.208 L
275.76 318.41 L
277.992 317.636 L
280.224 316.486 L
282.456 315.054 L
284.688 313.951 L
286.92 312.049 L
289.152 310.406 L
291.384 308.669 L
293.616 306.604 L
295.848 303.999 L
298.08 301.98 L
300.312 299.281 L
302.544 296.276 L
304.776 293.084 L
307.008 289.986 L
309.24 287.24 L
311.472 284.212 L
313.704 280.644 L
315.936 277.076 L
318.168 273.461 L
320.4 269.8 L
322.632 265.997 L
324.864 262.124 L
327.096 258.275 L
329.328 254.074 L
331.56 250.388 L
333.792 246.187 L
336.024 242.032 L
338.256 237.807 L
340.488 233.958 L
342.72 229.78 L
344.952 225.133 L
347.184 221.095 L
349.416 216.941 L
351.648 212.81 L
353.88 208.561 L
356.112 204.524 L
358.344 200.323 L
360.576 196.356 L
362.808 192.272 L
365.04 188 L
367.272 183.986 L
369.504 179.879 L
371.736 175.935 L
373.968 172.274 L
376.2 168.307 L
378.432 164.434 L
380.664 160.632 L
382.896 157.181 L
385.128 153.355 L
387.36 149.717 L
389.592 146.29 L
391.824 142.863 L
394.056 139.272 L
396.288 136.056 L
398.52 132.935 L
400.752 129.977 L
402.984 126.808 L
405.216 123.827 L
407.448 120.823 L
409.68 117.866 L
411.912 115.096 L
414.144 112.444 L
416.376 110.026 L
418.608 107.186 L
420.84 104.721 L
423.072 102.468 L
425.304 100.097 L
427.536 97.7735 L
429.768 95.6845 L
432 93.7129 L
434.232 91.5535 L
436.464 89.5818 L
438.696 87.4693 L
440.928 85.6151 L
443.16 84.019 L
445.392 82.2116 L
447.624 80.5451 L
449.856 79.1368 L
452.088 77.5876 L
454.32 76.0854 L
456.552 74.6536 L
458.784 73.3157 L
461.016 72.0013 L
463.248 70.6868 L
465.48 69.4194 L
467.712 68.4101 L
469.944 67.3069 L
472.176 66.3211 L
474.408 65.2179 L
476.64 64.2555 L
478.872 63.3167 L
481.104 62.636 L
483.336 61.8849 L
485.568 61.0399 L
487.8 60.2183 L
490.032 59.5142 L
492.264 58.857 L
494.496 58.2702 L
496.728 57.5425 L
498.96 56.9792 L
501.192 56.3455 L
503.424 55.876 L
505.656 55.4066 L
507.888 54.8902 L
510.12 54.3973 L
512.352 54.0217 L
514.584 53.6462 L
516.816 53.2472 L
519.048 52.8716 L
521.28 52.543 LE
[] 0 setdash
0 0 1 C
74.88 47.52 LS
77.112 47.52 L
79.344 47.5435 L
81.576 47.5669 L
83.808 47.6139 L
86.04 47.6608 L
88.272 47.8017 L
90.504 47.9425 L
92.736 48.0833 L
94.968 48.4354 L
97.2 48.764 L
99.432 49.21 L
101.664 49.7264 L
103.896 50.2662 L
106.128 50.9234 L
108.36 51.7919 L
110.592 52.6369 L
112.824 53.6462 L
115.056 55.0076 L
117.288 56.2985 L
119.52 57.6129 L
121.752 59.0447 L
123.984 61.0399 L
126.216 63.1758 L
128.448 65.2414 L
130.68 67.8702 L
132.912 69.9827 L
135.144 72.5881 L
137.376 75.3108 L
139.608 78.55 L
141.84 82.0238 L
144.072 85.8263 L
146.304 89.5349 L
148.536 93.2435 L
150.768 97.4919 L
153 101.646 L
155.232 107.045 L
157.464 111.669 L
159.696 116.434 L
161.928 121.598 L
164.16 126.034 L
166.392 132.583 L
168.624 138.075 L
170.856 143.497 L
173.088 149.177 L
175.32 155.045 L
177.552 161.711 L
179.784 168.471 L
182.016 174.715 L
184.248 181.029 L
186.48 186.991 L
188.712 193.046 L
190.944 198.562 L
193.176 205.604 L
195.408 212.763 L
197.64 220.485 L
199.872 226.4 L
202.104 231.916 L
204.336 237.08 L
206.568 243.558 L
208.8 249.191 L
211.032 254.966 L
213.264 261.913 L
215.496 266.091 L
217.728 271.959 L
219.96 276.677 L
222.192 280.01 L
224.424 286.441 L
226.656 290.901 L
228.888 294.61 L
231.12 298.459 L
233.352 302.309 L
235.584 305.642 L
237.816 309.937 L
240.048 311.228 L
242.28 314.091 L
244.512 315.922 L
246.744 317.284 L
248.976 320.382 L
251.208 322.448 L
253.44 324.067 L
255.672 325.288 L
257.904 326.555 L
260.136 326.884 L
262.368 325.898 L
264.6 326.32 L
266.832 326.626 L
269.064 325.781 L
271.296 325.405 L
273.528 324.419 L
275.76 323.081 L
277.992 321.908 L
280.224 320.734 L
282.456 319.607 L
284.688 318.457 L
286.92 314.796 L
289.152 312.355 L
291.384 310.148 L
293.616 307.989 L
295.848 304.82 L
298.08 303.388 L
300.312 300.102 L
302.544 296.722 L
304.776 293.553 L
307.008 289.047 L
309.24 286.418 L
311.472 283.93 L
313.704 280.48 L
315.936 276.419 L
318.168 272.875 L
320.4 268.744 L
322.632 264.026 L
324.864 261.092 L
327.096 258.064 L
329.328 254.566 L
331.56 249.332 L
333.792 244.873 L
336.024 239.685 L
338.256 235.625 L
340.488 233.841 L
342.72 229.451 L
344.952 223.889 L
347.184 221.002 L
349.416 216.424 L
351.648 211.19 L
353.88 208.514 L
356.112 204.548 L
358.344 200.393 L
360.576 195.91 L
362.808 191.286 L
365.04 187.46 L
367.272 183.259 L
369.504 179.221 L
371.736 176.968 L
373.968 172.485 L
376.2 168.19 L
378.432 164.34 L
380.664 160.89 L
382.896 157.392 L
385.128 153.801 L
387.36 150.116 L
389.592 146.783 L
391.824 143.943 L
394.056 140.704 L
396.288 136.62 L
398.52 133.709 L
400.752 130.329 L
402.984 127.09 L
405.216 124.273 L
407.448 121.504 L
409.68 117.913 L
411.912 115.354 L
414.144 113.312 L
416.376 110.002 L
418.608 107.585 L
420.84 105.214 L
423.072 102.468 L
425.304 100.121 L
427.536 97.5858 L
429.768 96.0835 L
432 93.9476 L
434.232 91.1779 L
436.464 89.5818 L
438.696 87.7275 L
440.928 85.8263 L
443.16 83.4556 L
445.392 81.9299 L
447.624 80.3104 L
449.856 78.2683 L
452.088 77.1651 L
454.32 75.4751 L
456.552 74.1372 L
458.784 72.5411 L
461.016 71.5084 L
463.248 70.0531 L
465.48 69.2081 L
467.712 67.5885 L
469.944 66.4619 L
472.176 65.6638 L
474.408 64.5137 L
476.64 63.2697 L
478.872 62.3778 L
481.104 61.3685 L
483.336 60.5235 L
485.568 60.054 L
487.8 59.1152 L
490.032 58.4579 L
492.264 57.8007 L
494.496 57.0027 L
496.728 56.5098 L
498.96 56.0873 L
501.192 55.7587 L
503.424 55.0076 L
505.656 54.3269 L
507.888 53.9044 L
510.12 53.6227 L
512.352 53.0359 L
514.584 52.8247 L
516.816 52.3083 L
519.048 51.9797 L
521.28 51.6511 LE
grestore
grestore
showpage
cleartomark
%%PageTrailer
%%Trailer
end
%%EOF
