%!PS-Adobe-3.0 EPSF-3.0
%%Title: gl2ps_renderer figure
%%Creator: GL2PS 1.4.0, (C) 1999-2017 C. Geuzaine
%%For: Octave
%%CreationDate: Fri Jun  5 17:02:35 2020
%%LanguageLevel: 3
%%DocumentData: Clean7Bit
%%Pages: 1
%%BoundingBox: 0 0 576 432
%%EndComments
%%BeginProlog
/gl2psdict 64 dict def gl2psdict begin
/tryPS3shading false def % set to false to force subdivision
/rThreshold 0.064 def % red component subdivision threshold
/gThreshold 0.034 def % green component subdivision threshold
/bThreshold 0.1 def % blue component subdivision threshold
/BD { bind def } bind def
/C  { setrgbcolor } BD
/G  { 0.082 mul exch 0.6094 mul add exch 0.3086 mul add neg 1.0 add setgray } BD
/W  { setlinewidth } BD
/LC  { setlinecap } BD
/LJ  { setlinejoin } BD
/FC { findfont exch /SH exch def SH scalefont setfont } BD
/SW { dup stringwidth pop } BD
/S  { FC moveto show } BD
/SBC{ FC moveto SW -2 div 0 rmoveto show } BD
/SBR{ FC moveto SW neg 0 rmoveto show } BD
/SCL{ FC moveto 0 SH -2 div rmoveto show } BD
/SCC{ FC moveto SW -2 div SH -2 div rmoveto show } BD
/SCR{ FC moveto SW neg SH -2 div rmoveto show } BD
/STL{ FC moveto 0 SH neg rmoveto show } BD
/STC{ FC moveto SW -2 div SH neg rmoveto show } BD
/STR{ FC moveto SW neg SH neg rmoveto show } BD
/FCT { FC translate 0 0 } BD
/SR  { gsave FCT moveto rotate show grestore } BD
/SRX  { gsave FCT moveto rotate xshow grestore } BD
/SBCR{ gsave FCT moveto rotate SW -2 div 0 rmoveto show grestore } BD
/SBRR{ gsave FCT moveto rotate SW neg 0 rmoveto show grestore } BD
/SCLR{ gsave FCT moveto rotate 0 SH -2 div rmoveto show grestore} BD
/SCCR{ gsave FCT moveto rotate SW -2 div SH -2 div rmoveto show grestore} BD
/SCRR{ gsave FCT moveto rotate SW neg SH -2 div rmoveto show grestore} BD
/STLR{ gsave FCT moveto rotate 0 SH neg rmoveto show grestore } BD
/STCR{ gsave FCT moveto rotate SW -2 div SH neg rmoveto show grestore } BD
/STRR{ gsave FCT moveto rotate SW neg SH neg rmoveto show grestore } BD
/P  { newpath 0.0 360.0 arc closepath fill } BD
/LS { newpath moveto } BD
/L  { lineto } BD
/LE { lineto stroke } BD
/T  { newpath moveto lineto lineto closepath fill } BD
/STshfill {
      /b1 exch def /g1 exch def /r1 exch def /y1 exch def /x1 exch def
      /b2 exch def /g2 exch def /r2 exch def /y2 exch def /x2 exch def
      /b3 exch def /g3 exch def /r3 exch def /y3 exch def /x3 exch def
      gsave << /ShadingType 4 /ColorSpace [/DeviceRGB]
      /DataSource [ 0 x1 y1 r1 g1 b1 0 x2 y2 r2 g2 b2 0 x3 y3 r3 g3 b3 ] >>
      shfill grestore } BD
/Tm { 3 -1 roll 8 -1 roll 13 -1 roll add add 3 div
      3 -1 roll 7 -1 roll 11 -1 roll add add 3 div
      3 -1 roll 6 -1 roll 9 -1 roll add add 3 div C T } BD
/STsplit {
      4 index 15 index add 0.5 mul
      4 index 15 index add 0.5 mul
      4 index 15 index add 0.5 mul
      4 index 15 index add 0.5 mul
      4 index 15 index add 0.5 mul
      5 copy 5 copy 25 15 roll
      9 index 30 index add 0.5 mul
      9 index 30 index add 0.5 mul
      9 index 30 index add 0.5 mul
      9 index 30 index add 0.5 mul
      9 index 30 index add 0.5 mul
      5 copy 5 copy 35 5 roll 25 5 roll 15 5 roll
      4 index 10 index add 0.5 mul
      4 index 10 index add 0.5 mul
      4 index 10 index add 0.5 mul
      4 index 10 index add 0.5 mul
      4 index 10 index add 0.5 mul
      5 copy 5 copy 40 5 roll 25 5 roll 15 5 roll 25 5 roll
      STnoshfill STnoshfill STnoshfill STnoshfill } BD
/STnoshfill {
      2 index 8 index sub abs rThreshold gt
      { STsplit }
      { 1 index 7 index sub abs gThreshold gt
        { STsplit }
        { dup 6 index sub abs bThreshold gt
          { STsplit }
          { 2 index 13 index sub abs rThreshold gt
            { STsplit }
            { 1 index 12 index sub abs gThreshold gt
              { STsplit }
              { dup 11 index sub abs bThreshold gt
                { STsplit }
                { 7 index 13 index sub abs rThreshold gt
                  { STsplit }
                  { 6 index 12 index sub abs gThreshold gt
                    { STsplit }
                    { 5 index 11 index sub abs bThreshold gt
                      { STsplit }
                      { Tm }
                      ifelse }
                    ifelse }
                  ifelse }
                ifelse }
              ifelse }
            ifelse }
          ifelse }
        ifelse }
      ifelse } BD
tryPS3shading
{ /shfill where
  { /ST { STshfill } BD }
  { /ST { STnoshfill } BD }
  ifelse }
{ /ST { STnoshfill } BD }
ifelse
end
%%EndProlog
%%BeginSetup
/DeviceRGB setcolorspace
gl2psdict begin
%%EndSetup
%%Page: 1 1
%%BeginPageSetup
%%EndPageSetup
mark
gsave
1.0 1.0 scale
1 1 1 C
newpath 0 0 moveto 576 0 lineto 576 432 lineto 0 432 lineto
closepath fill
gsave
1.0 1.0 scale
1 1 1 C
newpath 0 0 moveto 576 0 lineto 576 432 lineto 0 432 lineto
closepath fill
newpath 0 0 moveto 576 0 lineto 576 432 lineto 0 432 lineto
closepath clip
1 1 1 C
521.28 47.52 74.88 47.52 74.88 399.6 T
521.28 399.6 521.28 47.52 74.88 399.6 T
0.5 W
0.15 0.15 0.15 C
74.88 47.52 LS
74.88 51.985 LE
74.88 399.6 LS
74.88 395.135 LE
186.48 47.52 LS
186.48 51.985 LE
186.48 399.6 LS
186.48 395.135 LE
298.08 47.52 LS
298.08 51.985 LE
298.08 399.6 LS
298.08 395.135 LE
409.68 47.52 LS
409.68 51.985 LE
409.68 399.6 LS
409.68 395.135 LE
521.28 47.52 LS
521.28 51.985 LE
521.28 399.6 LS
521.28 395.135 LE
gsave
0.14902 0.14902 0.14902 C
(0) [10] 0 68.38 11.5159 24 /Helvetica SRX
grestore

gsave
0.14902 0.14902 0.14902 C
(1) [10] 0 179.98 11.5159 24 /Helvetica SRX
grestore

gsave
0.14902 0.14902 0.14902 C
(2) [10] 0 291.58 11.5159 24 /Helvetica SRX
grestore

gsave
0.14902 0.14902 0.14902 C
(3) [10] 0 403.18 11.5159 24 /Helvetica SRX
grestore

gsave
0.14902 0.14902 0.14902 C
(4) [10] 0 514.78 11.5159 24 /Helvetica SRX
grestore

74.88 47.52 LS
79.348 47.52 LE
521.28 47.52 LS
516.812 47.52 LE
74.88 399.6 LS
79.348 399.6 LE
521.28 399.6 LS
516.812 399.6 LE
gsave
0.14902 0.14902 0.14902 C
(0) [10] 0 49.8692 38.52 24 /Helvetica SRX
grestore

gsave
0.14902 0.14902 0.14902 C
(0.9) [13 6 10] 0 30.8692 390.6 24 /Helvetica SRX
grestore

2 LC
[16 0] 0 setdash
74.88 47.52 LS
521.28 47.52 LE
74.88 399.6 LS
521.28 399.6 LE
74.88 47.52 LS
74.88 399.6 LE
521.28 47.52 LS
521.28 399.6 LE
2 W
0 LC
1 LJ
[8 8 8 8] 0 setdash
0 0 0 C
74.88 47.52 LS
77.112 47.52 L
79.344 47.5396 L
81.576 47.5787 L
83.808 47.6374 L
86.04 47.7156 L
88.272 47.8721 L
90.504 48.0677 L
92.736 48.3415 L
94.968 48.674 L
97.2 49.0848 L
99.432 49.5738 L
101.664 50.141 L
103.896 50.8843 L
106.128 51.6472 L
108.36 52.6056 L
110.592 53.6618 L
112.824 54.8354 L
115.056 56.1068 L
117.288 57.5152 L
119.52 59.0213 L
121.752 60.8012 L
123.984 62.6399 L
126.216 64.7132 L
128.448 66.767 L
130.68 69.1142 L
132.912 71.657 L
135.144 74.2781 L
137.376 76.9774 L
139.608 79.8331 L
141.84 82.8258 L
144.072 85.9749 L
146.304 89.3979 L
148.536 92.821 L
150.768 96.4591 L
153 99.9408 L
155.232 103.911 L
157.464 107.687 L
159.696 111.931 L
161.928 116.019 L
164.16 120.205 L
166.392 124.43 L
168.624 128.87 L
170.856 133.545 L
173.088 138.083 L
175.32 142.484 L
177.552 147.315 L
179.784 152.049 L
182.016 156.606 L
184.248 161.261 L
186.48 166.132 L
188.712 170.963 L
190.944 175.677 L
193.176 180.508 L
195.408 185.222 L
197.64 189.271 L
199.872 194.103 L
202.104 198.777 L
204.336 203.276 L
206.568 207.716 L
208.8 212.098 L
211.032 216.049 L
213.264 220.098 L
215.496 224.538 L
217.728 228.078 L
219.96 231.736 L
222.192 235.648 L
224.424 239.13 L
226.656 242.651 L
228.888 245.976 L
231.12 249.184 L
233.352 252.059 L
235.584 254.406 L
237.816 257.145 L
240.048 259.609 L
242.28 261.761 L
244.512 263.697 L
246.744 265.751 L
248.976 267.198 L
251.208 268.802 L
253.44 270.367 L
255.672 271.58 L
257.904 272.499 L
260.136 273.184 L
262.368 273.575 L
264.6 273.927 L
266.832 274.123 L
269.064 274.181 L
271.296 274.123 L
273.528 273.927 L
275.76 273.262 L
277.992 272.616 L
280.224 271.658 L
282.456 270.465 L
284.688 269.546 L
286.92 267.961 L
289.152 266.592 L
291.384 265.145 L
293.616 263.423 L
295.848 261.252 L
298.08 259.57 L
300.312 257.321 L
302.544 254.817 L
304.776 252.157 L
307.008 249.575 L
309.24 247.286 L
311.472 244.763 L
313.704 241.79 L
315.936 238.817 L
318.168 235.805 L
320.4 232.753 L
322.632 229.584 L
324.864 226.357 L
327.096 223.149 L
329.328 219.648 L
331.56 216.577 L
333.792 213.076 L
336.024 209.614 L
338.256 206.093 L
340.488 202.885 L
342.72 199.403 L
344.952 195.531 L
347.184 192.166 L
349.416 188.704 L
351.648 185.262 L
353.88 181.721 L
356.112 178.357 L
358.344 174.856 L
360.576 171.55 L
362.808 168.147 L
365.04 164.587 L
367.272 161.242 L
369.504 157.819 L
371.736 154.533 L
373.968 151.481 L
376.2 148.176 L
378.432 144.948 L
380.664 141.78 L
382.896 138.904 L
385.128 135.716 L
387.36 132.684 L
389.592 129.828 L
391.824 126.973 L
394.056 123.98 L
396.288 121.3 L
398.52 118.699 L
400.752 116.234 L
402.984 113.594 L
405.216 111.11 L
407.448 108.606 L
409.68 106.141 L
411.912 103.833 L
414.144 101.623 L
416.376 99.6083 L
418.608 97.2415 L
420.84 95.1877 L
423.072 93.31 L
425.304 91.3344 L
427.536 89.3979 L
429.768 87.6571 L
432 86.0141 L
434.232 84.2146 L
436.464 82.5715 L
438.696 80.8111 L
440.928 79.2659 L
443.16 77.9358 L
445.392 76.4297 L
447.624 75.0409 L
449.856 73.8673 L
452.088 72.5764 L
454.32 71.3245 L
456.552 70.1313 L
458.784 69.0164 L
461.016 67.9211 L
463.248 66.8257 L
465.48 65.7695 L
467.712 64.9284 L
469.944 64.0091 L
472.176 63.1875 L
474.408 62.2682 L
476.64 61.4663 L
478.872 60.6839 L
481.104 60.1166 L
483.336 59.4907 L
485.568 58.7866 L
487.8 58.102 L
490.032 57.5152 L
492.264 56.9675 L
494.496 56.4785 L
496.728 55.8721 L
498.96 55.4027 L
501.192 54.8746 L
503.424 54.4834 L
505.656 54.0922 L
507.888 53.6618 L
510.12 53.2511 L
512.352 52.9381 L
514.584 52.6252 L
516.816 52.2926 L
519.048 51.9797 L
521.28 51.7058 LE
[] 0 setdash
0 0 1 C
74.88 47.52 LS
77.112 47.52 L
79.344 47.5396 L
81.576 47.5591 L
83.808 47.5982 L
86.04 47.6569 L
88.272 47.7156 L
90.504 47.8134 L
92.736 47.9699 L
94.968 48.185 L
97.2 48.4002 L
99.432 48.7132 L
101.664 49.0457 L
103.896 49.5151 L
106.128 49.9259 L
108.36 50.454 L
110.592 51.0799 L
112.824 51.8819 L
115.056 52.7425 L
117.288 53.564 L
119.52 54.4442 L
121.752 55.6765 L
123.984 56.8306 L
126.216 58.1411 L
128.448 59.4516 L
130.68 60.899 L
132.912 62.4834 L
135.144 64.2047 L
137.376 66.0824 L
139.608 68.2927 L
141.84 70.2096 L
144.072 72.2243 L
146.304 74.3563 L
148.536 77.0556 L
150.768 79.7549 L
153 82.2977 L
155.232 85.4077 L
157.464 88.2635 L
159.696 91.4126 L
161.928 94.9139 L
164.16 98.3956 L
166.392 101.545 L
168.624 105.418 L
170.856 108.841 L
173.088 112.811 L
175.32 116.997 L
177.552 121.339 L
179.784 125.056 L
182.016 129.496 L
184.248 133.917 L
186.48 137.965 L
188.712 143.149 L
190.944 148.156 L
193.176 152.616 L
195.408 157.467 L
197.64 162.279 L
199.872 167.129 L
202.104 172.313 L
204.336 177.261 L
206.568 182.288 L
208.8 187.081 L
211.032 192.675 L
213.264 197.858 L
215.496 202.337 L
217.728 207.932 L
219.96 212.9 L
222.192 217.614 L
224.424 222.797 L
226.656 227.726 L
228.888 233.184 L
231.12 237.78 L
233.352 242.514 L
235.584 246.054 L
237.816 250.983 L
240.048 256.01 L
242.28 260.47 L
244.512 263.932 L
246.744 268.176 L
248.976 272.186 L
251.208 275.59 L
253.44 279.58 L
255.672 282.416 L
257.904 285.311 L
260.136 287.873 L
262.368 290.807 L
264.6 293.761 L
266.832 296.206 L
269.064 298.005 L
271.296 298.67 L
273.528 300.118 L
275.76 301.78 L
277.992 302.25 L
280.224 302.406 L
282.456 302.758 L
284.688 303.834 L
286.92 303.639 L
289.152 303.032 L
291.384 302.739 L
293.616 301.35 L
295.848 300.705 L
298.08 299.218 L
300.312 297.008 L
302.544 295.893 L
304.776 293.859 L
307.008 290.788 L
309.24 288.988 L
311.472 286.387 L
313.704 283.198 L
315.936 278.661 L
318.168 275.746 L
320.4 273.301 L
322.632 269.311 L
324.864 265.008 L
327.096 260.763 L
329.328 256.558 L
331.56 252.548 L
333.792 248.44 L
336.024 243.179 L
338.256 238.426 L
340.488 233.692 L
342.72 228.822 L
344.952 224.636 L
347.184 219.413 L
349.416 214.347 L
351.648 208.577 L
353.88 203.863 L
356.112 198.386 L
358.344 193.633 L
360.576 188.567 L
362.808 184.225 L
365.04 178.885 L
367.272 173.936 L
369.504 169.516 L
371.736 164.156 L
373.968 159.423 L
376.2 155.12 L
378.432 150.171 L
380.664 145.809 L
382.896 141.525 L
385.128 137.007 L
387.36 132.626 L
389.592 128.635 L
391.824 124.704 L
394.056 120.635 L
396.288 116.997 L
398.52 113.202 L
400.752 109.799 L
402.984 106.454 L
405.216 103.403 L
407.448 99.9408 L
409.68 96.909 L
411.912 93.6816 L
414.144 90.9823 L
416.376 88.42 L
418.608 85.9749 L
420.84 83.5495 L
423.072 81.085 L
425.304 78.8942 L
427.536 76.9382 L
429.768 74.904 L
432 72.7328 L
434.232 70.9724 L
436.464 69.2903 L
438.696 67.9993 L
440.928 66.2976 L
443.16 64.9284 L
445.392 63.6961 L
447.624 62.4247 L
449.856 61.2902 L
452.088 60.2731 L
454.32 59.4125 L
456.552 58.2193 L
458.784 57.2609 L
461.016 56.4002 L
463.248 55.7743 L
465.48 55.031 L
467.712 54.366 L
469.944 53.8379 L
472.176 53.1337 L
474.408 52.6447 L
476.64 52.2731 L
478.872 51.8232 L
481.104 51.4124 L
483.336 51.0408 L
485.568 50.7083 L
487.8 50.3171 L
490.032 50.0628 L
492.264 49.8672 L
494.496 49.6129 L
496.728 49.3978 L
498.96 49.2021 L
501.192 49.0652 L
503.424 48.9088 L
505.656 48.7132 L
507.888 48.5762 L
510.12 48.4784 L
512.352 48.4198 L
514.584 48.3219 L
516.816 48.2046 L
519.048 48.1459 L
521.28 48.0872 LE
grestore
grestore
showpage
cleartomark
%%PageTrailer
%%Trailer
end
%%EOF
