%!PS-Adobe-3.0 EPSF-3.0
%%Title: gl2ps_renderer figure
%%Creator: GL2PS 1.4.0, (C) 1999-2017 C. Geuzaine
%%For: Octave
%%CreationDate: Fri Jun  5 17:02:44 2020
%%LanguageLevel: 3
%%DocumentData: Clean7Bit
%%Pages: 1
%%BoundingBox: 0 0 576 432
%%EndComments
%%BeginProlog
/gl2psdict 64 dict def gl2psdict begin
/tryPS3shading false def % set to false to force subdivision
/rThreshold 0.064 def % red component subdivision threshold
/gThreshold 0.034 def % green component subdivision threshold
/bThreshold 0.1 def % blue component subdivision threshold
/BD { bind def } bind def
/C  { setrgbcolor } BD
/G  { 0.082 mul exch 0.6094 mul add exch 0.3086 mul add neg 1.0 add setgray } BD
/W  { setlinewidth } BD
/LC  { setlinecap } BD
/LJ  { setlinejoin } BD
/FC { findfont exch /SH exch def SH scalefont setfont } BD
/SW { dup stringwidth pop } BD
/S  { FC moveto show } BD
/SBC{ FC moveto SW -2 div 0 rmoveto show } BD
/SBR{ FC moveto SW neg 0 rmoveto show } BD
/SCL{ FC moveto 0 SH -2 div rmoveto show } BD
/SCC{ FC moveto SW -2 div SH -2 div rmoveto show } BD
/SCR{ FC moveto SW neg SH -2 div rmoveto show } BD
/STL{ FC moveto 0 SH neg rmoveto show } BD
/STC{ FC moveto SW -2 div SH neg rmoveto show } BD
/STR{ FC moveto SW neg SH neg rmoveto show } BD
/FCT { FC translate 0 0 } BD
/SR  { gsave FCT moveto rotate show grestore } BD
/SRX  { gsave FCT moveto rotate xshow grestore } BD
/SBCR{ gsave FCT moveto rotate SW -2 div 0 rmoveto show grestore } BD
/SBRR{ gsave FCT moveto rotate SW neg 0 rmoveto show grestore } BD
/SCLR{ gsave FCT moveto rotate 0 SH -2 div rmoveto show grestore} BD
/SCCR{ gsave FCT moveto rotate SW -2 div SH -2 div rmoveto show grestore} BD
/SCRR{ gsave FCT moveto rotate SW neg SH -2 div rmoveto show grestore} BD
/STLR{ gsave FCT moveto rotate 0 SH neg rmoveto show grestore } BD
/STCR{ gsave FCT moveto rotate SW -2 div SH neg rmoveto show grestore } BD
/STRR{ gsave FCT moveto rotate SW neg SH neg rmoveto show grestore } BD
/P  { newpath 0.0 360.0 arc closepath fill } BD
/LS { newpath moveto } BD
/L  { lineto } BD
/LE { lineto stroke } BD
/T  { newpath moveto lineto lineto closepath fill } BD
/STshfill {
      /b1 exch def /g1 exch def /r1 exch def /y1 exch def /x1 exch def
      /b2 exch def /g2 exch def /r2 exch def /y2 exch def /x2 exch def
      /b3 exch def /g3 exch def /r3 exch def /y3 exch def /x3 exch def
      gsave << /ShadingType 4 /ColorSpace [/DeviceRGB]
      /DataSource [ 0 x1 y1 r1 g1 b1 0 x2 y2 r2 g2 b2 0 x3 y3 r3 g3 b3 ] >>
      shfill grestore } BD
/Tm { 3 -1 roll 8 -1 roll 13 -1 roll add add 3 div
      3 -1 roll 7 -1 roll 11 -1 roll add add 3 div
      3 -1 roll 6 -1 roll 9 -1 roll add add 3 div C T } BD
/STsplit {
      4 index 15 index add 0.5 mul
      4 index 15 index add 0.5 mul
      4 index 15 index add 0.5 mul
      4 index 15 index add 0.5 mul
      4 index 15 index add 0.5 mul
      5 copy 5 copy 25 15 roll
      9 index 30 index add 0.5 mul
      9 index 30 index add 0.5 mul
      9 index 30 index add 0.5 mul
      9 index 30 index add 0.5 mul
      9 index 30 index add 0.5 mul
      5 copy 5 copy 35 5 roll 25 5 roll 15 5 roll
      4 index 10 index add 0.5 mul
      4 index 10 index add 0.5 mul
      4 index 10 index add 0.5 mul
      4 index 10 index add 0.5 mul
      4 index 10 index add 0.5 mul
      5 copy 5 copy 40 5 roll 25 5 roll 15 5 roll 25 5 roll
      STnoshfill STnoshfill STnoshfill STnoshfill } BD
/STnoshfill {
      2 index 8 index sub abs rThreshold gt
      { STsplit }
      { 1 index 7 index sub abs gThreshold gt
        { STsplit }
        { dup 6 index sub abs bThreshold gt
          { STsplit }
          { 2 index 13 index sub abs rThreshold gt
            { STsplit }
            { 1 index 12 index sub abs gThreshold gt
              { STsplit }
              { dup 11 index sub abs bThreshold gt
                { STsplit }
                { 7 index 13 index sub abs rThreshold gt
                  { STsplit }
                  { 6 index 12 index sub abs gThreshold gt
                    { STsplit }
                    { 5 index 11 index sub abs bThreshold gt
                      { STsplit }
                      { Tm }
                      ifelse }
                    ifelse }
                  ifelse }
                ifelse }
              ifelse }
            ifelse }
          ifelse }
        ifelse }
      ifelse } BD
tryPS3shading
{ /shfill where
  { /ST { STshfill } BD }
  { /ST { STnoshfill } BD }
  ifelse }
{ /ST { STnoshfill } BD }
ifelse
end
%%EndProlog
%%BeginSetup
/DeviceRGB setcolorspace
gl2psdict begin
%%EndSetup
%%Page: 1 1
%%BeginPageSetup
%%EndPageSetup
mark
gsave
1.0 1.0 scale
1 1 1 C
newpath 0 0 moveto 576 0 lineto 576 432 lineto 0 432 lineto
closepath fill
gsave
1.0 1.0 scale
1 1 1 C
newpath 0 0 moveto 576 0 lineto 576 432 lineto 0 432 lineto
closepath fill
newpath 0 0 moveto 576 0 lineto 576 432 lineto 0 432 lineto
closepath clip
1 1 1 C
521.28 47.52 74.88 47.52 74.88 399.6 T
521.28 399.6 521.28 47.52 74.88 399.6 T
0.5 W
0.15 0.15 0.15 C
74.88 47.52 LS
74.88 51.985 LE
74.88 399.6 LS
74.88 395.135 LE
186.48 47.52 LS
186.48 51.985 LE
186.48 399.6 LS
186.48 395.135 LE
298.08 47.52 LS
298.08 51.985 LE
298.08 399.6 LS
298.08 395.135 LE
409.68 47.52 LS
409.68 51.985 LE
409.68 399.6 LS
409.68 395.135 LE
521.28 47.52 LS
521.28 51.985 LE
521.28 399.6 LS
521.28 395.135 LE
gsave
0.14902 0.14902 0.14902 C
(0) [10] 0 68.38 11.5159 24 /Helvetica SRX
grestore

gsave
0.14902 0.14902 0.14902 C
(5) [10] 0 179.98 11.5159 24 /Helvetica SRX
grestore

gsave
0.14902 0.14902 0.14902 C
(10) [13 10] 0 285.08 11.5159 24 /Helvetica SRX
grestore

gsave
0.14902 0.14902 0.14902 C
(15) [13 10] 0 396.68 11.5159 24 /Helvetica SRX
grestore

gsave
0.14902 0.14902 0.14902 C
(20) [13 10] 0 508.28 11.5159 24 /Helvetica SRX
grestore

74.88 47.52 LS
79.348 47.52 LE
521.28 47.52 LS
516.812 47.52 LE
74.88 399.6 LS
79.348 399.6 LE
521.28 399.6 LS
516.812 399.6 LE
gsave
0.14902 0.14902 0.14902 C
(0) [10] 0 49.8692 38.52 24 /Helvetica SRX
grestore

gsave
0.14902 0.14902 0.14902 C
(0.2) [13 6 10] 0 30.8692 390.6 24 /Helvetica SRX
grestore

2 LC
[16 0] 0 setdash
74.88 47.52 LS
521.28 47.52 LE
74.88 399.6 LS
521.28 399.6 LE
74.88 47.52 LS
74.88 399.6 LE
521.28 47.52 LS
521.28 399.6 LE
2 W
0 LC
1 LJ
[8 8 8 8] 0 setdash
0 0 0 C
74.88 47.52 LS
77.112 47.52 L
79.344 47.52 L
81.576 47.52 L
83.808 47.52 L
86.04 47.52 L
88.272 47.52 L
90.504 47.52 L
92.736 47.52 L
94.968 47.52 L
97.2 47.52 L
99.432 47.52 L
101.664 47.52 L
103.896 47.52 L
106.128 47.52 L
108.36 47.52 L
110.592 47.52 L
112.824 47.52 L
115.056 47.52 L
117.288 47.52 L
119.52 47.52 L
121.752 47.52 L
123.984 47.52 L
126.216 47.52 L
128.448 47.52 L
130.68 47.52 L
132.912 47.52 L
135.144 47.52 L
137.376 47.52 L
139.608 47.52 L
141.84 47.52 L
144.072 47.52 L
146.304 47.52 L
148.536 47.52 L
150.768 47.52 L
153 47.52 L
155.232 47.52 L
157.464 47.52 L
159.696 47.52 L
161.928 47.52 L
164.16 47.52 L
166.392 47.52 L
168.624 47.52 L
170.856 47.52 L
173.088 47.52 L
175.32 47.52 L
177.552 47.52 L
179.784 47.52 L
182.016 47.52 L
184.248 47.52 L
186.48 47.52 L
188.712 47.52 L
190.944 47.52 L
193.176 47.52 L
195.408 47.52 L
197.64 47.52 L
199.872 47.52 L
202.104 47.52 L
204.336 47.52 L
206.568 47.52 L
208.8 47.52 L
211.032 47.52 L
213.264 47.52 L
215.496 47.52 L
217.728 47.52 L
219.96 47.52 L
222.192 47.5235 L
224.424 47.527 L
226.656 47.5305 L
228.888 47.5376 L
231.12 47.5552 L
233.352 47.5798 L
235.584 47.6221 L
237.816 47.696 L
240.048 47.8122 L
242.28 47.9988 L
244.512 48.2946 L
246.744 48.7347 L
248.976 49.4071 L
251.208 50.3683 L
253.44 51.7696 L
255.672 53.7201 L
257.904 56.3819 L
260.136 59.9484 L
262.368 64.5783 L
264.6 70.5495 L
266.832 77.9925 L
269.064 87.0656 L
271.296 97.8991 L
273.528 110.465 L
275.76 124.545 L
277.992 140.092 L
280.224 156.418 L
282.456 173.22 L
284.688 189.848 L
286.92 205.583 L
289.152 219.472 L
291.384 231.084 L
293.616 239.46 L
295.848 244.224 L
298.08 245.09 L
300.312 242.368 L
302.544 235.573 L
304.776 225.514 L
307.008 212.61 L
309.24 197.781 L
311.472 181.384 L
313.704 164.583 L
315.936 147.806 L
318.168 131.808 L
320.4 117.021 L
322.632 103.694 L
324.864 92.0828 L
327.096 82.2703 L
329.328 74.0457 L
331.56 67.3949 L
333.792 62.1419 L
336.024 58.0648 L
338.256 55.0087 L
340.488 52.7484 L
342.72 51.1042 L
344.952 49.9317 L
347.184 49.1149 L
349.416 48.5586 L
351.648 48.1854 L
353.88 47.9425 L
356.112 47.7805 L
358.344 47.682 L
360.576 47.6186 L
362.808 47.5763 L
365.04 47.5517 L
367.272 47.5376 L
369.504 47.5305 L
371.736 47.527 L
373.968 47.5235 L
376.2 47.5235 L
378.432 47.52 L
380.664 47.52 L
382.896 47.52 L
385.128 47.52 L
387.36 47.52 L
389.592 47.52 L
391.824 47.52 L
394.056 47.52 L
396.288 47.52 L
398.52 47.52 L
400.752 47.52 L
402.984 47.52 L
405.216 47.52 L
407.448 47.52 L
409.68 47.52 L
411.912 47.52 L
414.144 47.52 L
416.376 47.52 L
418.608 47.52 L
420.84 47.52 L
423.072 47.52 L
425.304 47.52 L
427.536 47.52 L
429.768 47.52 L
432 47.52 L
434.232 47.52 L
436.464 47.52 L
438.696 47.52 L
440.928 47.52 L
443.16 47.52 L
445.392 47.52 L
447.624 47.52 L
449.856 47.52 L
452.088 47.52 L
454.32 47.52 L
456.552 47.52 L
458.784 47.52 L
461.016 47.52 L
463.248 47.52 L
465.48 47.52 L
467.712 47.52 L
469.944 47.52 L
472.176 47.52 L
474.408 47.52 L
476.64 47.52 L
478.872 47.52 L
481.104 47.52 L
483.336 47.52 L
485.568 47.52 L
487.8 47.52 L
490.032 47.52 L
492.264 47.52 L
494.496 47.52 L
496.728 47.52 L
498.96 47.52 L
501.192 47.52 L
503.424 47.52 L
505.656 47.52 L
507.888 47.52 L
510.12 47.52 L
512.352 47.52 L
514.584 47.52 L
516.816 47.52 L
519.048 47.52 L
521.28 47.52 LE
[] 0 setdash
0 0 1 C
74.88 47.52 LS
77.112 47.52 L
79.344 47.52 L
81.576 47.52 L
83.808 47.52 L
86.04 47.52 L
88.272 47.52 L
90.504 47.52 L
92.736 47.52 L
94.968 47.52 L
97.2 47.52 L
99.432 47.52 L
101.664 47.52 L
103.896 47.52 L
106.128 47.52 L
108.36 47.52 L
110.592 47.52 L
112.824 47.52 L
115.056 47.52 L
117.288 47.52 L
119.52 47.52 L
121.752 47.52 L
123.984 47.52 L
126.216 47.52 L
128.448 47.52 L
130.68 47.52 L
132.912 47.52 L
135.144 47.52 L
137.376 47.52 L
139.608 47.52 L
141.84 47.52 L
144.072 47.52 L
146.304 47.52 L
148.536 47.52 L
150.768 47.52 L
153 47.52 L
155.232 47.52 L
157.464 47.52 L
159.696 47.52 L
161.928 47.52 L
164.16 47.52 L
166.392 47.52 L
168.624 47.52 L
170.856 47.52 L
173.088 47.52 L
175.32 47.52 L
177.552 47.52 L
179.784 47.52 L
182.016 47.52 L
184.248 47.52 L
186.48 47.52 L
188.712 47.52 L
190.944 47.52 L
193.176 47.52 L
195.408 47.52 L
197.64 47.52 L
199.872 47.52 L
202.104 47.52 L
204.336 47.52 L
206.568 47.52 L
208.8 47.52 L
211.032 47.52 L
213.264 47.52 L
215.496 47.52 L
217.728 47.52 L
219.96 47.52 L
222.192 47.52 L
224.424 47.52 L
226.656 47.52 L
228.888 47.52 L
231.12 47.52 L
233.352 47.52 L
235.584 47.52 L
237.816 47.52 L
240.048 47.52 L
242.28 47.5376 L
244.512 47.5728 L
246.744 47.5305 L
248.976 47.5834 L
251.208 47.6996 L
253.44 48.0164 L
255.672 48.2277 L
257.904 48.8156 L
260.136 49.8543 L
262.368 51.6745 L
264.6 54.8609 L
266.832 58.3394 L
269.064 64.3917 L
271.296 72.1585 L
273.528 83.7032 L
275.76 99.6243 L
277.992 117.753 L
280.224 139.582 L
282.456 162.126 L
284.688 188.51 L
286.92 220.905 L
289.152 247.766 L
291.384 269.697 L
293.616 285.97 L
295.848 297.113 L
298.08 298.814 L
300.312 295.698 L
302.544 282.702 L
304.776 260.859 L
307.008 238.819 L
309.24 212.839 L
311.472 186.785 L
313.704 161.58 L
315.936 136.005 L
318.168 114.144 L
320.4 96.2971 L
322.632 81.8865 L
324.864 71.3382 L
327.096 63.4868 L
329.328 58.0401 L
331.56 54.118 L
333.792 51.4316 L
336.024 49.6888 L
338.256 48.6924 L
340.488 48.2171 L
342.72 47.9918 L
344.952 47.6573 L
347.184 47.5798 L
349.416 47.5446 L
351.648 47.5411 L
353.88 47.5305 L
356.112 47.52 L
358.344 47.52 L
360.576 47.52 L
362.808 47.5305 L
365.04 47.527 L
367.272 47.52 L
369.504 47.52 L
371.736 47.52 L
373.968 47.52 L
376.2 47.52 L
378.432 47.52 L
380.664 47.52 L
382.896 47.52 L
385.128 47.52 L
387.36 47.52 L
389.592 47.52 L
391.824 47.52 L
394.056 47.52 L
396.288 47.52 L
398.52 47.52 L
400.752 47.52 L
402.984 47.52 L
405.216 47.52 L
407.448 47.52 L
409.68 47.52 L
411.912 47.52 L
414.144 47.52 L
416.376 47.52 L
418.608 47.52 L
420.84 47.52 L
423.072 47.52 L
425.304 47.52 L
427.536 47.52 L
429.768 47.52 L
432 47.52 L
434.232 47.52 L
436.464 47.52 L
438.696 47.52 L
440.928 47.52 L
443.16 47.52 L
445.392 47.52 L
447.624 47.52 L
449.856 47.52 L
452.088 47.52 L
454.32 47.52 L
456.552 47.52 L
458.784 47.52 L
461.016 47.52 L
463.248 47.52 L
465.48 47.52 L
467.712 47.52 L
469.944 47.52 L
472.176 47.52 L
474.408 47.52 L
476.64 47.52 L
478.872 47.52 L
481.104 47.52 L
483.336 47.52 L
485.568 47.52 L
487.8 47.52 L
490.032 47.52 L
492.264 47.52 L
494.496 47.52 L
496.728 47.52 L
498.96 47.52 L
501.192 47.52 L
503.424 47.52 L
505.656 47.52 L
507.888 47.52 L
510.12 47.52 L
512.352 47.52 L
514.584 47.52 L
516.816 47.52 L
519.048 47.52 L
521.28 47.52 LE
grestore
grestore
showpage
cleartomark
%%PageTrailer
%%Trailer
end
%%EOF
