%!PS-Adobe-3.0 EPSF-3.0
%%Title: gl2ps_renderer figure
%%Creator: GL2PS 1.4.0, (C) 1999-2017 C. Geuzaine
%%For: Octave
%%CreationDate: Sat Feb  1 20:36:09 2020
%%LanguageLevel: 3
%%DocumentData: Clean7Bit
%%Pages: 1
%%BoundingBox: 0 0 576 432
%%EndComments
%%BeginProlog
/gl2psdict 64 dict def gl2psdict begin
/tryPS3shading false def % set to false to force subdivision
/rThreshold 0.064 def % red component subdivision threshold
/gThreshold 0.034 def % green component subdivision threshold
/bThreshold 0.1 def % blue component subdivision threshold
/BD { bind def } bind def
/C  { setrgbcolor } BD
/G  { 0.082 mul exch 0.6094 mul add exch 0.3086 mul add neg 1.0 add setgray } BD
/W  { setlinewidth } BD
/LC  { setlinecap } BD
/LJ  { setlinejoin } BD
/FC { findfont exch /SH exch def SH scalefont setfont } BD
/SW { dup stringwidth pop } BD
/S  { FC moveto show } BD
/SBC{ FC moveto SW -2 div 0 rmoveto show } BD
/SBR{ FC moveto SW neg 0 rmoveto show } BD
/SCL{ FC moveto 0 SH -2 div rmoveto show } BD
/SCC{ FC moveto SW -2 div SH -2 div rmoveto show } BD
/SCR{ FC moveto SW neg SH -2 div rmoveto show } BD
/STL{ FC moveto 0 SH neg rmoveto show } BD
/STC{ FC moveto SW -2 div SH neg rmoveto show } BD
/STR{ FC moveto SW neg SH neg rmoveto show } BD
/FCT { FC translate 0 0 } BD
/SR  { gsave FCT moveto rotate show grestore } BD
/SRX  { gsave FCT moveto rotate xshow grestore } BD
/SBCR{ gsave FCT moveto rotate SW -2 div 0 rmoveto show grestore } BD
/SBRR{ gsave FCT moveto rotate SW neg 0 rmoveto show grestore } BD
/SCLR{ gsave FCT moveto rotate 0 SH -2 div rmoveto show grestore} BD
/SCCR{ gsave FCT moveto rotate SW -2 div SH -2 div rmoveto show grestore} BD
/SCRR{ gsave FCT moveto rotate SW neg SH -2 div rmoveto show grestore} BD
/STLR{ gsave FCT moveto rotate 0 SH neg rmoveto show grestore } BD
/STCR{ gsave FCT moveto rotate SW -2 div SH neg rmoveto show grestore } BD
/STRR{ gsave FCT moveto rotate SW neg SH neg rmoveto show grestore } BD
/P  { newpath 0.0 360.0 arc closepath fill } BD
/LS { newpath moveto } BD
/L  { lineto } BD
/LE { lineto stroke } BD
/T  { newpath moveto lineto lineto closepath fill } BD
/STshfill {
      /b1 exch def /g1 exch def /r1 exch def /y1 exch def /x1 exch def
      /b2 exch def /g2 exch def /r2 exch def /y2 exch def /x2 exch def
      /b3 exch def /g3 exch def /r3 exch def /y3 exch def /x3 exch def
      gsave << /ShadingType 4 /ColorSpace [/DeviceRGB]
      /DataSource [ 0 x1 y1 r1 g1 b1 0 x2 y2 r2 g2 b2 0 x3 y3 r3 g3 b3 ] >>
      shfill grestore } BD
/Tm { 3 -1 roll 8 -1 roll 13 -1 roll add add 3 div
      3 -1 roll 7 -1 roll 11 -1 roll add add 3 div
      3 -1 roll 6 -1 roll 9 -1 roll add add 3 div C T } BD
/STsplit {
      4 index 15 index add 0.5 mul
      4 index 15 index add 0.5 mul
      4 index 15 index add 0.5 mul
      4 index 15 index add 0.5 mul
      4 index 15 index add 0.5 mul
      5 copy 5 copy 25 15 roll
      9 index 30 index add 0.5 mul
      9 index 30 index add 0.5 mul
      9 index 30 index add 0.5 mul
      9 index 30 index add 0.5 mul
      9 index 30 index add 0.5 mul
      5 copy 5 copy 35 5 roll 25 5 roll 15 5 roll
      4 index 10 index add 0.5 mul
      4 index 10 index add 0.5 mul
      4 index 10 index add 0.5 mul
      4 index 10 index add 0.5 mul
      4 index 10 index add 0.5 mul
      5 copy 5 copy 40 5 roll 25 5 roll 15 5 roll 25 5 roll
      STnoshfill STnoshfill STnoshfill STnoshfill } BD
/STnoshfill {
      2 index 8 index sub abs rThreshold gt
      { STsplit }
      { 1 index 7 index sub abs gThreshold gt
        { STsplit }
        { dup 6 index sub abs bThreshold gt
          { STsplit }
          { 2 index 13 index sub abs rThreshold gt
            { STsplit }
            { 1 index 12 index sub abs gThreshold gt
              { STsplit }
              { dup 11 index sub abs bThreshold gt
                { STsplit }
                { 7 index 13 index sub abs rThreshold gt
                  { STsplit }
                  { 6 index 12 index sub abs gThreshold gt
                    { STsplit }
                    { 5 index 11 index sub abs bThreshold gt
                      { STsplit }
                      { Tm }
                      ifelse }
                    ifelse }
                  ifelse }
                ifelse }
              ifelse }
            ifelse }
          ifelse }
        ifelse }
      ifelse } BD
tryPS3shading
{ /shfill where
  { /ST { STshfill } BD }
  { /ST { STnoshfill } BD }
  ifelse }
{ /ST { STnoshfill } BD }
ifelse
end
%%EndProlog
%%BeginSetup
/DeviceRGB setcolorspace
gl2psdict begin
%%EndSetup
%%Page: 1 1
%%BeginPageSetup
%%EndPageSetup
mark
gsave
1.0 1.0 scale
1 1 1 C
newpath 0 0 moveto 576 0 lineto 576 432 lineto 0 432 lineto
closepath fill
gsave
1.0 1.0 scale
1 1 1 C
newpath 0 0 moveto 576 0 lineto 576 432 lineto 0 432 lineto
closepath fill
newpath 0 0 moveto 576 0 lineto 576 432 lineto 0 432 lineto
closepath clip
1 1 1 C
521.28 47.52 74.88 47.52 74.88 399.6 T
521.28 399.6 521.28 47.52 74.88 399.6 T
0.5 W
0.15 0.15 0.15 C
74.88 47.52 LS
74.88 51.985 LE
74.88 399.6 LS
74.88 395.135 LE
186.48 47.52 LS
186.48 51.985 LE
186.48 399.6 LS
186.48 395.135 LE
298.08 47.52 LS
298.08 51.985 LE
298.08 399.6 LS
298.08 395.135 LE
409.68 47.52 LS
409.68 51.985 LE
409.68 399.6 LS
409.68 395.135 LE
521.28 47.52 LS
521.28 51.985 LE
521.28 399.6 LS
521.28 395.135 LE
gsave
0.14902 0.14902 0.14902 C
(0) [10] 0 71.88 32.0183 10 /Helvetica SRX
grestore

gsave
0.14902 0.14902 0.14902 C
(5) [10] 0 183.48 32.0183 10 /Helvetica SRX
grestore

gsave
0.14902 0.14902 0.14902 C
(10) [6 10] 0 292.08 32.0183 10 /Helvetica SRX
grestore

gsave
0.14902 0.14902 0.14902 C
(15) [6 10] 0 403.68 32.0183 10 /Helvetica SRX
grestore

gsave
0.14902 0.14902 0.14902 C
(20) [6 10] 0 515.28 32.0183 10 /Helvetica SRX
grestore

74.88 47.52 LS
79.348 47.52 LE
521.28 47.52 LS
516.812 47.52 LE
74.88 135.54 LS
79.348 135.54 LE
521.28 135.54 LS
516.812 135.54 LE
74.88 223.56 LS
79.348 223.56 LE
521.28 223.56 LS
516.812 223.56 LE
74.88 311.58 LS
79.348 311.58 LE
521.28 311.58 LS
516.812 311.58 LE
74.88 399.6 LS
79.348 399.6 LE
521.28 399.6 LS
516.812 399.6 LE
gsave
0.14902 0.14902 0.14902 C
(0) [10] 0 63.8755 43.52 10 /Helvetica SRX
grestore

gsave
0.14902 0.14902 0.14902 C
(0.02) [6 3 6 10] 0 48.8755 131.54 10 /Helvetica SRX
grestore

gsave
0.14902 0.14902 0.14902 C
(0.04) [6 3 6 10] 0 48.8755 219.56 10 /Helvetica SRX
grestore

gsave
0.14902 0.14902 0.14902 C
(0.06) [6 3 6 10] 0 48.8755 307.58 10 /Helvetica SRX
grestore

gsave
0.14902 0.14902 0.14902 C
(0.08) [6 3 6 10] 0 48.8755 395.6 10 /Helvetica SRX
grestore

2 LC
[16 0] 0 setdash
74.88 47.52 LS
521.28 47.52 LE
74.88 399.6 LS
521.28 399.6 LE
74.88 47.52 LS
74.88 399.6 LE
521.28 47.52 LS
521.28 399.6 LE
2 W
0 LC
1 LJ
[8 8 8 8] 0 setdash
0 0 0 C
74.88 47.52 LS
77.112 47.52 L
79.344 47.52 L
81.576 47.52 L
83.808 47.52 L
86.04 47.52 L
88.272 47.52 L
90.504 47.52 L
92.736 47.52 L
94.968 47.52 L
97.2 47.52 L
99.432 47.52 L
101.664 47.52 L
103.896 47.52 L
106.128 47.52 L
108.36 47.52 L
110.592 47.52 L
112.824 47.52 L
115.056 47.52 L
117.288 47.52 L
119.52 47.52 L
121.752 47.52 L
123.984 47.52 L
126.216 47.52 L
128.448 47.52 L
130.68 47.52 L
132.912 47.52 L
135.144 47.52 L
137.376 47.52 L
139.608 47.52 L
141.84 47.52 L
144.072 47.52 L
146.304 47.52 L
148.536 47.52 L
150.768 47.52 L
153 47.52 L
155.232 47.52 L
157.464 47.52 L
159.696 47.52 L
161.928 47.52 L
164.16 47.52 L
166.392 47.52 L
168.624 47.52 L
170.856 47.52 L
173.088 47.52 L
175.32 47.52 L
177.552 47.52 L
179.784 47.52 L
182.016 47.52 L
184.248 47.52 L
186.48 47.52 L
188.712 47.52 L
190.944 47.52 L
193.176 47.52 L
195.408 47.52 L
197.64 47.52 L
199.872 47.52 L
202.104 47.52 L
204.336 47.52 L
206.568 47.52 L
208.8 47.52 L
211.032 47.52 L
213.264 47.52 L
215.496 47.52 L
217.728 47.52 L
219.96 47.52 L
222.192 47.5244 L
224.424 47.5288 L
226.656 47.5332 L
228.888 47.542 L
231.12 47.564 L
233.352 47.5948 L
235.584 47.6476 L
237.816 47.7401 L
240.048 47.8853 L
242.28 48.1185 L
244.512 48.4882 L
246.744 49.0383 L
248.976 49.8789 L
251.208 51.0804 L
253.44 52.832 L
255.672 55.2702 L
257.904 58.5973 L
260.136 63.0555 L
262.368 68.8428 L
264.6 76.3069 L
266.832 85.6107 L
269.064 96.952 L
271.296 110.494 L
273.528 126.201 L
275.76 143.801 L
277.992 163.235 L
280.224 183.643 L
282.456 204.645 L
284.688 225.43 L
286.92 245.098 L
289.152 262.46 L
291.384 276.975 L
293.616 287.445 L
295.848 293.399 L
298.08 294.482 L
300.312 291.08 L
302.544 282.586 L
304.776 270.013 L
307.008 253.883 L
309.24 235.346 L
311.472 214.85 L
313.704 193.849 L
315.936 172.878 L
318.168 152.88 L
320.4 134.396 L
322.632 117.738 L
324.864 103.223 L
327.096 90.9579 L
329.328 80.6771 L
331.56 72.3636 L
333.792 65.7973 L
336.024 60.701 L
338.256 56.8809 L
340.488 54.0555 L
342.72 52.0002 L
344.952 50.5347 L
347.184 49.5137 L
349.416 48.8183 L
351.648 48.3518 L
353.88 48.0481 L
356.112 47.8457 L
358.344 47.7224 L
360.576 47.6432 L
362.808 47.5904 L
365.04 47.5596 L
367.272 47.542 L
369.504 47.5332 L
371.736 47.5288 L
373.968 47.5244 L
376.2 47.5244 L
378.432 47.52 L
380.664 47.52 L
382.896 47.52 L
385.128 47.52 L
387.36 47.52 L
389.592 47.52 L
391.824 47.52 L
394.056 47.52 L
396.288 47.52 L
398.52 47.52 L
400.752 47.52 L
402.984 47.52 L
405.216 47.52 L
407.448 47.52 L
409.68 47.52 L
411.912 47.52 L
414.144 47.52 L
416.376 47.52 L
418.608 47.52 L
420.84 47.52 L
423.072 47.52 L
425.304 47.52 L
427.536 47.52 L
429.768 47.52 L
432 47.52 L
434.232 47.52 L
436.464 47.52 L
438.696 47.52 L
440.928 47.52 L
443.16 47.52 L
445.392 47.52 L
447.624 47.52 L
449.856 47.52 L
452.088 47.52 L
454.32 47.52 L
456.552 47.52 L
458.784 47.52 L
461.016 47.52 L
463.248 47.52 L
465.48 47.52 L
467.712 47.52 L
469.944 47.52 L
472.176 47.52 L
474.408 47.52 L
476.64 47.52 L
478.872 47.52 L
481.104 47.52 L
483.336 47.52 L
485.568 47.52 L
487.8 47.52 L
490.032 47.52 L
492.264 47.52 L
494.496 47.52 L
496.728 47.52 L
498.96 47.52 L
501.192 47.52 L
503.424 47.52 L
505.656 47.52 L
507.888 47.52 L
510.12 47.52 L
512.352 47.52 L
514.584 47.52 L
516.816 47.52 L
519.048 47.52 L
521.28 47.52 LE
[] 0 setdash
0 0 1 C
74.88 47.52 LS
77.112 47.52 L
79.344 47.52 L
81.576 47.52 L
83.808 47.52 L
86.04 47.52 L
88.272 47.52 L
90.504 47.52 L
92.736 47.52 L
94.968 47.52 L
97.2 47.52 L
99.432 47.52 L
101.664 47.52 L
103.896 47.52 L
106.128 47.52 L
108.36 47.52 L
110.592 47.52 L
112.824 47.52 L
115.056 47.52 L
117.288 47.52 L
119.52 47.52 L
121.752 47.52 L
123.984 47.52 L
126.216 47.52 L
128.448 47.52 L
130.68 47.52 L
132.912 47.52 L
135.144 47.52 L
137.376 47.52 L
139.608 47.52 L
141.84 47.52 L
144.072 47.52 L
146.304 47.52 L
148.536 47.52 L
150.768 47.52 L
153 47.52 L
155.232 47.52 L
157.464 47.52 L
159.696 47.52 L
161.928 47.52 L
164.16 47.52 L
166.392 47.52 L
168.624 47.52 L
170.856 47.52 L
173.088 47.52 L
175.32 47.52 L
177.552 47.52 L
179.784 47.52 L
182.016 47.52 L
184.248 47.52 L
186.48 47.52 L
188.712 47.52 L
190.944 47.52 L
193.176 47.52 L
195.408 47.52 L
197.64 47.52 L
199.872 47.52 L
202.104 47.52 L
204.336 47.52 L
206.568 47.52 L
208.8 47.52 L
211.032 47.52 L
213.264 47.52 L
215.496 47.52 L
217.728 47.52 L
219.96 47.52 L
222.192 47.52 L
224.424 47.52 L
226.656 47.5288 L
228.888 47.5288 L
231.12 47.5244 L
233.352 47.5508 L
235.584 47.564 L
237.816 47.608 L
240.048 47.6344 L
242.28 47.7841 L
244.512 47.9865 L
246.744 48.343 L
248.976 48.9767 L
251.208 49.8613 L
253.44 51.2961 L
255.672 53.2721 L
257.904 56.7137 L
260.136 61.0223 L
262.368 66.77 L
264.6 74.639 L
266.832 83.9559 L
269.064 94.8043 L
271.296 110.124 L
273.528 126.588 L
275.76 144.294 L
277.992 165.383 L
280.224 186.662 L
282.456 208.913 L
284.688 230.87 L
286.92 249.103 L
289.152 267.535 L
291.384 282.19 L
293.616 290.099 L
295.848 295.406 L
298.08 295.376 L
300.312 289.315 L
302.544 278.911 L
304.776 267.676 L
307.008 250.736 L
309.24 230.808 L
311.472 211.712 L
313.704 191.309 L
315.936 170.528 L
318.168 150.979 L
320.4 134.567 L
322.632 117.553 L
324.864 103.677 L
327.096 91.4904 L
329.328 81.993 L
331.56 74.2209 L
333.792 66.3167 L
336.024 61.4095 L
338.256 57.8227 L
340.488 54.9401 L
342.72 52.7 L
344.952 50.9924 L
347.184 49.7601 L
349.416 49.0868 L
351.648 48.4706 L
353.88 48.1978 L
356.112 47.9645 L
358.344 47.7973 L
360.576 47.6564 L
362.808 47.608 L
365.04 47.5772 L
367.272 47.5552 L
369.504 47.5376 L
371.736 47.5288 L
373.968 47.5288 L
376.2 47.5244 L
378.432 47.52 L
380.664 47.52 L
382.896 47.52 L
385.128 47.52 L
387.36 47.52 L
389.592 47.52 L
391.824 47.52 L
394.056 47.52 L
396.288 47.52 L
398.52 47.52 L
400.752 47.52 L
402.984 47.52 L
405.216 47.52 L
407.448 47.52 L
409.68 47.52 L
411.912 47.52 L
414.144 47.52 L
416.376 47.52 L
418.608 47.52 L
420.84 47.52 L
423.072 47.52 L
425.304 47.52 L
427.536 47.52 L
429.768 47.52 L
432 47.52 L
434.232 47.52 L
436.464 47.52 L
438.696 47.52 L
440.928 47.52 L
443.16 47.52 L
445.392 47.52 L
447.624 47.52 L
449.856 47.52 L
452.088 47.52 L
454.32 47.52 L
456.552 47.52 L
458.784 47.52 L
461.016 47.52 L
463.248 47.52 L
465.48 47.52 L
467.712 47.52 L
469.944 47.52 L
472.176 47.52 L
474.408 47.52 L
476.64 47.52 L
478.872 47.52 L
481.104 47.52 L
483.336 47.52 L
485.568 47.52 L
487.8 47.52 L
490.032 47.52 L
492.264 47.52 L
494.496 47.52 L
496.728 47.52 L
498.96 47.52 L
501.192 47.52 L
503.424 47.52 L
505.656 47.52 L
507.888 47.52 L
510.12 47.52 L
512.352 47.52 L
514.584 47.52 L
516.816 47.52 L
519.048 47.52 L
521.28 47.52 LE
grestore
grestore
showpage
cleartomark
%%PageTrailer
%%Trailer
end
%%EOF
