%!PS-Adobe-3.0 EPSF-3.0
%%Title: gl2ps_renderer figure
%%Creator: GL2PS 1.4.0, (C) 1999-2017 C. Geuzaine
%%For: Octave
%%CreationDate: Fri Jun  5 17:35:11 2020
%%LanguageLevel: 3
%%DocumentData: Clean7Bit
%%Pages: 1
%%BoundingBox: 0 0 576 432
%%EndComments
%%BeginProlog
/gl2psdict 64 dict def gl2psdict begin
/tryPS3shading false def % set to false to force subdivision
/rThreshold 0.064 def % red component subdivision threshold
/gThreshold 0.034 def % green component subdivision threshold
/bThreshold 0.1 def % blue component subdivision threshold
/BD { bind def } bind def
/C  { setrgbcolor } BD
/G  { 0.082 mul exch 0.6094 mul add exch 0.3086 mul add neg 1.0 add setgray } BD
/W  { setlinewidth } BD
/LC  { setlinecap } BD
/LJ  { setlinejoin } BD
/FC { findfont exch /SH exch def SH scalefont setfont } BD
/SW { dup stringwidth pop } BD
/S  { FC moveto show } BD
/SBC{ FC moveto SW -2 div 0 rmoveto show } BD
/SBR{ FC moveto SW neg 0 rmoveto show } BD
/SCL{ FC moveto 0 SH -2 div rmoveto show } BD
/SCC{ FC moveto SW -2 div SH -2 div rmoveto show } BD
/SCR{ FC moveto SW neg SH -2 div rmoveto show } BD
/STL{ FC moveto 0 SH neg rmoveto show } BD
/STC{ FC moveto SW -2 div SH neg rmoveto show } BD
/STR{ FC moveto SW neg SH neg rmoveto show } BD
/FCT { FC translate 0 0 } BD
/SR  { gsave FCT moveto rotate show grestore } BD
/SRX  { gsave FCT moveto rotate xshow grestore } BD
/SBCR{ gsave FCT moveto rotate SW -2 div 0 rmoveto show grestore } BD
/SBRR{ gsave FCT moveto rotate SW neg 0 rmoveto show grestore } BD
/SCLR{ gsave FCT moveto rotate 0 SH -2 div rmoveto show grestore} BD
/SCCR{ gsave FCT moveto rotate SW -2 div SH -2 div rmoveto show grestore} BD
/SCRR{ gsave FCT moveto rotate SW neg SH -2 div rmoveto show grestore} BD
/STLR{ gsave FCT moveto rotate 0 SH neg rmoveto show grestore } BD
/STCR{ gsave FCT moveto rotate SW -2 div SH neg rmoveto show grestore } BD
/STRR{ gsave FCT moveto rotate SW neg SH neg rmoveto show grestore } BD
/P  { newpath 0.0 360.0 arc closepath fill } BD
/LS { newpath moveto } BD
/L  { lineto } BD
/LE { lineto stroke } BD
/T  { newpath moveto lineto lineto closepath fill } BD
/STshfill {
      /b1 exch def /g1 exch def /r1 exch def /y1 exch def /x1 exch def
      /b2 exch def /g2 exch def /r2 exch def /y2 exch def /x2 exch def
      /b3 exch def /g3 exch def /r3 exch def /y3 exch def /x3 exch def
      gsave << /ShadingType 4 /ColorSpace [/DeviceRGB]
      /DataSource [ 0 x1 y1 r1 g1 b1 0 x2 y2 r2 g2 b2 0 x3 y3 r3 g3 b3 ] >>
      shfill grestore } BD
/Tm { 3 -1 roll 8 -1 roll 13 -1 roll add add 3 div
      3 -1 roll 7 -1 roll 11 -1 roll add add 3 div
      3 -1 roll 6 -1 roll 9 -1 roll add add 3 div C T } BD
/STsplit {
      4 index 15 index add 0.5 mul
      4 index 15 index add 0.5 mul
      4 index 15 index add 0.5 mul
      4 index 15 index add 0.5 mul
      4 index 15 index add 0.5 mul
      5 copy 5 copy 25 15 roll
      9 index 30 index add 0.5 mul
      9 index 30 index add 0.5 mul
      9 index 30 index add 0.5 mul
      9 index 30 index add 0.5 mul
      9 index 30 index add 0.5 mul
      5 copy 5 copy 35 5 roll 25 5 roll 15 5 roll
      4 index 10 index add 0.5 mul
      4 index 10 index add 0.5 mul
      4 index 10 index add 0.5 mul
      4 index 10 index add 0.5 mul
      4 index 10 index add 0.5 mul
      5 copy 5 copy 40 5 roll 25 5 roll 15 5 roll 25 5 roll
      STnoshfill STnoshfill STnoshfill STnoshfill } BD
/STnoshfill {
      2 index 8 index sub abs rThreshold gt
      { STsplit }
      { 1 index 7 index sub abs gThreshold gt
        { STsplit }
        { dup 6 index sub abs bThreshold gt
          { STsplit }
          { 2 index 13 index sub abs rThreshold gt
            { STsplit }
            { 1 index 12 index sub abs gThreshold gt
              { STsplit }
              { dup 11 index sub abs bThreshold gt
                { STsplit }
                { 7 index 13 index sub abs rThreshold gt
                  { STsplit }
                  { 6 index 12 index sub abs gThreshold gt
                    { STsplit }
                    { 5 index 11 index sub abs bThreshold gt
                      { STsplit }
                      { Tm }
                      ifelse }
                    ifelse }
                  ifelse }
                ifelse }
              ifelse }
            ifelse }
          ifelse }
        ifelse }
      ifelse } BD
tryPS3shading
{ /shfill where
  { /ST { STshfill } BD }
  { /ST { STnoshfill } BD }
  ifelse }
{ /ST { STnoshfill } BD }
ifelse
end
%%EndProlog
%%BeginSetup
/DeviceRGB setcolorspace
gl2psdict begin
%%EndSetup
%%Page: 1 1
%%BeginPageSetup
%%EndPageSetup
mark
gsave
1.0 1.0 scale
1 1 1 C
newpath 0 0 moveto 576 0 lineto 576 432 lineto 0 432 lineto
closepath fill
gsave
1.0 1.0 scale
1 1 1 C
newpath 0 0 moveto 576 0 lineto 576 432 lineto 0 432 lineto
closepath fill
newpath 0 0 moveto 576 0 lineto 576 432 lineto 0 432 lineto
closepath clip
1 1 1 C
521.28 57.0168 74.88 57.0168 74.88 399.6 T
521.28 399.6 521.28 57.0168 74.88 399.6 T
0.5 W
0.15 0.15 0.15 C
74.88 57.0168 LS
74.88 61.4753 LE
74.88 399.6 LS
74.88 395.141 LE
164.16 57.0168 LS
164.16 61.4753 LE
164.16 399.6 LS
164.16 395.141 LE
253.44 57.0168 LS
253.44 61.4753 LE
253.44 399.6 LS
253.44 395.141 LE
342.72 57.0168 LS
342.72 61.4753 LE
342.72 399.6 LS
342.72 395.141 LE
432 57.0168 LS
432 61.4753 LE
432 399.6 LS
432 395.141 LE
521.28 57.0168 LS
521.28 61.4753 LE
521.28 399.6 LS
521.28 395.141 LE
gsave
0.14902 0.14902 0.14902 C
(0.1) [11 5 10] 0 61.38 27.035 20 /Helvetica SRX
grestore

gsave
0.14902 0.14902 0.14902 C
(0.2) [11 5 10] 0 150.66 27.035 20 /Helvetica SRX
grestore

gsave
0.14902 0.14902 0.14902 C
(0.3) [11 5 10] 0 239.94 27.035 20 /Helvetica SRX
grestore

gsave
0.14902 0.14902 0.14902 C
(0.4) [11 5 10] 0 329.22 27.035 20 /Helvetica SRX
grestore

gsave
0.14902 0.14902 0.14902 C
(0.5) [11 5 10] 0 418.5 27.035 20 /Helvetica SRX
grestore

gsave
0.14902 0.14902 0.14902 C
(0.6) [11 5 10] 0 507.78 27.035 20 /Helvetica SRX
grestore

74.88 57.0168 LS
79.348 57.0168 LE
521.28 57.0168 LS
516.812 57.0168 LE
74.88 125.533 LS
79.348 125.533 LE
521.28 125.533 LS
516.812 125.533 LE
74.88 194.05 LS
79.348 194.05 LE
521.28 194.05 LS
516.812 194.05 LE
74.88 262.567 LS
79.348 262.567 LE
521.28 262.567 LS
516.812 262.567 LE
74.88 331.083 LS
79.348 331.083 LE
521.28 331.083 LS
516.812 331.083 LE
74.88 399.6 LS
79.348 399.6 LE
521.28 399.6 LS
516.812 399.6 LE
gsave
0.14902 0.14902 0.14902 C
(20) [11 10] 0 42.871 49.5167 20 /Helvetica SRX
grestore

gsave
0.14902 0.14902 0.14902 C
(40) [11 10] 0 42.871 118.033 20 /Helvetica SRX
grestore

gsave
0.14902 0.14902 0.14902 C
(60) [11 10] 0 42.871 186.55 20 /Helvetica SRX
grestore

gsave
0.14902 0.14902 0.14902 C
(80) [11 10] 0 42.871 255.067 20 /Helvetica SRX
grestore

gsave
0.14902 0.14902 0.14902 C
(100) [11 11 10] 0 31.871 323.583 20 /Helvetica SRX
grestore

gsave
0.14902 0.14902 0.14902 C
(120) [11 11 10] 0 31.871 392.1 20 /Helvetica SRX
grestore

2 LC
[16 0] 0 setdash
74.88 57.0168 LS
521.28 57.0168 LE
74.88 399.6 LS
521.28 399.6 LE
74.88 57.0168 LS
74.88 399.6 LE
521.28 57.0168 LS
521.28 399.6 LE
gsave
0.14902 0.14902 0.14902 C
(Frechet Inception Score) [13 7 12 11 12 12 6 6 6 12 11 12 12 6 5 12 12 6 15 11 12 7 10] 90 21.871 113.308 22 /Helvetica SRX
grestore

gsave
0.14902 0.14902 0.14902 C
(weighting parameter ) [16 12 5 12 12 6 5 12 12 6 12 12 7 12 18 12 6 12 7 10] 0 191.08 5.03497 22 /Helvetica SRX
(l) [10] 0 393.08 5.03497 22 /Symbol SRX
grestore

2 W
0 LC
1 LJ
[8 8 8 8] 0 setdash
0 0 1 C
103.349 399.943 LS
164.16 276.27 L
253.44 215.633 L
342.72 209.466 L
432 219.059 L
521.28 223.17 LE
[] 0 setdash
74.88 187.541 LS
164.16 190.282 L
253.44 189.939 L
342.72 198.504 L
432 200.902 L
521.28 210.494 LE
0 0 0 C
74.88 204.328 LS
92.736 204.328 LE
gsave
0 0 0 C
(VAE) [13 13 10] 0 101.664 196.328 20 /Helvetica SRX
grestore

74.88 176.921 LS
92.736 176.921 LE
gsave
0 0 0 C
(WAE-MMD) [19 13 13 7 17 17 10] 0 101.664 168.921 20 /Helvetica SRX
grestore

74.88 132.385 LS
92.736 132.385 LE
gsave
0 0 0 C
(WAE-GAN) [19 13 13 7 15 13 10] 0 101.664 124.885 20 /Helvetica SRX
grestore

gsave
0 0 0 C
(PPAE \(matched\)) [13 13 13 13 5 7 16 11 6 10 11 11 11 10] 0 342.72 170.921 20 /Helvetica SRX
grestore

gsave
0 0 0 C
(PPAE \(standard\)) [13 13 13 13 5 7 10 6 11 11 11 11 7 11 10] 0 342.72 232.586 20 /Helvetica SRX
grestore

grestore
grestore
showpage
cleartomark
%%PageTrailer
%%Trailer
end
%%EOF
