%!PS-Adobe-3.0 EPSF-3.0
%%Title: gl2ps_renderer figure
%%Creator: GL2PS 1.4.2, (C) 1999-2020 C. Geuzaine
%%For: Octave
%%CreationDate: Tue Sep 29 14:54:49 2020
%%LanguageLevel: 3
%%DocumentData: Clean7Bit
%%Pages: 1
%%BoundingBox: 0 0 576 432
%%EndComments
%%BeginProlog
/gl2psdict 64 dict def gl2psdict begin
/tryPS3shading false def % set to false to force subdivision
/rThreshold 0.064 def % red component subdivision threshold
/gThreshold 0.034 def % green component subdivision threshold
/bThreshold 0.1 def % blue component subdivision threshold
/BD { bind def } bind def
/C  { setrgbcolor } BD
/G  { 0.082 mul exch 0.6094 mul add exch 0.3086 mul add neg 1.0 add setgray } BD
/W  { setlinewidth } BD
/LC  { setlinecap } BD
/LJ  { setlinejoin } BD
/FC { findfont exch /SH exch def SH scalefont setfont } BD
/SW { dup stringwidth pop } BD
/S  { FC moveto show } BD
/SBC{ FC moveto SW -2 div 0 rmoveto show } BD
/SBR{ FC moveto SW neg 0 rmoveto show } BD
/SCL{ FC moveto 0 SH -2 div rmoveto show } BD
/SCC{ FC moveto SW -2 div SH -2 div rmoveto show } BD
/SCR{ FC moveto SW neg SH -2 div rmoveto show } BD
/STL{ FC moveto 0 SH neg rmoveto show } BD
/STC{ FC moveto SW -2 div SH neg rmoveto show } BD
/STR{ FC moveto SW neg SH neg rmoveto show } BD
/FCT { FC translate 0 0 } BD
/SR  { gsave FCT moveto rotate show grestore } BD
/SRX  { gsave FCT moveto rotate xshow grestore } BD
/SBCR{ gsave FCT moveto rotate SW -2 div 0 rmoveto show grestore } BD
/SBRR{ gsave FCT moveto rotate SW neg 0 rmoveto show grestore } BD
/SCLR{ gsave FCT moveto rotate 0 SH -2 div rmoveto show grestore} BD
/SCCR{ gsave FCT moveto rotate SW -2 div SH -2 div rmoveto show grestore} BD
/SCRR{ gsave FCT moveto rotate SW neg SH -2 div rmoveto show grestore} BD
/STLR{ gsave FCT moveto rotate 0 SH neg rmoveto show grestore } BD
/STCR{ gsave FCT moveto rotate SW -2 div SH neg rmoveto show grestore } BD
/STRR{ gsave FCT moveto rotate SW neg SH neg rmoveto show grestore } BD
/P  { newpath 0.0 360.0 arc closepath fill } BD
/LS { newpath moveto } BD
/L  { lineto } BD
/LE { lineto stroke } BD
/T  { newpath moveto lineto lineto closepath fill } BD
/STshfill {
      /b1 exch def /g1 exch def /r1 exch def /y1 exch def /x1 exch def
      /b2 exch def /g2 exch def /r2 exch def /y2 exch def /x2 exch def
      /b3 exch def /g3 exch def /r3 exch def /y3 exch def /x3 exch def
      gsave << /ShadingType 4 /ColorSpace [/DeviceRGB]
      /DataSource [ 0 x1 y1 r1 g1 b1 0 x2 y2 r2 g2 b2 0 x3 y3 r3 g3 b3 ] >>
      shfill grestore } BD
/Tm { 3 -1 roll 8 -1 roll 13 -1 roll add add 3 div
      3 -1 roll 7 -1 roll 11 -1 roll add add 3 div
      3 -1 roll 6 -1 roll 9 -1 roll add add 3 div C T } BD
/STsplit {
      4 index 15 index add 0.5 mul
      4 index 15 index add 0.5 mul
      4 index 15 index add 0.5 mul
      4 index 15 index add 0.5 mul
      4 index 15 index add 0.5 mul
      5 copy 5 copy 25 15 roll
      9 index 30 index add 0.5 mul
      9 index 30 index add 0.5 mul
      9 index 30 index add 0.5 mul
      9 index 30 index add 0.5 mul
      9 index 30 index add 0.5 mul
      5 copy 5 copy 35 5 roll 25 5 roll 15 5 roll
      4 index 10 index add 0.5 mul
      4 index 10 index add 0.5 mul
      4 index 10 index add 0.5 mul
      4 index 10 index add 0.5 mul
      4 index 10 index add 0.5 mul
      5 copy 5 copy 40 5 roll 25 5 roll 15 5 roll 25 5 roll
      STnoshfill STnoshfill STnoshfill STnoshfill } BD
/STnoshfill {
      2 index 8 index sub abs rThreshold gt
      { STsplit }
      { 1 index 7 index sub abs gThreshold gt
        { STsplit }
        { dup 6 index sub abs bThreshold gt
          { STsplit }
          { 2 index 13 index sub abs rThreshold gt
            { STsplit }
            { 1 index 12 index sub abs gThreshold gt
              { STsplit }
              { dup 11 index sub abs bThreshold gt
                { STsplit }
                { 7 index 13 index sub abs rThreshold gt
                  { STsplit }
                  { 6 index 12 index sub abs gThreshold gt
                    { STsplit }
                    { 5 index 11 index sub abs bThreshold gt
                      { STsplit }
                      { Tm }
                      ifelse }
                    ifelse }
                  ifelse }
                ifelse }
              ifelse }
            ifelse }
          ifelse }
        ifelse }
      ifelse } BD
tryPS3shading
{ /shfill where
  { /ST { STshfill } BD }
  { /ST { STnoshfill } BD }
  ifelse }
{ /ST { STnoshfill } BD }
ifelse
end
%%EndProlog
%%BeginSetup
/DeviceRGB setcolorspace
gl2psdict begin
%%EndSetup
%%Page: 1 1
%%BeginPageSetup
%%EndPageSetup
mark
gsave
1.0 1.0 scale
1 1 1 C
newpath 0 0 moveto 576 0 lineto 576 432 lineto 0 432 lineto
closepath fill
gsave
1.0 1.0 scale
1 1 1 C
newpath 0 0 moveto 576 0 lineto 576 432 lineto 0 432 lineto
closepath fill
newpath 0 0 moveto 576 0 lineto 576 432 lineto 0 432 lineto
closepath clip
1 1 1 C
521.28 57.0167 74.88 57.0167 74.88 399.6 T
521.28 399.6 521.28 57.0167 74.88 399.6 T
0.5 W
0.15 0.15 0.15 C
119.52 57.0167 LS
119.52 61.4753 LE
119.52 399.6 LS
119.52 395.141 LE
208.8 57.0167 LS
208.8 61.4753 LE
208.8 399.6 LS
208.8 395.141 LE
298.08 57.0167 LS
298.08 61.4753 LE
298.08 399.6 LS
298.08 395.141 LE
387.36 57.0167 LS
387.36 61.4753 LE
387.36 399.6 LS
387.36 395.141 LE
476.64 57.0167 LS
476.64 61.4753 LE
476.64 399.6 LS
476.64 395.141 LE
gsave
0.14902 0.14902 0.14902 C
(-4) [7 10] 0 110.52 27.035 20 /Helvetica SRX
grestore

gsave
0.14902 0.14902 0.14902 C
(-2) [7 10] 0 199.8 27.035 20 /Helvetica SRX
grestore

gsave
0.14902 0.14902 0.14902 C
(0) [10] 0 292.58 27.035 20 /Helvetica SRX
grestore

gsave
0.14902 0.14902 0.14902 C
(2) [10] 0 381.86 27.035 20 /Helvetica SRX
grestore

gsave
0.14902 0.14902 0.14902 C
(4) [10] 0 471.14 27.035 20 /Helvetica SRX
grestore

74.88 57.0167 LS
79.348 57.0167 LE
521.28 57.0167 LS
516.812 57.0167 LE
74.88 228.308 LS
79.348 228.308 LE
521.28 228.308 LS
516.812 228.308 LE
74.88 399.6 LS
79.348 399.6 LE
521.28 399.6 LS
516.812 399.6 LE
gsave
0.14902 0.14902 0.14902 C
(-0.2) [7 11 5 10] 0 30.871 49.5167 20 /Helvetica SRX
grestore

gsave
0.14902 0.14902 0.14902 C
(-0.1) [7 11 5 10] 0 30.871 220.808 20 /Helvetica SRX
grestore

gsave
0.14902 0.14902 0.14902 C
(0) [10] 0 53.871 392.1 20 /Helvetica SRX
grestore

2 LC
[16 0] 0 setdash
74.88 57.0167 LS
521.28 57.0167 LE
74.88 399.6 LS
521.28 399.6 LE
74.88 57.0167 LS
74.88 399.6 LE
521.28 57.0167 LS
521.28 399.6 LE
gsave
0.14902 0.14902 0.14902 C
(Ellipsoidal Energy) [14 5 5 5 12 11 12 5 12 12 5 6 14 12 12 7 12 10] 90 20.871 142.308 22 /Helvetica SRX
grestore

gsave
0.14902 0.14902 0.14902 C
(m) [10] 0 162.08 5.03497 22 /Symbol SRX
(, ) [6 10] 0 174.08 5.03497 22 /Helvetica SRX
(n) [10] 0 186.08 5.03497 22 /Symbol SRX
(, ) [6 10] 0 197.08 5.03497 22 /Helvetica SRX
(e) [10] 0 209.08 5.03497 22 /Symbol SRX
( \(Wasserstein scaling\)) [6 7 21 12 11 11 12 7 11 6 12 5 12 6 11 11 12 5 5 12 12 10] 0 220.08 5.03497 22 /Helvetica SRX
grestore

2 W
0 LC
1 LJ
[] 0 setdash
0.6 0 0 C
298.08 70.9764 LS
302.544 70.978 L
307.008 70.9829 L
311.472 70.9913 L
315.936 71.0031 L
320.4 71.0182 L
324.864 71.0367 L
329.328 71.0586 L
333.792 71.084 L
338.256 71.1126 L
342.72 71.1447 L
347.184 71.1802 L
351.648 71.2191 L
356.112 71.2613 L
360.576 71.307 L
365.04 71.3561 L
369.504 71.4085 L
373.968 71.4644 L
378.432 71.5236 L
382.896 71.5863 L
387.36 71.6524 L
391.824 71.7219 L
396.288 71.7948 L
400.752 71.8711 L
405.216 71.9508 L
409.68 72.034 L
414.144 72.1206 L
418.608 72.2106 L
423.072 72.304 L
427.536 72.4009 L
432 72.5012 L
436.464 72.605 L
440.928 72.7122 L
445.392 72.8228 L
449.856 72.9369 L
454.32 73.0545 L
458.784 73.1755 L
463.248 73.3 L
467.712 73.4279 L
472.176 73.5593 L
476.64 73.6942 L
481.104 73.8326 L
485.568 73.9745 L
490.032 74.1199 L
494.496 74.2687 L
498.96 74.4211 L
503.424 74.577 L
507.888 74.7364 L
512.352 74.8993 L
516.816 75.0658 L
521.28 75.2358 LE
3 W
[3 3 3 3 3 3 3 3 3 3] 0 setdash
0 0.4 0 C
298.08 70.9764 LS
302.544 71.0184 L
307.008 71.1447 L
311.472 71.3549 L
315.936 71.649 L
320.4 72.0267 L
324.864 72.488 L
329.328 73.0325 L
333.792 73.66 L
338.256 74.3703 L
342.72 75.1631 L
347.184 76.038 L
351.648 76.9948 L
356.112 78.0332 L
360.576 79.1527 L
365.04 80.353 L
369.504 81.6338 L
373.968 82.9945 L
378.432 84.4349 L
382.896 85.9544 L
387.36 87.5527 L
391.824 89.2294 L
396.288 90.9839 L
400.752 92.8159 L
405.216 94.7249 L
409.68 96.7104 L
414.144 98.7721 L
418.608 100.909 L
423.072 103.122 L
427.536 105.409 L
432 107.771 L
436.464 110.207 L
440.928 112.717 L
445.392 115.3 L
449.856 117.956 L
454.32 120.685 L
458.784 123.486 L
463.248 126.359 L
467.712 129.304 L
472.176 132.321 L
476.64 135.41 L
481.104 138.57 L
485.568 141.802 L
490.032 145.105 L
494.496 148.479 L
498.96 151.925 L
503.424 155.443 L
507.888 159.032 L
512.352 162.693 L
516.816 166.426 L
521.28 170.232 LE
2 W
[8 8 8 8] 0 setdash
0 0 0.8 C
74.88 232.486 LS
79.344 227.386 L
83.808 222.298 L
88.272 217.227 L
92.736 212.176 L
97.2 207.152 L
101.664 202.158 L
106.128 197.199 L
110.592 192.279 L
115.056 187.403 L
119.52 182.575 L
123.984 177.8 L
128.448 173.082 L
132.912 168.425 L
137.376 163.833 L
141.84 159.31 L
146.304 154.86 L
150.768 150.487 L
155.232 146.195 L
159.696 141.988 L
164.16 137.869 L
168.624 133.843 L
173.088 129.911 L
177.552 126.079 L
182.016 122.35 L
186.48 118.726 L
190.944 115.212 L
195.408 111.81 L
199.872 108.524 L
204.336 105.356 L
208.8 102.31 L
213.264 99.3879 L
217.728 96.5938 L
222.192 93.9299 L
226.656 91.399 L
231.12 89.0038 L
235.584 86.7468 L
240.048 84.6306 L
244.512 82.6578 L
248.976 80.8306 L
253.44 79.1514 L
257.904 77.6226 L
262.368 76.2463 L
266.832 75.0248 L
271.296 73.9601 L
275.76 73.0543 L
280.224 72.3094 L
284.688 71.7272 L
289.152 71.3098 L
293.616 71.059 L
298.08 70.9764 L
302.544 71.0638 L
307.008 71.323 L
311.472 71.7555 L
315.936 72.363 L
320.4 73.1469 L
324.864 74.1087 L
329.328 75.2498 L
333.792 76.5717 L
338.256 78.0757 L
342.72 79.7631 L
347.184 81.6352 L
351.648 83.6932 L
356.112 85.9382 L
360.576 88.3715 L
365.04 90.9941 L
369.504 93.807 L
373.968 96.8114 L
378.432 100.008 L
382.896 103.398 L
387.36 106.983 L
391.824 110.763 L
396.288 114.738 L
400.752 118.911 L
405.216 123.281 L
409.68 127.85 L
414.144 132.618 L
418.608 137.586 L
423.072 142.755 L
427.536 148.125 L
432 153.697 L
436.464 159.471 L
440.928 165.449 L
445.392 171.63 L
449.856 178.016 L
454.32 184.606 L
458.784 191.401 L
463.248 198.402 L
467.712 205.61 L
472.176 213.024 L
476.64 220.645 L
481.104 228.473 L
485.568 236.51 L
490.032 244.754 L
494.496 253.207 L
498.96 261.869 L
503.424 270.739 L
507.888 279.82 L
512.352 289.11 L
516.816 298.61 L
521.28 308.32 LE
grestore
grestore
showpage
cleartomark
%%PageTrailer
%%Trailer
end
%%EOF
