%!PS-Adobe-3.0 EPSF-3.0
%%Title: gl2ps_renderer figure
%%Creator: GL2PS 1.4.0, (C) 1999-2017 C. Geuzaine
%%For: Octave
%%CreationDate: Fri Jun  5 17:10:43 2020
%%LanguageLevel: 3
%%DocumentData: Clean7Bit
%%Pages: 1
%%BoundingBox: 0 0 576 432
%%EndComments
%%BeginProlog
/gl2psdict 64 dict def gl2psdict begin
/tryPS3shading false def % set to false to force subdivision
/rThreshold 0.064 def % red component subdivision threshold
/gThreshold 0.034 def % green component subdivision threshold
/bThreshold 0.1 def % blue component subdivision threshold
/BD { bind def } bind def
/C  { setrgbcolor } BD
/G  { 0.082 mul exch 0.6094 mul add exch 0.3086 mul add neg 1.0 add setgray } BD
/W  { setlinewidth } BD
/LC  { setlinecap } BD
/LJ  { setlinejoin } BD
/FC { findfont exch /SH exch def SH scalefont setfont } BD
/SW { dup stringwidth pop } BD
/S  { FC moveto show } BD
/SBC{ FC moveto SW -2 div 0 rmoveto show } BD
/SBR{ FC moveto SW neg 0 rmoveto show } BD
/SCL{ FC moveto 0 SH -2 div rmoveto show } BD
/SCC{ FC moveto SW -2 div SH -2 div rmoveto show } BD
/SCR{ FC moveto SW neg SH -2 div rmoveto show } BD
/STL{ FC moveto 0 SH neg rmoveto show } BD
/STC{ FC moveto SW -2 div SH neg rmoveto show } BD
/STR{ FC moveto SW neg SH neg rmoveto show } BD
/FCT { FC translate 0 0 } BD
/SR  { gsave FCT moveto rotate show grestore } BD
/SRX  { gsave FCT moveto rotate xshow grestore } BD
/SBCR{ gsave FCT moveto rotate SW -2 div 0 rmoveto show grestore } BD
/SBRR{ gsave FCT moveto rotate SW neg 0 rmoveto show grestore } BD
/SCLR{ gsave FCT moveto rotate 0 SH -2 div rmoveto show grestore} BD
/SCCR{ gsave FCT moveto rotate SW -2 div SH -2 div rmoveto show grestore} BD
/SCRR{ gsave FCT moveto rotate SW neg SH -2 div rmoveto show grestore} BD
/STLR{ gsave FCT moveto rotate 0 SH neg rmoveto show grestore } BD
/STCR{ gsave FCT moveto rotate SW -2 div SH neg rmoveto show grestore } BD
/STRR{ gsave FCT moveto rotate SW neg SH neg rmoveto show grestore } BD
/P  { newpath 0.0 360.0 arc closepath fill } BD
/LS { newpath moveto } BD
/L  { lineto } BD
/LE { lineto stroke } BD
/T  { newpath moveto lineto lineto closepath fill } BD
/STshfill {
      /b1 exch def /g1 exch def /r1 exch def /y1 exch def /x1 exch def
      /b2 exch def /g2 exch def /r2 exch def /y2 exch def /x2 exch def
      /b3 exch def /g3 exch def /r3 exch def /y3 exch def /x3 exch def
      gsave << /ShadingType 4 /ColorSpace [/DeviceRGB]
      /DataSource [ 0 x1 y1 r1 g1 b1 0 x2 y2 r2 g2 b2 0 x3 y3 r3 g3 b3 ] >>
      shfill grestore } BD
/Tm { 3 -1 roll 8 -1 roll 13 -1 roll add add 3 div
      3 -1 roll 7 -1 roll 11 -1 roll add add 3 div
      3 -1 roll 6 -1 roll 9 -1 roll add add 3 div C T } BD
/STsplit {
      4 index 15 index add 0.5 mul
      4 index 15 index add 0.5 mul
      4 index 15 index add 0.5 mul
      4 index 15 index add 0.5 mul
      4 index 15 index add 0.5 mul
      5 copy 5 copy 25 15 roll
      9 index 30 index add 0.5 mul
      9 index 30 index add 0.5 mul
      9 index 30 index add 0.5 mul
      9 index 30 index add 0.5 mul
      9 index 30 index add 0.5 mul
      5 copy 5 copy 35 5 roll 25 5 roll 15 5 roll
      4 index 10 index add 0.5 mul
      4 index 10 index add 0.5 mul
      4 index 10 index add 0.5 mul
      4 index 10 index add 0.5 mul
      4 index 10 index add 0.5 mul
      5 copy 5 copy 40 5 roll 25 5 roll 15 5 roll 25 5 roll
      STnoshfill STnoshfill STnoshfill STnoshfill } BD
/STnoshfill {
      2 index 8 index sub abs rThreshold gt
      { STsplit }
      { 1 index 7 index sub abs gThreshold gt
        { STsplit }
        { dup 6 index sub abs bThreshold gt
          { STsplit }
          { 2 index 13 index sub abs rThreshold gt
            { STsplit }
            { 1 index 12 index sub abs gThreshold gt
              { STsplit }
              { dup 11 index sub abs bThreshold gt
                { STsplit }
                { 7 index 13 index sub abs rThreshold gt
                  { STsplit }
                  { 6 index 12 index sub abs gThreshold gt
                    { STsplit }
                    { 5 index 11 index sub abs bThreshold gt
                      { STsplit }
                      { Tm }
                      ifelse }
                    ifelse }
                  ifelse }
                ifelse }
              ifelse }
            ifelse }
          ifelse }
        ifelse }
      ifelse } BD
tryPS3shading
{ /shfill where
  { /ST { STshfill } BD }
  { /ST { STnoshfill } BD }
  ifelse }
{ /ST { STnoshfill } BD }
ifelse
end
%%EndProlog
%%BeginSetup
/DeviceRGB setcolorspace
gl2psdict begin
%%EndSetup
%%Page: 1 1
%%BeginPageSetup
%%EndPageSetup
mark
gsave
1.0 1.0 scale
1 1 1 C
newpath 0 0 moveto 576 0 lineto 576 432 lineto 0 432 lineto
closepath fill
gsave
1.0 1.0 scale
1 1 1 C
newpath 0 0 moveto 576 0 lineto 576 432 lineto 0 432 lineto
closepath fill
newpath 0 0 moveto 576 0 lineto 576 432 lineto 0 432 lineto
closepath clip
1 1 1 C
521.28 62.0051 74.88 62.0051 74.88 399.6 T
521.28 399.6 521.28 62.0051 74.88 399.6 T
0.5 W
0.15 0.15 0.15 C
74.88 62.0051 LS
74.88 66.4637 LE
74.88 399.6 LS
74.88 395.141 LE
298.08 62.0051 LS
298.08 66.4637 LE
298.08 399.6 LS
298.08 395.141 LE
521.28 62.0051 LS
521.28 66.4637 LE
521.28 399.6 LS
521.28 395.141 LE
gsave
0.14902 0.14902 0.14902 C
(0) [10] 0 68.38 26.0266 24 /Helvetica SRX
grestore

gsave
0.14902 0.14902 0.14902 C
(5) [10] 0 291.58 26.0266 24 /Helvetica SRX
grestore

gsave
0.14902 0.14902 0.14902 C
(10) [13 10] 0 508.28 26.0266 24 /Helvetica SRX
grestore

74.88 62.0051 LS
79.348 62.0051 LE
521.28 62.0051 LS
516.812 62.0051 LE
74.88 399.6 LS
79.348 399.6 LE
521.28 399.6 LS
516.812 399.6 LE
gsave
0.14902 0.14902 0.14902 C
(0) [10] 0 49.8692 53.0051 24 /Helvetica SRX
grestore

gsave
0.14902 0.14902 0.14902 C
(1) [10] 0 49.8692 390.6 24 /Helvetica SRX
grestore

2 LC
[16 0] 0 setdash
74.88 62.0051 LS
521.28 62.0051 LE
74.88 399.6 LS
521.28 399.6 LE
74.88 62.0051 LS
74.88 399.6 LE
521.28 62.0051 LS
521.28 399.6 LE
gsave
0.14902 0.14902 0.14902 C
(distance between items) [15 6 13 7 14 14 13 14 7 15 14 7 19 14 14 14 7 6 7 14 21 10] 0 164.08 1.02663 26.4 /Helvetica SRX
grestore

gsave
0.14902 0.14902 0.14902 C
(pairwise repulsive force) [15 14 6 9 19 6 13 14 7 9 14 15 14 6 13 6 13 14 7 7 14 9 13 10] 90 38.8692 95.3025 26.4 /Helvetica SRX
grestore

2 W
0 LC
1 LJ
[] 0 setdash
0 0 1 C
74.88 62.0051 LS
79.344 71.4577 L
83.808 80.9104 L
88.272 90.363 L
92.736 99.4781 L
97.2 108.931 L
101.664 118.046 L
106.128 126.823 L
110.592 135.938 L
115.056 144.378 L
119.52 152.818 L
123.984 161.258 L
128.448 169.36 L
132.912 177.125 L
137.376 184.89 L
141.84 192.317 L
146.304 199.406 L
150.768 206.496 L
155.232 212.91 L
159.696 219.324 L
164.16 225.401 L
168.624 231.14 L
173.088 236.879 L
177.552 241.943 L
182.016 247.007 L
186.48 251.733 L
190.944 256.46 L
195.408 260.511 L
199.872 264.562 L
204.336 268.276 L
208.8 271.652 L
213.264 275.027 L
217.728 277.728 L
222.192 280.767 L
226.656 283.13 L
231.12 285.493 L
235.584 287.518 L
240.048 289.544 L
244.512 291.232 L
248.976 292.92 L
253.44 294.27 L
257.904 295.621 L
262.368 296.634 L
266.832 297.646 L
271.296 298.322 L
275.76 298.997 L
280.224 299.672 L
284.688 300.009 L
289.152 300.347 L
293.616 300.685 L
298.08 300.685 L
302.544 300.685 L
307.008 300.685 L
311.472 300.347 L
315.936 300.347 L
320.4 300.009 L
324.864 299.334 L
329.328 298.997 L
333.792 298.322 L
338.256 297.984 L
342.72 297.309 L
347.184 296.634 L
351.648 295.621 L
356.112 294.946 L
360.576 294.27 L
365.04 293.258 L
369.504 292.245 L
373.968 291.57 L
378.432 290.557 L
382.896 289.544 L
387.36 288.531 L
391.824 287.518 L
396.288 286.506 L
400.752 285.493 L
405.216 284.143 L
409.68 283.13 L
414.144 282.117 L
418.608 281.104 L
423.072 279.754 L
427.536 278.741 L
432 277.391 L
436.464 276.378 L
440.928 275.027 L
445.392 274.015 L
449.856 272.664 L
454.32 271.652 L
458.784 270.301 L
463.248 269.288 L
467.712 267.938 L
472.176 266.925 L
476.64 265.912 L
481.104 264.562 L
485.568 263.549 L
490.032 262.199 L
494.496 261.186 L
498.96 259.836 L
503.424 258.823 L
507.888 257.473 L
512.352 256.46 L
516.816 255.109 L
521.28 254.097 LE
grestore
grestore
showpage
cleartomark
%%PageTrailer
%%Trailer
end
%%EOF
