%!PS-Adobe-3.0 EPSF-3.0
%%Title: gl2ps_renderer figure
%%Creator: GL2PS 1.4.2, (C) 1999-2020 C. Geuzaine
%%For: Octave
%%CreationDate: Thu Jan 21 07:52:11 2021
%%LanguageLevel: 3
%%DocumentData: Clean7Bit
%%Pages: 1
%%BoundingBox: 0 0 576 432
%%EndComments
%%BeginProlog
/gl2psdict 64 dict def gl2psdict begin
/tryPS3shading false def % set to false to force subdivision
/rThreshold 0.064 def % red component subdivision threshold
/gThreshold 0.034 def % green component subdivision threshold
/bThreshold 0.1 def % blue component subdivision threshold
/BD { bind def } bind def
/C  { setrgbcolor } BD
/G  { 0.082 mul exch 0.6094 mul add exch 0.3086 mul add neg 1.0 add setgray } BD
/W  { setlinewidth } BD
/LC  { setlinecap } BD
/LJ  { setlinejoin } BD
/FC { findfont exch /SH exch def SH scalefont setfont } BD
/SW { dup stringwidth pop } BD
/S  { FC moveto show } BD
/SBC{ FC moveto SW -2 div 0 rmoveto show } BD
/SBR{ FC moveto SW neg 0 rmoveto show } BD
/SCL{ FC moveto 0 SH -2 div rmoveto show } BD
/SCC{ FC moveto SW -2 div SH -2 div rmoveto show } BD
/SCR{ FC moveto SW neg SH -2 div rmoveto show } BD
/STL{ FC moveto 0 SH neg rmoveto show } BD
/STC{ FC moveto SW -2 div SH neg rmoveto show } BD
/STR{ FC moveto SW neg SH neg rmoveto show } BD
/FCT { FC translate 0 0 } BD
/SR  { gsave FCT moveto rotate show grestore } BD
/SRX  { gsave FCT moveto rotate xshow grestore } BD
/SBCR{ gsave FCT moveto rotate SW -2 div 0 rmoveto show grestore } BD
/SBRR{ gsave FCT moveto rotate SW neg 0 rmoveto show grestore } BD
/SCLR{ gsave FCT moveto rotate 0 SH -2 div rmoveto show grestore} BD
/SCCR{ gsave FCT moveto rotate SW -2 div SH -2 div rmoveto show grestore} BD
/SCRR{ gsave FCT moveto rotate SW neg SH -2 div rmoveto show grestore} BD
/STLR{ gsave FCT moveto rotate 0 SH neg rmoveto show grestore } BD
/STCR{ gsave FCT moveto rotate SW -2 div SH neg rmoveto show grestore } BD
/STRR{ gsave FCT moveto rotate SW neg SH neg rmoveto show grestore } BD
/P  { newpath 0.0 360.0 arc closepath fill } BD
/LS { newpath moveto } BD
/L  { lineto } BD
/LE { lineto stroke } BD
/T  { newpath moveto lineto lineto closepath fill } BD
/STshfill {
      /b1 exch def /g1 exch def /r1 exch def /y1 exch def /x1 exch def
      /b2 exch def /g2 exch def /r2 exch def /y2 exch def /x2 exch def
      /b3 exch def /g3 exch def /r3 exch def /y3 exch def /x3 exch def
      gsave << /ShadingType 4 /ColorSpace [/DeviceRGB]
      /DataSource [ 0 x1 y1 r1 g1 b1 0 x2 y2 r2 g2 b2 0 x3 y3 r3 g3 b3 ] >>
      shfill grestore } BD
/Tm { 3 -1 roll 8 -1 roll 13 -1 roll add add 3 div
      3 -1 roll 7 -1 roll 11 -1 roll add add 3 div
      3 -1 roll 6 -1 roll 9 -1 roll add add 3 div C T } BD
/STsplit {
      4 index 15 index add 0.5 mul
      4 index 15 index add 0.5 mul
      4 index 15 index add 0.5 mul
      4 index 15 index add 0.5 mul
      4 index 15 index add 0.5 mul
      5 copy 5 copy 25 15 roll
      9 index 30 index add 0.5 mul
      9 index 30 index add 0.5 mul
      9 index 30 index add 0.5 mul
      9 index 30 index add 0.5 mul
      9 index 30 index add 0.5 mul
      5 copy 5 copy 35 5 roll 25 5 roll 15 5 roll
      4 index 10 index add 0.5 mul
      4 index 10 index add 0.5 mul
      4 index 10 index add 0.5 mul
      4 index 10 index add 0.5 mul
      4 index 10 index add 0.5 mul
      5 copy 5 copy 40 5 roll 25 5 roll 15 5 roll 25 5 roll
      STnoshfill STnoshfill STnoshfill STnoshfill } BD
/STnoshfill {
      2 index 8 index sub abs rThreshold gt
      { STsplit }
      { 1 index 7 index sub abs gThreshold gt
        { STsplit }
        { dup 6 index sub abs bThreshold gt
          { STsplit }
          { 2 index 13 index sub abs rThreshold gt
            { STsplit }
            { 1 index 12 index sub abs gThreshold gt
              { STsplit }
              { dup 11 index sub abs bThreshold gt
                { STsplit }
                { 7 index 13 index sub abs rThreshold gt
                  { STsplit }
                  { 6 index 12 index sub abs gThreshold gt
                    { STsplit }
                    { 5 index 11 index sub abs bThreshold gt
                      { STsplit }
                      { Tm }
                      ifelse }
                    ifelse }
                  ifelse }
                ifelse }
              ifelse }
            ifelse }
          ifelse }
        ifelse }
      ifelse } BD
tryPS3shading
{ /shfill where
  { /ST { STshfill } BD }
  { /ST { STnoshfill } BD }
  ifelse }
{ /ST { STnoshfill } BD }
ifelse
end
%%EndProlog
%%BeginSetup
/DeviceRGB setcolorspace
gl2psdict begin
%%EndSetup
%%Page: 1 1
%%BeginPageSetup
%%EndPageSetup
mark
gsave
1.0 1.0 scale
1 1 1 C
newpath 0 0 moveto 576 0 lineto 576 432 lineto 0 432 lineto
closepath fill
gsave
1.0 1.0 scale
1 1 1 C
newpath 0 0 moveto 576 0 lineto 576 432 lineto 0 432 lineto
closepath fill
newpath 0 0 moveto 576 0 lineto 576 432 lineto 0 432 lineto
closepath clip
1 1 1 C
521.28 57.0168 74.88 57.0168 74.88 399.6 T
521.28 399.6 521.28 57.0168 74.88 399.6 T
0.5 W
0.15 0.15 0.15 C
81.7477 57.0168 LS
81.7477 61.4753 LE
81.7477 399.6 LS
81.7477 395.141 LE
143.557 57.0168 LS
143.557 61.4753 LE
143.557 399.6 LS
143.557 395.141 LE
205.366 57.0168 LS
205.366 61.4753 LE
205.366 399.6 LS
205.366 395.141 LE
267.175 57.0168 LS
267.175 61.4753 LE
267.175 399.6 LS
267.175 395.141 LE
328.985 57.0168 LS
328.985 61.4753 LE
328.985 399.6 LS
328.985 395.141 LE
390.794 57.0168 LS
390.794 61.4753 LE
390.794 399.6 LS
390.794 395.141 LE
452.603 57.0168 LS
452.603 61.4753 LE
452.603 399.6 LS
452.603 395.141 LE
514.412 57.0168 LS
514.412 61.4753 LE
514.412 399.6 LS
514.412 395.141 LE
gsave
0.14902 0.14902 0.14902 C
(1) [10] 0 76.2477 27.035 20 /Helvetica SRX
grestore

gsave
0.14902 0.14902 0.14902 C
(10) [11 10] 0 132.557 27.035 20 /Helvetica SRX
grestore

gsave
0.14902 0.14902 0.14902 C
(19) [11 10] 0 194.366 27.035 20 /Helvetica SRX
grestore

gsave
0.14902 0.14902 0.14902 C
(28) [11 10] 0 256.175 27.035 20 /Helvetica SRX
grestore

gsave
0.14902 0.14902 0.14902 C
(37) [11 10] 0 317.985 27.035 20 /Helvetica SRX
grestore

gsave
0.14902 0.14902 0.14902 C
(46) [11 10] 0 379.794 27.035 20 /Helvetica SRX
grestore

gsave
0.14902 0.14902 0.14902 C
(55) [11 10] 0 441.603 27.035 20 /Helvetica SRX
grestore

gsave
0.14902 0.14902 0.14902 C
(64) [11 10] 0 503.412 27.035 20 /Helvetica SRX
grestore

74.88 57.0168 LS
79.348 57.0168 LE
521.28 57.0168 LS
516.812 57.0168 LE
74.88 154.898 LS
79.348 154.898 LE
521.28 154.898 LS
516.812 154.898 LE
74.88 252.779 LS
79.348 252.779 LE
521.28 252.779 LS
516.812 252.779 LE
74.88 350.66 LS
79.348 350.66 LE
521.28 350.66 LS
516.812 350.66 LE
gsave
0.14902 0.14902 0.14902 C
(0) [10] 0 53.871 49.5167 20 /Helvetica SRX
grestore

gsave
0.14902 0.14902 0.14902 C
(1) [10] 0 53.871 147.398 20 /Helvetica SRX
grestore

gsave
0.14902 0.14902 0.14902 C
(2) [10] 0 53.871 245.279 20 /Helvetica SRX
grestore

gsave
0.14902 0.14902 0.14902 C
(3) [10] 0 53.871 343.16 20 /Helvetica SRX
grestore

2 LC
[16 0] 0 setdash
74.88 57.0168 LS
521.28 57.0168 LE
74.88 399.6 LS
521.28 399.6 LE
74.88 57.0168 LS
74.88 399.6 LE
521.28 57.0168 LS
521.28 399.6 LE
gsave
0.14902 0.14902 0.14902 C
(magnitude of eigenvalue) [18 12 12 12 5 6 12 12 12 6 12 6 6 12 5 12 12 12 11 12 5 12 10] 90 43.871 110.308 22 /Helvetica SRX
grestore

gsave
0.14902 0.14902 0.14902 C
(rank order of eigenvalue) [7 12 12 11 6 12 7 12 12 7 6 12 6 6 12 5 12 12 12 11 12 5 12 10] 0 181.58 5.03497 22 /Helvetica SRX
grestore

2 W
0 LC
1 LJ
[] 0 setdash
0 0 1 C
81.7477 374.063 LS
88.6154 300.453 L
95.4831 290.531 L
102.351 278.832 L
109.218 267.926 L
116.086 234.84 L
122.954 225.244 L
129.822 216.891 L
136.689 207.054 L
143.557 201.365 L
150.425 199.455 L
157.292 196.145 L
164.16 190.106 L
171.028 184.803 L
177.895 182.619 L
184.763 178.732 L
191.631 167.539 L
198.498 165.721 L
205.366 164.039 L
212.234 161.879 L
219.102 159.685 L
225.969 154.646 L
232.837 153.091 L
239.705 149.922 L
246.572 147.595 L
253.44 146.114 L
260.308 144.025 L
267.175 142.615 L
274.043 141.371 L
280.911 140.045 L
287.778 139.119 L
294.646 137.601 L
301.514 135.317 L
308.382 135.048 L
315.249 133.203 L
322.117 131.923 L
328.985 130.729 L
335.852 129.497 L
342.72 128.262 L
349.588 127.729 L
356.455 126.107 L
363.323 125.577 L
370.191 124.713 L
377.058 123.959 L
383.926 122.473 L
390.794 121.662 L
397.661 121.198 L
404.529 120.074 L
411.397 118.698 L
418.265 118.062 L
425.132 117.362 L
432 116.973 L
438.868 114.277 L
445.735 114.077 L
452.603 113.824 L
459.471 112.865 L
466.338 112.404 L
473.206 111.655 L
480.074 109.886 L
486.942 109.715 L
493.809 108.087 L
500.677 107.977 L
507.545 105.313 L
514.412 104.086 LE
3 W
[3 3 3 3 3 3 3 3 3 3] 0 setdash
0 0 0 C
81.7477 315.017 LS
88.6154 268.269 L
95.4831 259.763 L
102.351 249.479 L
109.218 242.018 L
116.086 223.409 L
122.954 213.967 L
129.822 205.6 L
136.689 202.995 L
143.557 198.34 L
150.425 196.373 L
157.292 195.583 L
164.16 189.129 L
171.028 178.895 L
177.895 178.452 L
184.763 175.218 L
191.631 173.057 L
198.498 167.953 L
205.366 167.097 L
212.234 165.46 L
219.102 163.573 L
225.969 158.761 L
232.837 155.47 L
239.705 154.002 L
246.572 152.169 L
253.44 148.422 L
260.308 148.016 L
267.175 146.347 L
274.043 145.488 L
280.911 143.453 L
287.778 142.434 L
294.646 141.792 L
301.514 139.443 L
308.382 136.852 L
315.249 136.076 L
322.117 135.632 L
328.985 133.626 L
335.852 132.322 L
342.72 131.156 L
349.588 130.341 L
356.455 129.534 L
363.323 129.113 L
370.191 128.285 L
377.058 125.687 L
383.926 124.152 L
390.794 123.837 L
397.661 123.318 L
404.529 122.838 L
411.397 120.959 L
418.265 120.029 L
425.132 118.976 L
432 118.471 L
438.868 118.007 L
445.735 117.11 L
452.603 116.798 L
459.471 115.596 L
466.338 114.755 L
473.206 113.856 L
480.074 112.858 L
486.942 112.106 L
493.809 110.933 L
500.677 109.362 L
507.545 106.378 L
514.412 105.908 LE
2 W
[8 8 8 8] 0 setdash
0 0 1 C
81.7477 238.799 LS
88.6154 218.626 L
95.4831 210.333 L
102.351 205.37 L
109.218 203.381 L
116.086 201.178 L
122.954 197.017 L
129.822 194.273 L
136.689 192.603 L
143.557 190.902 L
150.425 189.624 L
157.292 186.205 L
164.16 181.887 L
171.028 180.518 L
177.895 179.307 L
184.763 178.617 L
191.631 176.644 L
198.498 175.571 L
205.366 172.751 L
212.234 171.906 L
219.102 169.465 L
225.969 166.614 L
232.837 166.159 L
239.705 164.536 L
246.572 163.741 L
253.44 161.743 L
260.308 159.495 L
267.175 158.904 L
274.043 158.528 L
280.911 157.316 L
287.778 155.449 L
294.646 155.26 L
301.514 154.41 L
308.382 153.187 L
315.249 150.784 L
322.117 150.013 L
328.985 148.287 L
335.852 147.308 L
342.72 145.574 L
349.588 145.026 L
356.455 143.731 L
363.323 142.808 L
370.191 140.801 L
377.058 140.566 L
383.926 137.946 L
390.794 136.061 L
397.661 134.765 L
404.529 133.493 L
411.397 132.204 L
418.265 131.493 L
425.132 129.731 L
432 129.407 L
438.868 127.486 L
445.735 125.886 L
452.603 124.542 L
459.471 123.022 L
466.338 122.035 L
473.206 120.768 L
480.074 118.318 L
486.942 116.544 L
493.809 112.916 L
500.677 111.28 L
507.545 109.084 L
514.412 106.807 LE
[8 2 4 2 8 2 4 2] 0 setdash
0 0 0 C
81.7477 214.231 LS
88.6154 188.714 L
95.4831 186.373 L
102.351 182.673 L
109.218 181.086 L
116.086 179.893 L
122.954 178.633 L
129.822 177.926 L
136.689 175.057 L
143.557 172.894 L
150.425 172.219 L
157.292 170.828 L
164.16 169.752 L
171.028 168.885 L
177.895 167.653 L
184.763 166.917 L
191.631 165.764 L
198.498 164.988 L
205.366 163.883 L
212.234 162.943 L
219.102 162.343 L
225.969 161.132 L
232.837 161.073 L
239.705 160.566 L
246.572 159.371 L
253.44 158.954 L
260.308 158.643 L
267.175 157.951 L
274.043 156.522 L
280.911 156.083 L
287.778 155.749 L
294.646 154.485 L
301.514 153.404 L
308.382 152.71 L
315.249 152.12 L
322.117 151.432 L
328.985 150.905 L
335.852 150.122 L
342.72 148.998 L
349.588 148.209 L
356.455 147.699 L
363.323 147.249 L
370.191 146.887 L
377.058 145.443 L
383.926 145.14 L
390.794 144.52 L
397.661 144.038 L
404.529 142.864 L
411.397 142.552 L
418.265 141.754 L
425.132 141.21 L
432 140.578 L
438.868 140.234 L
445.735 139.889 L
452.603 139.527 L
459.471 138.309 L
466.338 137.363 L
473.206 136.591 L
480.074 135.698 L
486.942 134.776 L
493.809 132.72 L
500.677 131.481 L
507.545 125.466 L
514.412 124.235 LE
[] 0 setdash
0 0 1 C
81.7477 365.547 LS
88.6154 297.929 L
95.4831 285.806 L
102.351 272.278 L
109.218 261.529 L
116.086 232.51 L
122.954 223.005 L
129.822 217.815 L
136.689 208.636 L
143.557 201.595 L
150.425 198.693 L
157.292 196.886 L
164.16 184.812 L
171.028 181.991 L
177.895 177.984 L
184.763 176.588 L
191.631 170.199 L
198.498 165.253 L
205.366 161.339 L
212.234 158.731 L
219.102 158.088 L
225.969 154.521 L
232.837 151.45 L
239.705 148.678 L
246.572 145.602 L
253.44 143.602 L
260.308 142.442 L
267.175 141.041 L
274.043 139.792 L
280.911 138.853 L
287.778 137.88 L
294.646 137.68 L
301.514 135.297 L
308.382 134.115 L
315.249 133.353 L
322.117 130.908 L
328.985 129.74 L
335.852 128.386 L
342.72 127.874 L
349.588 125.732 L
356.455 125.462 L
363.323 125.193 L
370.191 123.656 L
377.058 122.701 L
383.926 121.779 L
390.794 121.588 L
397.661 119.505 L
404.529 119.128 L
411.397 118.782 L
418.265 117.34 L
425.132 116.725 L
432 115.766 L
438.868 114.307 L
445.735 113.77 L
452.603 113.489 L
459.471 112.881 L
466.338 112.189 L
473.206 110.487 L
480.074 110.207 L
486.942 109.689 L
493.809 108.821 L
500.677 107.113 L
507.545 105.31 L
514.412 102.566 LE
81.7477 355.798 LS
88.6154 297.85 L
95.4831 291.002 L
102.351 279.795 L
109.218 264.256 L
116.086 234.306 L
122.954 219.099 L
129.822 211.91 L
136.689 207.279 L
143.557 200.695 L
150.425 197.33 L
157.292 195.345 L
164.16 188.503 L
171.028 179.847 L
177.895 179.13 L
184.763 177.643 L
191.631 168.077 L
198.498 164.032 L
205.366 162.063 L
212.234 160.397 L
219.102 156.409 L
225.969 154.249 L
232.837 153.066 L
239.705 148.633 L
246.572 147.611 L
253.44 146.725 L
260.308 143.685 L
267.175 141.922 L
274.043 140.497 L
280.911 139.096 L
287.778 137.661 L
294.646 136.15 L
301.514 135.049 L
308.382 133.703 L
315.249 132.312 L
322.117 130.923 L
328.985 129.775 L
335.852 128.718 L
342.72 127.668 L
349.588 126.786 L
356.455 125.314 L
363.323 124.86 L
370.191 123.524 L
377.058 121.889 L
383.926 121.372 L
390.794 121.081 L
397.661 119.72 L
404.529 119.177 L
411.397 118.812 L
418.265 116.993 L
425.132 116.101 L
432 114.795 L
438.868 114.032 L
445.735 113.631 L
452.603 112.691 L
459.471 112.174 L
466.338 111.749 L
473.206 111.01 L
480.074 109.881 L
486.942 108.828 L
493.809 108.39 L
500.677 106.61 L
507.545 105.191 L
514.412 103.302 LE
81.7477 366.647 LS
88.6154 302.689 L
95.4831 297.234 L
102.351 274.866 L
109.218 265.4 L
116.086 233.491 L
122.954 224.607 L
129.822 209.592 L
136.689 207.686 L
143.557 200.64 L
150.425 199.905 L
157.292 191.726 L
164.16 190.055 L
171.028 181.896 L
177.895 179.898 L
184.763 175.909 L
191.631 168.63 L
198.498 165.649 L
205.366 163.006 L
212.234 159.618 L
219.102 158.888 L
225.969 153.882 L
232.837 150.476 L
239.705 147.393 L
246.572 145.596 L
253.44 142.971 L
260.308 141.628 L
267.175 140.268 L
274.043 138.469 L
280.911 138.174 L
287.778 135.494 L
294.646 134.5 L
301.514 134.082 L
308.382 133.057 L
315.249 131.693 L
322.117 130.625 L
328.985 129.615 L
335.852 128.374 L
342.72 128.122 L
349.588 126.943 L
356.455 125.463 L
363.323 125.101 L
370.191 123.323 L
377.058 122.302 L
383.926 121.77 L
390.794 120.66 L
397.661 120.184 L
404.529 119.343 L
411.397 118.424 L
418.265 117.644 L
425.132 116.807 L
432 115.776 L
438.868 114.289 L
445.735 113.341 L
452.603 112.48 L
459.471 111.753 L
466.338 111.709 L
473.206 111.256 L
480.074 110.662 L
486.942 108.524 L
493.809 108.41 L
500.677 105.379 L
507.545 104.021 L
514.412 103.445 LE
3 W
[3 3 3 3 3 3 3 3 3 3] 0 setdash
0 0 0 C
81.7477 312.623 LS
88.6154 267.715 L
95.4831 261.642 L
102.351 250.711 L
109.218 242.88 L
116.086 223.137 L
122.954 214.121 L
129.822 203.531 L
136.689 202.366 L
143.557 200.869 L
150.425 194.821 L
157.292 194.214 L
164.16 184.354 L
171.028 179.777 L
177.895 179.293 L
184.763 176.13 L
191.631 171.954 L
198.498 168.047 L
205.366 167.686 L
212.234 164.173 L
219.102 161.423 L
225.969 157.364 L
232.837 155.029 L
239.705 153.19 L
246.572 152.607 L
253.44 150.873 L
260.308 149.591 L
267.175 147.722 L
274.043 145.961 L
280.911 145.037 L
287.778 142.839 L
294.646 140.966 L
301.514 138.342 L
308.382 138.084 L
315.249 135.765 L
322.117 134.732 L
328.985 134.32 L
335.852 133.35 L
342.72 132.474 L
349.588 130.744 L
356.455 130.402 L
363.323 129.859 L
370.191 128.557 L
377.058 127.085 L
383.926 126.149 L
390.794 124.652 L
397.661 123.949 L
404.529 122.798 L
411.397 122.171 L
418.265 120.882 L
425.132 119.997 L
432 119.405 L
438.868 118.569 L
445.735 117.643 L
452.603 117.51 L
459.471 116.523 L
466.338 115.659 L
473.206 114.238 L
480.074 114.052 L
486.942 113.342 L
493.809 111.055 L
500.677 109.072 L
507.545 107.47 L
514.412 106.241 LE
81.7477 318.594 LS
88.6154 273.256 L
95.4831 266.603 L
102.351 254.962 L
109.218 243.947 L
116.086 224.05 L
122.954 212.336 L
129.822 208.18 L
136.689 207.102 L
143.557 200.988 L
150.425 199.804 L
157.292 196.789 L
164.16 184.558 L
171.028 182.374 L
177.895 178.327 L
184.763 177.057 L
191.631 172.924 L
198.498 171.53 L
205.366 167.823 L
212.234 167.221 L
219.102 163.765 L
225.969 157.263 L
232.837 155.232 L
239.705 152.479 L
246.572 151.429 L
253.44 150.6 L
260.308 149.367 L
267.175 147.993 L
274.043 146.377 L
280.911 144.361 L
287.778 141.905 L
294.646 139.497 L
301.514 138.577 L
308.382 138.026 L
315.249 136.704 L
322.117 134.845 L
328.985 134.448 L
335.852 132.677 L
342.72 132.279 L
349.588 131.395 L
356.455 130.565 L
363.323 129.729 L
370.191 128.71 L
377.058 126.492 L
383.926 126.048 L
390.794 124.683 L
397.661 124.369 L
404.529 122.692 L
411.397 121.874 L
418.265 121.353 L
425.132 120.955 L
432 119.552 L
438.868 119.388 L
445.735 118.434 L
452.603 117.263 L
459.471 116.418 L
466.338 115.211 L
473.206 114.64 L
480.074 114.107 L
486.942 112.884 L
493.809 111.446 L
500.677 109.627 L
507.545 107.798 L
514.412 105.86 LE
81.7477 312.716 LS
88.6154 266.964 L
95.4831 264.517 L
102.351 252.209 L
109.218 244.486 L
116.086 223.413 L
122.954 214.756 L
129.822 204.682 L
136.689 202.485 L
143.557 198.789 L
150.425 197.485 L
157.292 195.169 L
164.16 188.424 L
171.028 182.596 L
177.895 181.694 L
184.763 177.593 L
191.631 173.401 L
198.498 171.889 L
205.366 169.852 L
212.234 166.008 L
219.102 164.596 L
225.969 158.648 L
232.837 157.29 L
239.705 155.251 L
246.572 151.305 L
253.44 150.938 L
260.308 148.097 L
267.175 147.523 L
274.043 146.411 L
280.911 143.309 L
287.778 143.024 L
294.646 142.402 L
301.514 139.92 L
308.382 139.065 L
315.249 138.477 L
322.117 136.769 L
328.985 135.07 L
335.852 134.073 L
342.72 133.231 L
349.588 132.723 L
356.455 131.366 L
363.323 129.609 L
370.191 128.425 L
377.058 127.07 L
383.926 126.766 L
390.794 126.122 L
397.661 124.83 L
404.529 123.669 L
411.397 123.484 L
418.265 121.806 L
425.132 120.322 L
432 119.594 L
438.868 119.266 L
445.735 118.619 L
452.603 117.351 L
459.471 116.504 L
466.338 116.233 L
473.206 114.317 L
480.074 113.15 L
486.942 112.805 L
493.809 112.328 L
500.677 110.765 L
507.545 108.884 L
514.412 107.778 LE
2 W
[8 8 8 8] 0 setdash
0 0 1 C
81.7477 247.217 LS
88.6154 213.331 L
95.4831 205.118 L
102.351 203.535 L
109.218 198.902 L
116.086 194.94 L
122.954 193.376 L
129.822 192.928 L
136.689 191.103 L
143.557 189.112 L
150.425 185.132 L
157.292 182.319 L
164.16 180.36 L
171.028 178.563 L
177.895 177.896 L
184.763 176.635 L
191.631 174.706 L
198.498 171.89 L
205.366 170.885 L
212.234 169.863 L
219.102 168.094 L
225.969 166.097 L
232.837 164.971 L
239.705 163.182 L
246.572 161.993 L
253.44 160.036 L
260.308 158.446 L
267.175 157.919 L
274.043 157.04 L
280.911 155.385 L
287.778 154.914 L
294.646 154.143 L
301.514 152.154 L
308.382 151.56 L
315.249 149.304 L
322.117 148.236 L
328.985 147.348 L
335.852 144.259 L
342.72 144.199 L
349.588 143.364 L
356.455 141.039 L
363.323 140.32 L
370.191 139.336 L
377.058 138.484 L
383.926 137.079 L
390.794 135.945 L
397.661 133.91 L
404.529 132.752 L
411.397 132.288 L
418.265 131.362 L
425.132 129.712 L
432 128.96 L
438.868 128.25 L
445.735 125.711 L
452.603 124.509 L
459.471 123.802 L
466.338 120.735 L
473.206 119.708 L
480.074 117.997 L
486.942 117.014 L
493.809 115.206 L
500.677 112.409 L
507.545 109.444 L
514.412 108.13 LE
81.7477 237.003 LS
88.6154 215.997 L
95.4831 207.991 L
102.351 201.748 L
109.218 199.159 L
116.086 195.832 L
122.954 193.072 L
129.822 192.292 L
136.689 187.865 L
143.557 187.229 L
150.425 184.337 L
157.292 182.022 L
164.16 180.422 L
171.028 178.268 L
177.895 178.08 L
184.763 175.739 L
191.631 174.582 L
198.498 171.293 L
205.366 170.343 L
212.234 166.586 L
219.102 166.322 L
225.969 164.438 L
232.837 163.336 L
239.705 162.566 L
246.572 162.099 L
253.44 159.364 L
260.308 157.717 L
267.175 156.835 L
274.043 156.348 L
280.911 154.954 L
287.778 153.604 L
294.646 152.956 L
301.514 151.759 L
308.382 150.378 L
315.249 150.01 L
322.117 149.187 L
328.985 146.093 L
335.852 144.093 L
342.72 143.575 L
349.588 142.858 L
356.455 141.973 L
363.323 140.309 L
370.191 139.41 L
377.058 138.364 L
383.926 137.43 L
390.794 136.77 L
397.661 133.937 L
404.529 132.923 L
411.397 132.428 L
418.265 131.177 L
425.132 130.001 L
432 127.705 L
438.868 127.447 L
445.735 126.085 L
452.603 124.424 L
459.471 122.244 L
466.338 120.474 L
473.206 118.491 L
480.074 117.886 L
486.942 114.84 L
493.809 112.092 L
500.677 109.586 L
507.545 108.155 L
514.412 104.892 LE
81.7477 246.414 LS
88.6154 217.243 L
95.4831 208.495 L
102.351 205.037 L
109.218 203.357 L
116.086 198.351 L
122.954 197.361 L
129.822 194.276 L
136.689 189.203 L
143.557 185.644 L
150.425 185.08 L
157.292 183.658 L
164.16 182.323 L
171.028 181.359 L
177.895 178.858 L
184.763 177.353 L
191.631 173.639 L
198.498 172.396 L
205.366 171.734 L
212.234 170.305 L
219.102 167.818 L
225.969 166.386 L
232.837 164.179 L
239.705 163.484 L
246.572 162.79 L
253.44 160.737 L
260.308 159.896 L
267.175 158.496 L
274.043 157.882 L
280.911 155.906 L
287.778 155.444 L
294.646 154.555 L
301.514 153.668 L
308.382 150.852 L
315.249 150.091 L
322.117 148.117 L
328.985 146.776 L
335.852 145.807 L
342.72 144.289 L
349.588 143.297 L
356.455 143.041 L
363.323 141.26 L
370.191 140.591 L
377.058 139.155 L
383.926 138.29 L
390.794 137.305 L
397.661 135.356 L
404.529 134.033 L
411.397 132.706 L
418.265 132.477 L
425.132 130.472 L
432 128.382 L
438.868 127.944 L
445.735 127.334 L
452.603 125.094 L
459.471 123.028 L
466.338 121.535 L
473.206 121.04 L
480.074 119.52 L
486.942 116.333 L
493.809 114.842 L
500.677 112.658 L
507.545 111.211 L
514.412 107.513 LE
[8 2 4 2 8 2 4 2] 0 setdash
0 0 0 C
81.7477 209.375 LS
88.6154 194.44 L
95.4831 187.037 L
102.351 186.339 L
109.218 184.853 L
116.086 182.226 L
122.954 179.511 L
129.822 178.298 L
136.689 177.435 L
143.557 176.343 L
150.425 174.562 L
157.292 172.143 L
164.16 171.533 L
171.028 171.043 L
177.895 170.429 L
184.763 169.053 L
191.631 168.829 L
198.498 167.892 L
205.366 166.183 L
212.234 165.096 L
219.102 164.403 L
225.969 162.996 L
232.837 162.314 L
239.705 161.912 L
246.572 161.322 L
253.44 160.82 L
260.308 159.101 L
267.175 158.073 L
274.043 157.708 L
280.911 156.581 L
287.778 156.373 L
294.646 156.107 L
301.514 155.706 L
308.382 153.657 L
315.249 153.101 L
322.117 152.199 L
328.985 151.641 L
335.852 150.666 L
342.72 150.038 L
349.588 149.698 L
356.455 149.364 L
363.323 148.111 L
370.191 147.377 L
377.058 146.422 L
383.926 145.533 L
390.794 145.269 L
397.661 144.726 L
404.529 143.575 L
411.397 143.008 L
418.265 142.206 L
425.132 141.053 L
432 140.734 L
438.868 140.212 L
445.735 139.975 L
452.603 138.405 L
459.471 137.847 L
466.338 137.104 L
473.206 136.543 L
480.074 135.225 L
486.942 134.125 L
493.809 131.085 L
500.677 128.302 L
507.545 124.422 L
514.412 119.975 LE
81.7477 213.399 LS
88.6154 197.083 L
95.4831 188.975 L
102.351 186.674 L
109.218 184.21 L
116.086 181.745 L
122.954 180.579 L
129.822 179.239 L
136.689 178.425 L
143.557 177.336 L
150.425 176.121 L
157.292 172.091 L
164.16 171.222 L
171.028 170.164 L
177.895 169.271 L
184.763 168.268 L
191.631 167.138 L
198.498 165.804 L
205.366 165.041 L
212.234 163.648 L
219.102 163.239 L
225.969 162.543 L
232.837 161.515 L
239.705 160.353 L
246.572 159.305 L
253.44 159.134 L
260.308 158.092 L
267.175 157.436 L
274.043 156.627 L
280.911 155.827 L
287.778 154.882 L
294.646 154.381 L
301.514 153.912 L
308.382 153.132 L
315.249 152.683 L
322.117 152.045 L
328.985 151.282 L
335.852 151.019 L
342.72 150.127 L
349.588 149.304 L
356.455 148.881 L
363.323 147.78 L
370.191 147.481 L
377.058 146.721 L
383.926 145.689 L
390.794 145.268 L
397.661 144.196 L
404.529 143.492 L
411.397 143.176 L
418.265 141.809 L
425.132 141.458 L
432 141.075 L
438.868 140.639 L
445.735 139.997 L
452.603 139.362 L
459.471 137.676 L
466.338 137.666 L
473.206 136.558 L
480.074 135.256 L
486.942 132.537 L
493.809 131.556 L
500.677 129.522 L
507.545 126.386 L
514.412 120.771 LE
81.7477 215.069 LS
88.6154 199.438 L
95.4831 187.11 L
102.351 183.217 L
109.218 180.815 L
116.086 180.12 L
122.954 179.816 L
129.822 177.394 L
136.689 176.642 L
143.557 175.397 L
150.425 173.455 L
157.292 172.258 L
164.16 169.917 L
171.028 169.676 L
177.895 168.526 L
184.763 167.511 L
191.631 167.179 L
198.498 166.674 L
205.366 165.279 L
212.234 164.164 L
219.102 163.678 L
225.969 162.579 L
232.837 162.005 L
239.705 159.957 L
246.572 159.714 L
253.44 158.429 L
260.308 158.062 L
267.175 157.207 L
274.043 156.706 L
280.911 156.333 L
287.778 155.739 L
294.646 154.924 L
301.514 154.04 L
308.382 153.346 L
315.249 152.373 L
322.117 151.967 L
328.985 151.698 L
335.852 151.177 L
342.72 150.08 L
349.588 149.307 L
356.455 148.231 L
363.323 147.865 L
370.191 147.502 L
377.058 146.82 L
383.926 146.019 L
390.794 145.392 L
397.661 144.705 L
404.529 144.089 L
411.397 143.599 L
418.265 142.619 L
425.132 142.064 L
432 140.973 L
438.868 140.613 L
445.735 139.7 L
452.603 138.991 L
459.471 137.879 L
466.338 136.905 L
473.206 136.653 L
480.074 135.579 L
486.942 133.403 L
493.809 130.62 L
500.677 130.245 L
507.545 126.137 L
514.412 122.086 LE
grestore
gsave
1.0 1.0 scale
newpath 0 0 moveto 576 0 lineto 576 432 lineto 0 432 lineto
closepath clip
1 1 1 C
508.651 291.771 303.18 291.771 303.18 386.971 T
508.651 386.971 508.651 291.771 303.18 386.971 T
0.5 W
2 LC
[16 0] 0 setdash
0.15 0.15 0.15 C
303.18 291.771 LS
508.651 291.771 LE
303.18 386.971 LS
508.651 386.971 LE
303.18 291.771 LS
303.18 386.971 LE
508.651 291.771 LS
508.651 386.971 LE
gsave
0 0 0 C
(l) [10] 0 334.225 370.071 18 /Symbol SRX
( = 0.0001, ) [5 11 5 10 5 10 10 10 10 5 10] 0 344.225 370.071 18 /Helvetica SRX
(m) [10] 0 430.225 370.071 18 /Symbol SRX
( =   1.0  ) [5 11 5 5 5 10 5 10 5 10] 0 440.225 370.071 18 /Helvetica SRX
grestore

gsave
0 0 0 C
(l) [10] 0 334.225 346.271 18 /Symbol SRX
( = 0.0001, ) [5 11 5 10 5 10 10 10 10 5 10] 0 344.225 346.271 18 /Helvetica SRX
(m) [10] 0 430.225 346.271 18 /Symbol SRX
( = 64.5  ) [5 11 5 10 10 5 10 5 10] 0 440.225 346.271 18 /Helvetica SRX
grestore

gsave
0 0 0 C
(l) [10] 0 334.225 322.471 18 /Symbol SRX
( = 0.001,   ) [5 11 5 10 5 10 10 10 5 5 5 10] 0 344.225 322.471 18 /Helvetica SRX
(m) [10] 0 430.225 322.471 18 /Symbol SRX
( =   1.0  ) [5 11 5 5 5 10 5 10 5 10] 0 440.225 322.471 18 /Helvetica SRX
grestore

gsave
0 0 0 C
(l) [10] 0 334.225 298.671 18 /Symbol SRX
( = 0.001,   ) [5 11 5 10 5 10 10 10 5 5 5 10] 0 344.225 298.671 18 /Helvetica SRX
(m) [10] 0 430.225 298.671 18 /Symbol SRX
( = 64.5  ) [5 11 5 10 10 5 10 5 10] 0 440.225 298.671 18 /Helvetica SRX
grestore

2 W
0 LC
1 LJ
[] 0 setdash
0 0 1 C
306.863 375.071 LS
330.542 375.071 LE
3 W
[3 3 3 3 3 3 3 3 3 3] 0 setdash
0 0 0 C
306.863 351.271 LS
330.542 351.271 LE
2 W
[8 8 8 8] 0 setdash
0 0 1 C
306.863 327.471 LS
330.542 327.471 LE
[8 2 4 2 8 2 4 2] 0 setdash
0 0 0 C
306.863 303.671 LS
330.542 303.671 LE
grestore
grestore
showpage
cleartomark
%%PageTrailer
%%Trailer
end
%%EOF
