%!PS-Adobe-3.0 EPSF-3.0
%%Title: gl2ps_renderer figure
%%Creator: GL2PS 1.4.0, (C) 1999-2017 C. Geuzaine
%%For: Octave
%%CreationDate: Sat Feb  1 15:18:00 2020
%%LanguageLevel: 3
%%DocumentData: Clean7Bit
%%Pages: 1
%%BoundingBox: 0 0 576 432
%%EndComments
%%BeginProlog
/gl2psdict 64 dict def gl2psdict begin
/tryPS3shading false def % set to false to force subdivision
/rThreshold 0.064 def % red component subdivision threshold
/gThreshold 0.034 def % green component subdivision threshold
/bThreshold 0.1 def % blue component subdivision threshold
/BD { bind def } bind def
/C  { setrgbcolor } BD
/G  { 0.082 mul exch 0.6094 mul add exch 0.3086 mul add neg 1.0 add setgray } BD
/W  { setlinewidth } BD
/LC  { setlinecap } BD
/LJ  { setlinejoin } BD
/FC { findfont exch /SH exch def SH scalefont setfont } BD
/SW { dup stringwidth pop } BD
/S  { FC moveto show } BD
/SBC{ FC moveto SW -2 div 0 rmoveto show } BD
/SBR{ FC moveto SW neg 0 rmoveto show } BD
/SCL{ FC moveto 0 SH -2 div rmoveto show } BD
/SCC{ FC moveto SW -2 div SH -2 div rmoveto show } BD
/SCR{ FC moveto SW neg SH -2 div rmoveto show } BD
/STL{ FC moveto 0 SH neg rmoveto show } BD
/STC{ FC moveto SW -2 div SH neg rmoveto show } BD
/STR{ FC moveto SW neg SH neg rmoveto show } BD
/FCT { FC translate 0 0 } BD
/SR  { gsave FCT moveto rotate show grestore } BD
/SRX  { gsave FCT moveto rotate xshow grestore } BD
/SBCR{ gsave FCT moveto rotate SW -2 div 0 rmoveto show grestore } BD
/SBRR{ gsave FCT moveto rotate SW neg 0 rmoveto show grestore } BD
/SCLR{ gsave FCT moveto rotate 0 SH -2 div rmoveto show grestore} BD
/SCCR{ gsave FCT moveto rotate SW -2 div SH -2 div rmoveto show grestore} BD
/SCRR{ gsave FCT moveto rotate SW neg SH -2 div rmoveto show grestore} BD
/STLR{ gsave FCT moveto rotate 0 SH neg rmoveto show grestore } BD
/STCR{ gsave FCT moveto rotate SW -2 div SH neg rmoveto show grestore } BD
/STRR{ gsave FCT moveto rotate SW neg SH neg rmoveto show grestore } BD
/P  { newpath 0.0 360.0 arc closepath fill } BD
/LS { newpath moveto } BD
/L  { lineto } BD
/LE { lineto stroke } BD
/T  { newpath moveto lineto lineto closepath fill } BD
/STshfill {
      /b1 exch def /g1 exch def /r1 exch def /y1 exch def /x1 exch def
      /b2 exch def /g2 exch def /r2 exch def /y2 exch def /x2 exch def
      /b3 exch def /g3 exch def /r3 exch def /y3 exch def /x3 exch def
      gsave << /ShadingType 4 /ColorSpace [/DeviceRGB]
      /DataSource [ 0 x1 y1 r1 g1 b1 0 x2 y2 r2 g2 b2 0 x3 y3 r3 g3 b3 ] >>
      shfill grestore } BD
/Tm { 3 -1 roll 8 -1 roll 13 -1 roll add add 3 div
      3 -1 roll 7 -1 roll 11 -1 roll add add 3 div
      3 -1 roll 6 -1 roll 9 -1 roll add add 3 div C T } BD
/STsplit {
      4 index 15 index add 0.5 mul
      4 index 15 index add 0.5 mul
      4 index 15 index add 0.5 mul
      4 index 15 index add 0.5 mul
      4 index 15 index add 0.5 mul
      5 copy 5 copy 25 15 roll
      9 index 30 index add 0.5 mul
      9 index 30 index add 0.5 mul
      9 index 30 index add 0.5 mul
      9 index 30 index add 0.5 mul
      9 index 30 index add 0.5 mul
      5 copy 5 copy 35 5 roll 25 5 roll 15 5 roll
      4 index 10 index add 0.5 mul
      4 index 10 index add 0.5 mul
      4 index 10 index add 0.5 mul
      4 index 10 index add 0.5 mul
      4 index 10 index add 0.5 mul
      5 copy 5 copy 40 5 roll 25 5 roll 15 5 roll 25 5 roll
      STnoshfill STnoshfill STnoshfill STnoshfill } BD
/STnoshfill {
      2 index 8 index sub abs rThreshold gt
      { STsplit }
      { 1 index 7 index sub abs gThreshold gt
        { STsplit }
        { dup 6 index sub abs bThreshold gt
          { STsplit }
          { 2 index 13 index sub abs rThreshold gt
            { STsplit }
            { 1 index 12 index sub abs gThreshold gt
              { STsplit }
              { dup 11 index sub abs bThreshold gt
                { STsplit }
                { 7 index 13 index sub abs rThreshold gt
                  { STsplit }
                  { 6 index 12 index sub abs gThreshold gt
                    { STsplit }
                    { 5 index 11 index sub abs bThreshold gt
                      { STsplit }
                      { Tm }
                      ifelse }
                    ifelse }
                  ifelse }
                ifelse }
              ifelse }
            ifelse }
          ifelse }
        ifelse }
      ifelse } BD
tryPS3shading
{ /shfill where
  { /ST { STshfill } BD }
  { /ST { STnoshfill } BD }
  ifelse }
{ /ST { STnoshfill } BD }
ifelse
end
%%EndProlog
%%BeginSetup
/DeviceRGB setcolorspace
gl2psdict begin
%%EndSetup
%%Page: 1 1
%%BeginPageSetup
%%EndPageSetup
mark
gsave
1.0 1.0 scale
1 1 1 C
newpath 0 0 moveto 576 0 lineto 576 432 lineto 0 432 lineto
closepath fill
gsave
1.0 1.0 scale
1 1 1 C
newpath 0 0 moveto 576 0 lineto 576 432 lineto 0 432 lineto
closepath fill
newpath 0 0 moveto 576 0 lineto 576 432 lineto 0 432 lineto
closepath clip
1 1 1 C
521.28 47.52 74.88 47.52 74.88 399.6 T
521.28 399.6 521.28 47.52 74.88 399.6 T
0.5 W
0.15 0.15 0.15 C
74.88 47.52 LS
74.88 51.985 LE
74.88 399.6 LS
74.88 395.135 LE
298.08 47.52 LS
298.08 51.985 LE
298.08 399.6 LS
298.08 395.135 LE
521.28 47.52 LS
521.28 51.985 LE
521.28 399.6 LS
521.28 395.135 LE
gsave
0.14902 0.14902 0.14902 C
(0) [10] 0 71.88 32.0183 10 /Helvetica SRX
grestore

gsave
0.14902 0.14902 0.14902 C
(5) [10] 0 295.08 32.0183 10 /Helvetica SRX
grestore

gsave
0.14902 0.14902 0.14902 C
(10) [6 10] 0 515.28 32.0183 10 /Helvetica SRX
grestore

74.88 47.52 LS
79.348 47.52 LE
521.28 47.52 LS
516.812 47.52 LE
74.88 223.56 LS
79.348 223.56 LE
521.28 223.56 LS
516.812 223.56 LE
74.88 399.6 LS
79.348 399.6 LE
521.28 399.6 LS
516.812 399.6 LE
gsave
0.14902 0.14902 0.14902 C
(0) [10] 0 63.8755 43.52 10 /Helvetica SRX
grestore

gsave
0.14902 0.14902 0.14902 C
(0.5) [6 3 10] 0 54.8755 219.56 10 /Helvetica SRX
grestore

gsave
0.14902 0.14902 0.14902 C
(1) [10] 0 63.8755 395.6 10 /Helvetica SRX
grestore

2 LC
[16 0] 0 setdash
74.88 47.52 LS
521.28 47.52 LE
74.88 399.6 LS
521.28 399.6 LE
74.88 47.52 LS
74.88 399.6 LE
521.28 47.52 LS
521.28 399.6 LE
2 W
0 LC
1 LJ
[8 8 8 8] 0 setdash
0 0 0 C
74.88 47.52 LS
79.344 48.8579 L
83.808 50.3366 L
88.272 51.9562 L
92.736 53.8574 L
97.2 56.1107 L
101.664 58.7513 L
106.128 61.8496 L
110.592 65.4409 L
115.056 69.525 L
119.52 74.0668 L
123.984 79.1368 L
128.448 84.6292 L
132.912 90.5442 L
137.376 96.8464 L
141.84 103.501 L
146.304 110.401 L
150.768 117.549 L
155.232 124.837 L
159.696 132.266 L
164.16 139.73 L
168.624 147.264 L
173.088 154.728 L
177.552 162.122 L
182.016 169.445 L
186.48 176.628 L
190.944 183.669 L
195.408 190.535 L
199.872 197.224 L
204.336 203.667 L
208.8 209.934 L
213.264 215.99 L
217.728 221.8 L
222.192 227.398 L
226.656 232.749 L
231.12 237.925 L
235.584 242.854 L
240.048 247.607 L
244.512 252.149 L
248.976 256.479 L
253.44 260.634 L
257.904 264.648 L
262.368 268.45 L
266.832 272.112 L
271.296 275.633 L
275.76 278.977 L
280.224 282.217 L
284.688 285.35 L
289.152 288.343 L
293.616 291.23 L
298.08 294.011 L
302.544 296.722 L
307.008 299.328 L
311.472 301.863 L
315.936 304.327 L
320.4 306.757 L
324.864 309.08 L
329.328 311.369 L
333.792 313.587 L
338.256 315.77 L
342.72 317.917 L
347.184 320.03 L
351.648 322.107 L
356.112 324.149 L
360.576 326.191 L
365.04 328.163 L
369.504 330.135 L
373.968 332.106 L
378.432 334.043 L
382.896 335.979 L
387.36 337.88 L
391.824 339.782 L
396.288 341.683 L
400.752 343.584 L
405.216 345.45 L
409.68 347.351 L
414.144 349.217 L
418.608 351.119 L
423.072 352.985 L
427.536 354.851 L
432 356.752 L
436.464 358.618 L
440.928 360.519 L
445.392 362.42 L
449.856 364.322 L
454.32 366.223 L
458.784 368.124 L
463.248 370.025 L
467.712 371.962 L
472.176 373.863 L
476.64 375.799 L
481.104 377.736 L
485.568 379.707 L
490.032 381.644 L
494.496 383.616 L
498.96 385.587 L
503.424 387.559 L
507.888 389.566 L
512.352 391.537 L
516.816 393.544 L
521.28 395.551 LE
[] 0 setdash
0 0 1 C
74.88 47.52 LS
79.344 54.4208 L
83.808 61.2159 L
88.272 68.0462 L
92.736 74.9118 L
97.2 81.6718 L
101.664 88.4317 L
106.128 95.0156 L
110.592 101.599 L
115.056 108.043 L
119.52 114.45 L
123.984 120.788 L
128.448 127.055 L
132.912 133.04 L
137.376 139.026 L
141.84 144.905 L
146.304 150.609 L
150.768 156.137 L
155.232 161.523 L
159.696 166.875 L
164.16 171.945 L
168.624 176.874 L
173.088 181.698 L
177.552 186.345 L
182.016 190.817 L
186.48 195.147 L
190.944 199.302 L
195.408 203.28 L
199.872 207.118 L
204.336 210.744 L
208.8 214.23 L
213.264 217.61 L
217.728 220.779 L
222.192 223.736 L
226.656 226.623 L
231.12 229.334 L
235.584 231.869 L
240.048 234.298 L
244.512 236.552 L
248.976 238.699 L
253.44 240.706 L
257.904 242.572 L
262.368 244.298 L
266.832 245.917 L
271.296 247.396 L
275.76 248.769 L
280.224 250.001 L
284.688 251.163 L
289.152 252.219 L
293.616 253.135 L
298.08 253.98 L
302.544 254.754 L
307.008 255.388 L
311.472 255.951 L
315.936 256.444 L
320.4 256.867 L
324.864 257.184 L
329.328 257.43 L
333.792 257.641 L
338.256 257.747 L
342.72 257.817 L
347.184 257.817 L
351.648 257.747 L
356.112 257.641 L
360.576 257.465 L
365.04 257.254 L
369.504 257.008 L
373.968 256.691 L
378.432 256.374 L
382.896 255.987 L
387.36 255.564 L
391.824 255.071 L
396.288 254.578 L
400.752 254.05 L
405.216 253.522 L
409.68 252.923 L
414.144 252.325 L
418.608 251.691 L
423.072 251.057 L
427.536 250.388 L
432 249.684 L
436.464 248.945 L
440.928 248.241 L
445.392 247.501 L
449.856 246.727 L
454.32 245.952 L
458.784 245.178 L
463.248 244.368 L
467.712 243.558 L
472.176 242.748 L
476.64 241.903 L
481.104 241.058 L
485.568 240.213 L
490.032 239.368 L
494.496 238.523 L
498.96 237.643 L
503.424 236.798 L
507.888 235.918 L
512.352 235.038 L
516.816 234.158 L
521.28 233.313 LE
grestore
grestore
showpage
cleartomark
%%PageTrailer
%%Trailer
end
%%EOF
