%!PS-Adobe-3.0 EPSF-3.0
%%Title: gl2ps_renderer figure
%%Creator: GL2PS 1.4.0, (C) 1999-2017 C. Geuzaine
%%For: Octave
%%CreationDate: Fri Jun  5 17:13:07 2020
%%LanguageLevel: 3
%%DocumentData: Clean7Bit
%%Pages: 1
%%BoundingBox: 0 0 576 432
%%EndComments
%%BeginProlog
/gl2psdict 64 dict def gl2psdict begin
/tryPS3shading false def % set to false to force subdivision
/rThreshold 0.064 def % red component subdivision threshold
/gThreshold 0.034 def % green component subdivision threshold
/bThreshold 0.1 def % blue component subdivision threshold
/BD { bind def } bind def
/C  { setrgbcolor } BD
/G  { 0.082 mul exch 0.6094 mul add exch 0.3086 mul add neg 1.0 add setgray } BD
/W  { setlinewidth } BD
/LC  { setlinecap } BD
/LJ  { setlinejoin } BD
/FC { findfont exch /SH exch def SH scalefont setfont } BD
/SW { dup stringwidth pop } BD
/S  { FC moveto show } BD
/SBC{ FC moveto SW -2 div 0 rmoveto show } BD
/SBR{ FC moveto SW neg 0 rmoveto show } BD
/SCL{ FC moveto 0 SH -2 div rmoveto show } BD
/SCC{ FC moveto SW -2 div SH -2 div rmoveto show } BD
/SCR{ FC moveto SW neg SH -2 div rmoveto show } BD
/STL{ FC moveto 0 SH neg rmoveto show } BD
/STC{ FC moveto SW -2 div SH neg rmoveto show } BD
/STR{ FC moveto SW neg SH neg rmoveto show } BD
/FCT { FC translate 0 0 } BD
/SR  { gsave FCT moveto rotate show grestore } BD
/SRX  { gsave FCT moveto rotate xshow grestore } BD
/SBCR{ gsave FCT moveto rotate SW -2 div 0 rmoveto show grestore } BD
/SBRR{ gsave FCT moveto rotate SW neg 0 rmoveto show grestore } BD
/SCLR{ gsave FCT moveto rotate 0 SH -2 div rmoveto show grestore} BD
/SCCR{ gsave FCT moveto rotate SW -2 div SH -2 div rmoveto show grestore} BD
/SCRR{ gsave FCT moveto rotate SW neg SH -2 div rmoveto show grestore} BD
/STLR{ gsave FCT moveto rotate 0 SH neg rmoveto show grestore } BD
/STCR{ gsave FCT moveto rotate SW -2 div SH neg rmoveto show grestore } BD
/STRR{ gsave FCT moveto rotate SW neg SH neg rmoveto show grestore } BD
/P  { newpath 0.0 360.0 arc closepath fill } BD
/LS { newpath moveto } BD
/L  { lineto } BD
/LE { lineto stroke } BD
/T  { newpath moveto lineto lineto closepath fill } BD
/STshfill {
      /b1 exch def /g1 exch def /r1 exch def /y1 exch def /x1 exch def
      /b2 exch def /g2 exch def /r2 exch def /y2 exch def /x2 exch def
      /b3 exch def /g3 exch def /r3 exch def /y3 exch def /x3 exch def
      gsave << /ShadingType 4 /ColorSpace [/DeviceRGB]
      /DataSource [ 0 x1 y1 r1 g1 b1 0 x2 y2 r2 g2 b2 0 x3 y3 r3 g3 b3 ] >>
      shfill grestore } BD
/Tm { 3 -1 roll 8 -1 roll 13 -1 roll add add 3 div
      3 -1 roll 7 -1 roll 11 -1 roll add add 3 div
      3 -1 roll 6 -1 roll 9 -1 roll add add 3 div C T } BD
/STsplit {
      4 index 15 index add 0.5 mul
      4 index 15 index add 0.5 mul
      4 index 15 index add 0.5 mul
      4 index 15 index add 0.5 mul
      4 index 15 index add 0.5 mul
      5 copy 5 copy 25 15 roll
      9 index 30 index add 0.5 mul
      9 index 30 index add 0.5 mul
      9 index 30 index add 0.5 mul
      9 index 30 index add 0.5 mul
      9 index 30 index add 0.5 mul
      5 copy 5 copy 35 5 roll 25 5 roll 15 5 roll
      4 index 10 index add 0.5 mul
      4 index 10 index add 0.5 mul
      4 index 10 index add 0.5 mul
      4 index 10 index add 0.5 mul
      4 index 10 index add 0.5 mul
      5 copy 5 copy 40 5 roll 25 5 roll 15 5 roll 25 5 roll
      STnoshfill STnoshfill STnoshfill STnoshfill } BD
/STnoshfill {
      2 index 8 index sub abs rThreshold gt
      { STsplit }
      { 1 index 7 index sub abs gThreshold gt
        { STsplit }
        { dup 6 index sub abs bThreshold gt
          { STsplit }
          { 2 index 13 index sub abs rThreshold gt
            { STsplit }
            { 1 index 12 index sub abs gThreshold gt
              { STsplit }
              { dup 11 index sub abs bThreshold gt
                { STsplit }
                { 7 index 13 index sub abs rThreshold gt
                  { STsplit }
                  { 6 index 12 index sub abs gThreshold gt
                    { STsplit }
                    { 5 index 11 index sub abs bThreshold gt
                      { STsplit }
                      { Tm }
                      ifelse }
                    ifelse }
                  ifelse }
                ifelse }
              ifelse }
            ifelse }
          ifelse }
        ifelse }
      ifelse } BD
tryPS3shading
{ /shfill where
  { /ST { STshfill } BD }
  { /ST { STnoshfill } BD }
  ifelse }
{ /ST { STnoshfill } BD }
ifelse
end
%%EndProlog
%%BeginSetup
/DeviceRGB setcolorspace
gl2psdict begin
%%EndSetup
%%Page: 1 1
%%BeginPageSetup
%%EndPageSetup
mark
gsave
1.0 1.0 scale
1 1 1 C
newpath 0 0 moveto 576 0 lineto 576 432 lineto 0 432 lineto
closepath fill
gsave
1.0 1.0 scale
1 1 1 C
newpath 0 0 moveto 576 0 lineto 576 432 lineto 0 432 lineto
closepath fill
newpath 0 0 moveto 576 0 lineto 576 432 lineto 0 432 lineto
closepath clip
1 1 1 C
521.28 65.9928 74.88 65.9928 74.88 399.6 T
521.28 399.6 521.28 65.9928 74.88 399.6 T
0.5 W
0.15 0.15 0.15 C
74.88 65.9928 LS
74.88 70.4516 LE
74.88 399.6 LS
74.88 395.141 LE
298.08 65.9928 LS
298.08 70.4516 LE
298.08 399.6 LS
298.08 395.141 LE
521.28 65.9928 LS
521.28 70.4516 LE
521.28 399.6 LS
521.28 395.141 LE
gsave
0.14902 0.14902 0.14902 C
(0) [10] 0 68.38 30.014 24 /Helvetica SRX
grestore

gsave
0.14902 0.14902 0.14902 C
(5) [10] 0 291.58 30.014 24 /Helvetica SRX
grestore

gsave
0.14902 0.14902 0.14902 C
(10) [13 10] 0 508.28 30.014 24 /Helvetica SRX
grestore

74.88 65.9928 LS
79.348 65.9928 LE
521.28 65.9928 LS
516.812 65.9928 LE
74.88 399.6 LS
79.348 399.6 LE
521.28 399.6 LS
516.812 399.6 LE
gsave
0.14902 0.14902 0.14902 C
(0) [10] 0 49.8692 56.9928 24 /Helvetica SRX
grestore

gsave
0.14902 0.14902 0.14902 C
(1) [10] 0 49.8692 390.6 24 /Helvetica SRX
grestore

2 LC
[16 0] 0 setdash
74.88 65.9928 LS
521.28 65.9928 LE
74.88 399.6 LS
521.28 399.6 LE
74.88 65.9928 LS
74.88 399.6 LE
521.28 65.9928 LS
521.28 399.6 LE
gsave
0.14902 0.14902 0.14902 C
(aggregate force) [14 15 15 9 14 15 14 7 14 7 7 14 9 13 10] 90 39.8692 142.296 26.4 /Helvetica SRX
grestore

gsave
0.14902 0.14902 0.14902 C
(distance from origin) [15 6 13 7 14 14 13 14 7 7 9 14 21 7 14 9 6 15 6 10] 0 185.58 5.01401 26.4 /Helvetica SRX
grestore

2 W
0 LC
1 LJ
[] 0 setdash
0 0 1 C
74.88 65.9928 LS
79.344 72.0657 L
83.808 78.1385 L
88.272 84.2021 L
92.736 90.2376 L
97.2 96.2357 L
101.664 102.178 L
106.128 108.064 L
110.592 113.912 L
115.056 119.668 L
119.52 125.376 L
123.984 130.972 L
128.448 136.531 L
132.912 141.978 L
137.376 147.276 L
141.84 152.48 L
146.304 157.59 L
150.768 162.579 L
155.232 167.447 L
159.696 172.175 L
164.16 176.79 L
168.624 181.274 L
173.088 185.619 L
177.552 189.823 L
182.016 193.878 L
186.48 197.811 L
190.944 201.614 L
195.408 205.258 L
199.872 208.743 L
204.336 212.115 L
208.8 215.329 L
213.264 218.431 L
217.728 221.365 L
222.192 224.177 L
226.656 226.858 L
231.12 229.381 L
235.584 231.81 L
240.048 234.09 L
244.512 236.239 L
248.976 238.266 L
253.44 240.191 L
257.904 241.975 L
262.368 243.666 L
266.832 245.226 L
271.296 246.684 L
275.76 248.039 L
280.224 249.291 L
284.688 250.44 L
289.152 251.495 L
293.616 252.458 L
298.08 253.336 L
302.544 254.121 L
307.008 254.831 L
311.472 255.457 L
315.936 255.999 L
320.4 256.485 L
324.864 256.886 L
329.328 257.223 L
333.792 257.494 L
338.256 257.699 L
342.72 257.858 L
347.184 257.951 L
351.648 257.989 L
356.112 257.979 L
360.576 257.914 L
365.04 257.811 L
369.504 257.652 L
373.968 257.466 L
378.432 257.223 L
382.896 256.952 L
387.36 256.643 L
391.824 256.307 L
396.288 255.924 L
400.752 255.522 L
405.216 255.083 L
409.68 254.625 L
414.144 254.14 L
418.608 253.626 L
423.072 253.093 L
427.536 252.533 L
432 251.963 L
436.464 251.365 L
440.928 250.748 L
445.392 250.122 L
449.856 249.477 L
454.32 248.823 L
458.784 248.151 L
463.248 247.469 L
467.712 246.777 L
472.176 246.067 L
476.64 245.348 L
481.104 244.628 L
485.568 243.9 L
490.032 243.162 L
494.496 242.414 L
498.96 241.657 L
503.424 240.901 L
507.888 240.144 L
512.352 239.378 L
516.816 238.602 L
521.28 237.827 LE
[8 8 8 8] 0 setdash
0 0 0 C
74.88 65.9928 LS
79.344 70.6643 L
83.808 75.3357 L
88.272 80.0071 L
92.736 84.6786 L
97.2 89.35 L
101.664 94.0214 L
106.128 98.6929 L
110.592 103.364 L
115.056 108.036 L
119.52 112.707 L
123.984 117.379 L
128.448 122.05 L
132.912 126.721 L
137.376 131.393 L
141.84 136.064 L
146.304 140.736 L
150.768 145.407 L
155.232 150.079 L
159.696 154.75 L
164.16 159.422 L
168.624 164.093 L
173.088 168.764 L
177.552 173.436 L
182.016 178.107 L
186.48 182.779 L
190.944 187.45 L
195.408 192.122 L
199.872 196.793 L
204.336 201.464 L
208.8 206.136 L
213.264 210.807 L
217.728 215.479 L
222.192 220.15 L
226.656 224.822 L
231.12 229.493 L
235.584 234.164 L
240.048 238.836 L
244.512 243.507 L
248.976 248.179 L
253.44 252.85 L
257.904 257.522 L
262.368 262.193 L
266.832 266.865 L
271.296 271.536 L
275.76 276.207 L
280.224 280.879 L
284.688 285.55 L
289.152 290.222 L
293.616 294.893 L
298.08 299.565 L
302.544 304.236 L
307.008 308.907 L
311.472 313.579 L
315.936 318.25 L
320.4 322.922 L
324.864 327.593 L
329.328 332.265 L
333.792 336.936 L
338.256 341.607 L
342.72 346.279 L
347.184 350.95 L
351.648 355.622 L
356.112 360.293 L
360.576 364.965 L
365.04 369.636 L
369.504 374.308 L
373.968 378.979 L
378.432 383.65 L
382.896 388.322 L
387.36 392.993 L
391.824 397.665 L
393.992 399.934 LE
grestore
grestore
showpage
cleartomark
%%PageTrailer
%%Trailer
end
%%EOF
