%!PS-Adobe-3.0 EPSF-3.0
%%Title: gl2ps_renderer figure
%%Creator: GL2PS 1.4.0, (C) 1999-2017 C. Geuzaine
%%For: Octave
%%CreationDate: Sat Feb  1 15:15:17 2020
%%LanguageLevel: 3
%%DocumentData: Clean7Bit
%%Pages: 1
%%BoundingBox: 0 0 576 432
%%EndComments
%%BeginProlog
/gl2psdict 64 dict def gl2psdict begin
/tryPS3shading false def % set to false to force subdivision
/rThreshold 0.064 def % red component subdivision threshold
/gThreshold 0.034 def % green component subdivision threshold
/bThreshold 0.1 def % blue component subdivision threshold
/BD { bind def } bind def
/C  { setrgbcolor } BD
/G  { 0.082 mul exch 0.6094 mul add exch 0.3086 mul add neg 1.0 add setgray } BD
/W  { setlinewidth } BD
/LC  { setlinecap } BD
/LJ  { setlinejoin } BD
/FC { findfont exch /SH exch def SH scalefont setfont } BD
/SW { dup stringwidth pop } BD
/S  { FC moveto show } BD
/SBC{ FC moveto SW -2 div 0 rmoveto show } BD
/SBR{ FC moveto SW neg 0 rmoveto show } BD
/SCL{ FC moveto 0 SH -2 div rmoveto show } BD
/SCC{ FC moveto SW -2 div SH -2 div rmoveto show } BD
/SCR{ FC moveto SW neg SH -2 div rmoveto show } BD
/STL{ FC moveto 0 SH neg rmoveto show } BD
/STC{ FC moveto SW -2 div SH neg rmoveto show } BD
/STR{ FC moveto SW neg SH neg rmoveto show } BD
/FCT { FC translate 0 0 } BD
/SR  { gsave FCT moveto rotate show grestore } BD
/SRX  { gsave FCT moveto rotate xshow grestore } BD
/SBCR{ gsave FCT moveto rotate SW -2 div 0 rmoveto show grestore } BD
/SBRR{ gsave FCT moveto rotate SW neg 0 rmoveto show grestore } BD
/SCLR{ gsave FCT moveto rotate 0 SH -2 div rmoveto show grestore} BD
/SCCR{ gsave FCT moveto rotate SW -2 div SH -2 div rmoveto show grestore} BD
/SCRR{ gsave FCT moveto rotate SW neg SH -2 div rmoveto show grestore} BD
/STLR{ gsave FCT moveto rotate 0 SH neg rmoveto show grestore } BD
/STCR{ gsave FCT moveto rotate SW -2 div SH neg rmoveto show grestore } BD
/STRR{ gsave FCT moveto rotate SW neg SH neg rmoveto show grestore } BD
/P  { newpath 0.0 360.0 arc closepath fill } BD
/LS { newpath moveto } BD
/L  { lineto } BD
/LE { lineto stroke } BD
/T  { newpath moveto lineto lineto closepath fill } BD
/STshfill {
      /b1 exch def /g1 exch def /r1 exch def /y1 exch def /x1 exch def
      /b2 exch def /g2 exch def /r2 exch def /y2 exch def /x2 exch def
      /b3 exch def /g3 exch def /r3 exch def /y3 exch def /x3 exch def
      gsave << /ShadingType 4 /ColorSpace [/DeviceRGB]
      /DataSource [ 0 x1 y1 r1 g1 b1 0 x2 y2 r2 g2 b2 0 x3 y3 r3 g3 b3 ] >>
      shfill grestore } BD
/Tm { 3 -1 roll 8 -1 roll 13 -1 roll add add 3 div
      3 -1 roll 7 -1 roll 11 -1 roll add add 3 div
      3 -1 roll 6 -1 roll 9 -1 roll add add 3 div C T } BD
/STsplit {
      4 index 15 index add 0.5 mul
      4 index 15 index add 0.5 mul
      4 index 15 index add 0.5 mul
      4 index 15 index add 0.5 mul
      4 index 15 index add 0.5 mul
      5 copy 5 copy 25 15 roll
      9 index 30 index add 0.5 mul
      9 index 30 index add 0.5 mul
      9 index 30 index add 0.5 mul
      9 index 30 index add 0.5 mul
      9 index 30 index add 0.5 mul
      5 copy 5 copy 35 5 roll 25 5 roll 15 5 roll
      4 index 10 index add 0.5 mul
      4 index 10 index add 0.5 mul
      4 index 10 index add 0.5 mul
      4 index 10 index add 0.5 mul
      4 index 10 index add 0.5 mul
      5 copy 5 copy 40 5 roll 25 5 roll 15 5 roll 25 5 roll
      STnoshfill STnoshfill STnoshfill STnoshfill } BD
/STnoshfill {
      2 index 8 index sub abs rThreshold gt
      { STsplit }
      { 1 index 7 index sub abs gThreshold gt
        { STsplit }
        { dup 6 index sub abs bThreshold gt
          { STsplit }
          { 2 index 13 index sub abs rThreshold gt
            { STsplit }
            { 1 index 12 index sub abs gThreshold gt
              { STsplit }
              { dup 11 index sub abs bThreshold gt
                { STsplit }
                { 7 index 13 index sub abs rThreshold gt
                  { STsplit }
                  { 6 index 12 index sub abs gThreshold gt
                    { STsplit }
                    { 5 index 11 index sub abs bThreshold gt
                      { STsplit }
                      { Tm }
                      ifelse }
                    ifelse }
                  ifelse }
                ifelse }
              ifelse }
            ifelse }
          ifelse }
        ifelse }
      ifelse } BD
tryPS3shading
{ /shfill where
  { /ST { STshfill } BD }
  { /ST { STnoshfill } BD }
  ifelse }
{ /ST { STnoshfill } BD }
ifelse
end
%%EndProlog
%%BeginSetup
/DeviceRGB setcolorspace
gl2psdict begin
%%EndSetup
%%Page: 1 1
%%BeginPageSetup
%%EndPageSetup
mark
gsave
1.0 1.0 scale
1 1 1 C
newpath 0 0 moveto 576 0 lineto 576 432 lineto 0 432 lineto
closepath fill
gsave
1.0 1.0 scale
1 1 1 C
newpath 0 0 moveto 576 0 lineto 576 432 lineto 0 432 lineto
closepath fill
newpath 0 0 moveto 576 0 lineto 576 432 lineto 0 432 lineto
closepath clip
1 1 1 C
521.28 47.52 74.88 47.52 74.88 399.6 T
521.28 399.6 521.28 47.52 74.88 399.6 T
0.5 W
0.15 0.15 0.15 C
74.88 47.52 LS
74.88 51.985 LE
74.88 399.6 LS
74.88 395.135 LE
298.08 47.52 LS
298.08 51.985 LE
298.08 399.6 LS
298.08 395.135 LE
521.28 47.52 LS
521.28 51.985 LE
521.28 399.6 LS
521.28 395.135 LE
gsave
0.14902 0.14902 0.14902 C
(0) [10] 0 71.88 32.0183 10 /Helvetica SRX
grestore

gsave
0.14902 0.14902 0.14902 C
(5) [10] 0 295.08 32.0183 10 /Helvetica SRX
grestore

gsave
0.14902 0.14902 0.14902 C
(10) [6 10] 0 515.28 32.0183 10 /Helvetica SRX
grestore

74.88 47.52 LS
79.348 47.52 LE
521.28 47.52 LS
516.812 47.52 LE
74.88 223.56 LS
79.348 223.56 LE
521.28 223.56 LS
516.812 223.56 LE
74.88 399.6 LS
79.348 399.6 LE
521.28 399.6 LS
516.812 399.6 LE
gsave
0.14902 0.14902 0.14902 C
(0) [10] 0 63.8755 43.52 10 /Helvetica SRX
grestore

gsave
0.14902 0.14902 0.14902 C
(0.5) [6 3 10] 0 54.8755 219.56 10 /Helvetica SRX
grestore

gsave
0.14902 0.14902 0.14902 C
(1) [10] 0 63.8755 395.6 10 /Helvetica SRX
grestore

2 LC
[16 0] 0 setdash
74.88 47.52 LS
521.28 47.52 LE
74.88 399.6 LS
521.28 399.6 LE
74.88 47.52 LS
74.88 399.6 LE
521.28 47.52 LS
521.28 399.6 LE
2 W
0 LC
1 LJ
[2 2 2 2 2 2 2 2 2 2] 0 setdash
0 0 0 C
74.88 47.52 LS
79.344 52.4491 L
83.808 57.3782 L
88.272 62.3074 L
92.736 67.2365 L
97.2 72.1656 L
101.664 77.0947 L
106.128 82.0238 L
110.592 86.953 L
115.056 91.8821 L
119.52 96.8112 L
123.984 101.74 L
128.448 106.669 L
132.912 111.599 L
137.376 116.528 L
141.84 121.457 L
146.304 126.386 L
150.768 131.315 L
155.232 136.279 L
159.696 141.208 L
164.16 146.138 L
168.624 151.067 L
173.088 155.996 L
177.552 160.925 L
182.016 165.854 L
186.48 170.783 L
190.944 175.712 L
195.408 180.641 L
199.872 185.571 L
204.336 190.5 L
208.8 195.429 L
213.264 200.358 L
217.728 205.287 L
222.192 210.216 L
226.656 215.145 L
231.12 220.074 L
235.584 225.004 L
240.048 229.933 L
244.512 234.862 L
248.976 239.791 L
253.44 244.72 L
257.904 249.649 L
262.368 254.578 L
266.832 259.507 L
271.296 264.436 L
275.76 269.366 L
280.224 274.295 L
284.688 279.224 L
289.152 284.153 L
293.616 289.082 L
298.08 294.011 L
302.544 298.94 L
307.008 303.869 L
311.472 308.799 L
315.936 313.763 L
320.4 318.692 L
324.864 323.621 L
329.328 328.55 L
333.792 333.479 L
338.256 338.409 L
342.72 343.338 L
347.184 348.267 L
351.648 353.196 L
356.112 358.125 L
360.576 363.054 L
365.04 367.983 L
369.504 372.912 L
373.968 377.841 L
378.432 382.771 L
382.896 387.7 L
387.36 392.629 L
391.824 397.558 L
393.992 399.952 LE
[] 0 setdash
0 0 1 C
74.88 47.52 LS
79.344 53.9983 L
83.808 60.3357 L
88.272 66.7788 L
92.736 73.2218 L
97.2 79.5593 L
101.664 85.8967 L
106.128 92.0581 L
110.592 98.2547 L
115.056 104.311 L
119.52 110.366 L
123.984 116.352 L
128.448 122.267 L
132.912 127.9 L
137.376 133.568 L
141.84 139.166 L
146.304 144.553 L
150.768 149.799 L
155.232 154.975 L
159.696 160.08 L
164.16 164.903 L
168.624 169.657 L
173.088 174.269 L
177.552 178.74 L
182.016 183.036 L
186.48 187.225 L
190.944 191.274 L
195.408 195.147 L
199.872 198.879 L
204.336 202.435 L
208.8 205.85 L
213.264 209.195 L
217.728 212.293 L
222.192 215.251 L
226.656 218.103 L
231.12 220.814 L
235.584 223.349 L
240.048 225.813 L
244.512 228.102 L
248.976 230.285 L
253.44 232.327 L
257.904 234.228 L
262.368 236.024 L
266.832 237.714 L
271.296 239.263 L
275.76 240.706 L
280.224 242.044 L
284.688 243.312 L
289.152 244.403 L
293.616 245.459 L
298.08 246.375 L
302.544 247.255 L
307.008 247.994 L
311.472 248.663 L
315.936 249.262 L
320.4 249.79 L
324.864 250.248 L
329.328 250.6 L
333.792 250.917 L
338.256 251.128 L
342.72 251.304 L
347.184 251.41 L
351.648 251.48 L
356.112 251.48 L
360.576 251.41 L
365.04 251.304 L
369.504 251.163 L
373.968 250.952 L
378.432 250.741 L
382.896 250.459 L
387.36 250.142 L
391.824 249.79 L
396.288 249.403 L
400.752 248.945 L
405.216 248.522 L
409.68 248.03 L
414.144 247.537 L
418.608 246.973 L
423.072 246.41 L
427.536 245.847 L
432 245.248 L
436.464 244.614 L
440.928 243.981 L
445.392 243.312 L
449.856 242.608 L
454.32 241.939 L
458.784 241.234 L
463.248 240.495 L
467.712 239.791 L
472.176 239.016 L
476.64 238.277 L
481.104 237.502 L
485.568 236.728 L
490.032 235.953 L
494.496 235.179 L
498.96 234.369 L
503.424 233.594 L
507.888 232.784 L
512.352 231.975 L
516.816 231.13 L
521.28 230.32 LE
grestore
grestore
showpage
cleartomark
%%PageTrailer
%%Trailer
end
%%EOF
