%!PS-Adobe-3.0 EPSF-3.0
%%Title: sphere_ellipsoid.fig
%%Creator: fig2dev Version 3.2.7b
%%CreationDate: 2021-01-09 12:42:55
%%BoundingBox: 0 0 86 71
%%Magnification: 1.0000
%%EndComments
%%BeginProlog
/$F2psDict 200 dict def
$F2psDict begin
$F2psDict /mtrx matrix put
/col-1 {0 setgray} bind def
/col0 {0.000 0.000 0.000 srgb} bind def
/col7 {1.000 1.000 1.000 srgb} bind def
/col19 {0.690 0.000 0.000 srgb} bind def

end

/cp {closepath} bind def
/ef {eofill} bind def
/gr {grestore} bind def
/gs {gsave} bind def
/sa {save} bind def
/rs {restore} bind def
/l {lineto} bind def
/rl {rlineto} bind def
/m {moveto} bind def
/rm {rmoveto} bind def
/n {newpath} bind def
/s {stroke} bind def
/sh {show} bind def
/slc {setlinecap} bind def
/slj {setlinejoin} bind def
/slw {setlinewidth} bind def
/srgb {setrgbcolor} bind def
/rot {rotate} bind def
/sc {scale} bind def
/sd {setdash} bind def
/ff {findfont} bind def
/sf {setfont} bind def
/scf {scalefont} bind def
/sw {stringwidth} bind def
/tr {translate} bind def
/tnt {dup dup currentrgbcolor
  4 -2 roll dup 1 exch sub 3 -1 roll mul add
  4 -2 roll dup 1 exch sub 3 -1 roll mul add
  4 -2 roll dup 1 exch sub 3 -1 roll mul add srgb}
  bind def
/shd {dup dup currentrgbcolor 4 -2 roll mul 4 -2 roll mul
  4 -2 roll mul srgb} bind def
/reencdict 12 dict def /ReEncode { reencdict begin
/newcodesandnames exch def /newfontname exch def /basefontname exch def
/basefontdict basefontname findfont def /newfont basefontdict maxlength dict def
basefontdict { exch dup /FID ne { dup /Encoding eq
{ exch dup length array copy newfont 3 1 roll put }
{ exch newfont 3 1 roll put } ifelse } { pop pop } ifelse } forall
newfont /FontName newfontname put newcodesandnames aload pop
128 1 255 { newfont /Encoding get exch /.notdef put } for
newcodesandnames length 2 idiv { newfont /Encoding get 3 1 roll put } repeat
newfontname newfont definefont pop end } def
/isovec [
8#055 /minus 8#200 /grave 8#201 /acute 8#202 /circumflex 8#203 /tilde
8#204 /macron 8#205 /breve 8#206 /dotaccent 8#207 /dieresis
8#210 /ring 8#211 /cedilla 8#212 /hungarumlaut 8#213 /ogonek 8#214 /caron
8#220 /dotlessi 8#230 /oe 8#231 /OE
8#240 /space 8#241 /exclamdown 8#242 /cent 8#243 /sterling
8#244 /currency 8#245 /yen 8#246 /brokenbar 8#247 /section 8#250 /dieresis
8#251 /copyright 8#252 /ordfeminine 8#253 /guillemotleft 8#254 /logicalnot
8#255 /hyphen 8#256 /registered 8#257 /macron 8#260 /degree 8#261 /plusminus
8#262 /twosuperior 8#263 /threesuperior 8#264 /acute 8#265 /mu 8#266 /paragraph
8#267 /periodcentered 8#270 /cedilla 8#271 /onesuperior 8#272 /ordmasculine
8#273 /guillemotright 8#274 /onequarter 8#275 /onehalf
8#276 /threequarters 8#277 /questiondown 8#300 /Agrave 8#301 /Aacute
8#302 /Acircumflex 8#303 /Atilde 8#304 /Adieresis 8#305 /Aring
8#306 /AE 8#307 /Ccedilla 8#310 /Egrave 8#311 /Eacute
8#312 /Ecircumflex 8#313 /Edieresis 8#314 /Igrave 8#315 /Iacute
8#316 /Icircumflex 8#317 /Idieresis 8#320 /Eth 8#321 /Ntilde 8#322 /Ograve
8#323 /Oacute 8#324 /Ocircumflex 8#325 /Otilde 8#326 /Odieresis 8#327 /multiply
8#330 /Oslash 8#331 /Ugrave 8#332 /Uacute 8#333 /Ucircumflex
8#334 /Udieresis 8#335 /Yacute 8#336 /Thorn 8#337 /germandbls 8#340 /agrave
8#341 /aacute 8#342 /acircumflex 8#343 /atilde 8#344 /adieresis 8#345 /aring
8#346 /ae 8#347 /ccedilla 8#350 /egrave 8#351 /eacute
8#352 /ecircumflex 8#353 /edieresis 8#354 /igrave 8#355 /iacute
8#356 /icircumflex 8#357 /idieresis 8#360 /eth 8#361 /ntilde 8#362 /ograve
8#363 /oacute 8#364 /ocircumflex 8#365 /otilde 8#366 /odieresis 8#367 /divide
8#370 /oslash 8#371 /ugrave 8#372 /uacute 8#373 /ucircumflex
8#374 /udieresis 8#375 /yacute 8#376 /thorn 8#377 /ydieresis] def
/Times-Roman /Times-Roman-iso isovec ReEncode
 /DrawEllipse {
	/endangle exch def
	/startangle exch def
	/yrad exch def
	/xrad exch def
	/y exch def
	/x exch def
	/savematrix mtrx currentmatrix def
	x y tr xrad yrad sc 0 0 1 startangle endangle arc
	closepath
	savematrix setmatrix
	} def

/$F2psBegin {$F2psDict begin /$F2psEnteredState save def} def
/$F2psEnd {$F2psEnteredState restore end} def

/pageheader {
sa
n 0 71 m 0 0 l 86 0 l 86 71 l cp clip
-45.9 122.8 tr
1 -1 sc
$F2psBegin
10 setmiterlimit
0 slj 0 slc
 0.06299 0.06299 sc
} bind def
/pagefooter {
$F2psEnd
restore
} bind def
%%EndProlog
pageheader
%
% Fig objects follow
%
% 
% here starts figure with depth 50
% Polyline
0 slj
0 slc
7.500 slw
n 797 1193 m
 869 1193 l gs col19 s gr % Polyline
n 833 1134 m
 833 1193 l gs col19 s gr % Polyline
n 2003 1607 m
 2075 1607 l gs col19 s gr % Polyline
n 2039 1548 m
 2039 1607 l gs col19 s gr % Polyline
n 1503 1098 m
 1503 1157 l gs col0 s gr % Polyline
n 1467 1157 m
 1539 1157 l gs col0 s gr % Polyline
n 833 900 m
 833 959 l gs col0 s gr % Polyline
n 804 959 m
 862 959 l gs col0 s gr % Ellipse
n 1800 1800 23 23 0 360 DrawEllipse gs 0.00 setgray ef gr gs col0 s gr
% Ellipse
n 900 900 23 23 0 360 DrawEllipse gs 0.00 setgray ef gr gs col0 s gr
/Times-Roman-iso ff 158.75 scf sf
743 922 m
gs 1 -1 sc (z) col0 sh gr
/Times-Roman-iso ff 158.75 scf sf
1764 1935 m
gs 1 -1 sc (z) col0 sh gr
/Times-Roman-iso ff 127.00 scf sf
810 1917 m
gs 1 -1 sc (0) col0 sh gr
% Polyline
15.000 slw
gs  clippath
1793 1778 m 1778 1793 l 1676 1740 l 1740 1676 l cp
eoclip
n 923 922 m
 1778 1778 l gs col0 s gr gr
% arrowhead
7.500 slw
n 1676 1740 m 1772 1772 l 1740 1676 l 1676 1740 l  cp gs 0.00 setgray ef gr  col0 s
% Polyline
15.000 slw
n 828 1107 m
 846 1062 l gs col19 s gr % Polyline
n 1796 1521 m
 1814 1476 l gs col19 s gr % Polyline
n 2034 1521 m
 2052 1476 l gs col19 s gr % Polyline
n 2030 1881 m
 2048 1836 l gs col19 s gr % Polyline
7.500 slw
n 900 900 m 900 1800 l
 1980 1800 l gs col0 s gr /Times-Roman-iso ff 158.75 scf sf
1170 1125 m
gs 1 -1 sc (z - z) col0 sh gr
/Times-Roman-iso ff 158.75 scf sf
1710 1575 m
gs 1 -1 sc (z - z) col19 sh gr
/Times-Roman-iso ff 158.75 scf sf
1949 1935 m
gs 1 -1 sc (z) col19 sh gr
/Times-Roman-iso ff 158.75 scf sf
743 1161 m
gs 1 -1 sc (z) col19 sh gr
% here ends figure;
% 
% here starts figure with depth 40
% Ellipse
7.500 slw
0 slc
n 900 1125 23 23 0 360 DrawEllipse gs col19 1.00 shd ef gr gs col19 s gr
% Ellipse
n 1980 1800 23 23 0 360 DrawEllipse gs col19 1.00 shd ef gr gs col19 s gr
% Polyline
0 slj
15.000 slw
gs  clippath
1967 1779 m 1956 1796 l 1845 1768 l 1893 1692 l cp
eoclip
n 927 1143 m
 1953 1782 l gs col19 s gr gr
% arrowhead
7.500 slw
n 1845 1768 m 1946 1777 l 1893 1692 l 1845 1768 l  cp gs col19 1.00 shd ef gr  col19 s
% here ends figure;
pagefooter
showpage
%%Trailer
%EOF
